{
  "1627_10_0":{
    "conspectus_use_unit_code":"1627.8.0.0",
    "leganto_dept_name":"null",
    "cristin_unit_code":"1627.0.0.0",
    "cristin_unit_name_en":"Norwegian Defence University College",
    "cristin_unit_name_nb":"Forsvarets h\u00f8gskole",
    "cristin_sub_unit_code":"1627.8.0.0",
    "cristin_sub_unit_name_en":"Norwegian Defence Command and Staff College",
    "cristin_sub_unit_name_nb":"Stabsskolen",
    "cristin_sub_sub_unit_code":null,
    "cristin_sub_sub_unit_name_en":null,
    "cristin_sub_sub_unit_name_nb":null
  },
  "1627_10":{
    "conspectus_use_unit_code":"1627.8.0.0",
    "leganto_dept_name":"Akershus festning",
    "cristin_unit_code":"1627.0.0.0",
    "cristin_unit_name_en":"Norwegian Defence University College",
    "cristin_unit_name_nb":"Forsvarets h\u00f8gskole",
    "cristin_sub_unit_code":"1627.8.0.0",
    "cristin_sub_unit_name_en":"Norwegian Defence Command and Staff College",
    "cristin_sub_unit_name_nb":"Stabsskolen",
    "cristin_sub_sub_unit_code":null,
    "cristin_sub_sub_unit_name_en":null,
    "cristin_sub_sub_unit_name_nb":null
  },
  "1627_20_0":{
    "conspectus_use_unit_code":"1627.5.0.0",
    "leganto_dept_name":"null",
    "cristin_unit_code":"1627.0.0.0",
    "cristin_unit_name_en":"Norwegian Defence University College",
    "cristin_unit_name_nb":"Forsvarets h\u00f8gskole",
    "cristin_sub_unit_code":"1627.5.0.0",
    "cristin_sub_unit_name_en":"Norwegian Defence Cyber Academy",
    "cristin_sub_unit_name_nb":"Cyberingeni\u00f8rskolen",
    "cristin_sub_sub_unit_code":null,
    "cristin_sub_sub_unit_name_en":null,
    "cristin_sub_sub_unit_name_nb":null
  },
  "1627_20":{
    "conspectus_use_unit_code":"1627.5.0.0",
    "leganto_dept_name":"Krigsskolen",
    "cristin_unit_code":"1627.0.0.0",
    "cristin_unit_name_en":"Norwegian Defence University College",
    "cristin_unit_name_nb":"Forsvarets h\u00f8gskole",
    "cristin_sub_unit_code":"1627.5.0.0",
    "cristin_sub_unit_name_en":"Norwegian Defence Cyber Academy",
    "cristin_sub_unit_name_nb":"Cyberingeni\u00f8rskolen",
    "cristin_sub_sub_unit_code":null,
    "cristin_sub_sub_unit_name_en":null,
    "cristin_sub_sub_unit_name_nb":null
  },
  "1627_30_0":{
    "conspectus_use_unit_code":"1627.3.0.0",
    "leganto_dept_name":"null",
    "cristin_unit_code":"1627.0.0.0",
    "cristin_unit_name_en":"Norwegian Defence University College",
    "cristin_unit_name_nb":"Forsvarets h\u00f8gskole",
    "cristin_sub_unit_code":"1627.3.0.0",
    "cristin_sub_unit_name_en":"Royal Norwegian Naval Academy (RNoNA)",
    "cristin_sub_unit_name_nb":"Sj\u00f8krigsskolen (SKSK)",
    "cristin_sub_sub_unit_code":null,
    "cristin_sub_sub_unit_name_en":null,
    "cristin_sub_sub_unit_name_nb":null
  },
  "1627_30":{
    "conspectus_use_unit_code":"1627.3.0.0",
    "leganto_dept_name":"Sj\u00f8krigsskolen",
    "cristin_unit_code":"1627.0.0.0",
    "cristin_unit_name_en":"Norwegian Defence University College",
    "cristin_unit_name_nb":"Forsvarets h\u00f8gskole",
    "cristin_sub_unit_code":"1627.3.0.0",
    "cristin_sub_unit_name_en":"Royal Norwegian Naval Academy (RNoNA)",
    "cristin_sub_unit_name_nb":"Sj\u00f8krigsskolen (SKSK)",
    "cristin_sub_sub_unit_code":null,
    "cristin_sub_sub_unit_name_en":null,
    "cristin_sub_sub_unit_name_nb":null
  },
  "1627_40_0":{
    "conspectus_use_unit_code":"1627.2.0.0",
    "leganto_dept_name":"null",
    "cristin_unit_code":"1627.0.0.0",
    "cristin_unit_name_en":"Norwegian Defence University College",
    "cristin_unit_name_nb":"Forsvarets h\u00f8gskole",
    "cristin_sub_unit_code":"1627.2.0.0",
    "cristin_sub_unit_name_en":"Royal Norwegian Air Force Academy (RNoAFA)",
    "cristin_sub_unit_name_nb":"Luftkrigsskolen (LKSK)",
    "cristin_sub_sub_unit_code":null,
    "cristin_sub_sub_unit_name_en":null,
    "cristin_sub_sub_unit_name_nb":null
  },
  "1627_40":{
    "conspectus_use_unit_code":"1627.2.0.0",
    "leganto_dept_name":"Luftkrigsskolen",
    "cristin_unit_code":"1627.0.0.0",
    "cristin_unit_name_en":"Norwegian Defence University College",
    "cristin_unit_name_nb":"Forsvarets h\u00f8gskole",
    "cristin_sub_unit_code":"1627.2.0.0",
    "cristin_sub_unit_name_en":"Royal Norwegian Air Force Academy (RNoAFA)",
    "cristin_sub_unit_name_nb":"Luftkrigsskolen (LKSK)",
    "cristin_sub_sub_unit_code":null,
    "cristin_sub_sub_unit_name_en":null,
    "cristin_sub_sub_unit_name_nb":null
  },
  "1627_50_0":{
    "conspectus_use_unit_code":"1627.5.0.0",
    "leganto_dept_name":"null",
    "cristin_unit_code":"1627.0.0.0",
    "cristin_unit_name_en":"Norwegian Defence University College",
    "cristin_unit_name_nb":"Forsvarets h\u00f8gskole",
    "cristin_sub_unit_code":"1627.5.0.0",
    "cristin_sub_unit_name_en":"Norwegian Defence Cyber Academy",
    "cristin_sub_unit_name_nb":"Cyberingeni\u00f8rskolen",
    "cristin_sub_sub_unit_code":null,
    "cristin_sub_sub_unit_name_en":null,
    "cristin_sub_sub_unit_name_nb":null
  },
  "1627_50":{
    "conspectus_use_unit_code":"1627.5.0.0",
    "leganto_dept_name":"Cyberingeni\u00f8rskolen",
    "cristin_unit_code":"1627.0.0.0",
    "cristin_unit_name_en":"Norwegian Defence University College",
    "cristin_unit_name_nb":"Forsvarets h\u00f8gskole",
    "cristin_sub_unit_code":"1627.5.0.0",
    "cristin_sub_unit_name_en":"Norwegian Defence Cyber Academy",
    "cristin_sub_unit_name_nb":"Cyberingeni\u00f8rskolen",
    "cristin_sub_sub_unit_code":null,
    "cristin_sub_sub_unit_name_en":null,
    "cristin_sub_sub_unit_name_nb":null
  },
  "nan":{
    "conspectus_use_unit_code":"1627.0.0.0",
    "leganto_dept_name":"null",
    "cristin_unit_code":"1627.0.0.0",
    "cristin_unit_name_en":"Norwegian Defence University College",
    "cristin_unit_name_nb":"Forsvarets h\u00f8gskole",
    "cristin_sub_unit_code":null,
    "cristin_sub_unit_name_en":null,
    "cristin_sub_unit_name_nb":null,
    "cristin_sub_sub_unit_code":null,
    "cristin_sub_sub_unit_name_en":null,
    "cristin_sub_sub_unit_name_nb":null
  }
}