{
  "203_0_0":{
    "use_unit_code":"203.0.0.0",
    "leganto_dept_name":"H\u00f8gskulen p\u00e5 Vestlandet",
    "unit_code":"203.0.0.0",
    "unit_name_en":"Western Norway University of Applied Sciences",
    "unit_name_nb":"H\u00f8gskulen p\u00e5 Vestlandet",
    "sub_unit_code":null,
    "sub_unit_name_en":null,
    "sub_unit_name_nb":null,
    "sub_sub_unit_code":null,
    "sub_sub_unit_name_en":null,
    "sub_sub_unit_name_nb":null
  },
  "203_0_7":{
    "use_unit_code":"203.19.0.0",
    "leganto_dept_name":"Avdeling for utdanningskvalitet",
    "unit_code":"203.0.0.0",
    "unit_name_en":"Western Norway University of Applied Sciences",
    "unit_name_nb":"H\u00f8gskulen p\u00e5 Vestlandet",
    "sub_unit_code":"203.19.0.0",
    "sub_unit_name_en":"Administrative units",
    "sub_unit_name_nb":"Administrasjon",
    "sub_sub_unit_code":null,
    "sub_sub_unit_name_en":null,
    "sub_sub_unit_name_nb":null
  },
  "203_10_0":{
    "use_unit_code":"203.11.0.0",
    "leganto_dept_name":"Fakultet for helse- og sosialvitskap",
    "unit_code":"203.0.0.0",
    "unit_name_en":"Western Norway University of Applied Sciences",
    "unit_name_nb":"H\u00f8gskulen p\u00e5 Vestlandet",
    "sub_unit_code":"203.11.0.0",
    "sub_unit_name_en":"Faculty of Health and Social Sciences",
    "sub_unit_name_nb":"Fakultet for helse- og sosialvitskap",
    "sub_sub_unit_code":null,
    "sub_sub_unit_name_en":null,
    "sub_sub_unit_name_nb":null
  },
  "203_10_1":{
    "use_unit_code":"203.11.1.0",
    "leganto_dept_name":"Institutt for helse- og omsorgsvitskap",
    "unit_code":"203.0.0.0",
    "unit_name_en":"Western Norway University of Applied Sciences",
    "unit_name_nb":"H\u00f8gskulen p\u00e5 Vestlandet",
    "sub_unit_code":"203.11.0.0",
    "sub_unit_name_en":"Faculty of Health and Social Sciences",
    "sub_unit_name_nb":"Fakultet for helse- og sosialvitskap",
    "sub_sub_unit_code":"203.11.1.0",
    "sub_sub_unit_name_en":"Departement of health and caring sciences",
    "sub_sub_unit_name_nb":"Institutt for helse- og omsorgsvitskap"
  },
  "203_10_2":{
    "use_unit_code":"203.11.2.0",
    "leganto_dept_name":"Institutt for helse og funksjon",
    "unit_code":"203.0.0.0",
    "unit_name_en":"Western Norway University of Applied Sciences",
    "unit_name_nb":"H\u00f8gskulen p\u00e5 Vestlandet",
    "sub_unit_code":"203.11.0.0",
    "sub_unit_name_en":"Faculty of Health and Social Sciences",
    "sub_unit_name_nb":"Fakultet for helse- og sosialvitskap",
    "sub_sub_unit_code":"203.11.2.0",
    "sub_sub_unit_name_en":"Departement of health and functioning",
    "sub_sub_unit_name_nb":"Institutt for helse og funksjon"
  },
  "203_10_3":{
    "use_unit_code":"203.11.3.0",
    "leganto_dept_name":"Institutt for velferd og deltaking",
    "unit_code":"203.0.0.0",
    "unit_name_en":"Western Norway University of Applied Sciences",
    "unit_name_nb":"H\u00f8gskulen p\u00e5 Vestlandet",
    "sub_unit_code":"203.11.0.0",
    "sub_unit_name_en":"Faculty of Health and Social Sciences",
    "sub_unit_name_nb":"Fakultet for helse- og sosialvitskap",
    "sub_sub_unit_code":"203.11.3.0",
    "sub_sub_unit_name_en":"Departement of welfare and participation",
    "sub_sub_unit_name_nb":"Institutt for velferd og deltaking"
  },
  "203_10_6":{
    "use_unit_code":"203.11.2.0",
    "leganto_dept_name":"Senter for kunnskapsbasert praksis",
    "unit_code":"203.0.0.0",
    "unit_name_en":"Western Norway University of Applied Sciences",
    "unit_name_nb":"H\u00f8gskulen p\u00e5 Vestlandet",
    "sub_unit_code":"203.11.0.0",
    "sub_unit_name_en":"Faculty of Health and Social Sciences",
    "sub_unit_name_nb":"Fakultet for helse- og sosialvitskap",
    "sub_sub_unit_code":"203.11.2.0",
    "sub_sub_unit_name_en":"Departement of health and functioning",
    "sub_sub_unit_name_nb":"Institutt for helse og funksjon"
  },
  "203_20_0":{
    "use_unit_code":"203.12.0.0",
    "leganto_dept_name":"Fakultet for ingeni\u00f8r- og naturvitskap",
    "unit_code":"203.0.0.0",
    "unit_name_en":"Western Norway University of Applied Sciences",
    "unit_name_nb":"H\u00f8gskulen p\u00e5 Vestlandet",
    "sub_unit_code":"203.12.0.0",
    "sub_unit_name_en":"Faculty of Engineering and Science",
    "sub_unit_name_nb":"Fakultet for ingeni\u00f8r- og naturvitskap",
    "sub_sub_unit_code":null,
    "sub_sub_unit_name_en":null,
    "sub_sub_unit_name_nb":null
  },
  "203_20_10":{
    "use_unit_code":"203.12.12.0",
    "leganto_dept_name":"Institutt for datateknologi, elektroteknologi og realfag",
    "unit_code":"203.0.0.0",
    "unit_name_en":"Western Norway University of Applied Sciences",
    "unit_name_nb":"H\u00f8gskulen p\u00e5 Vestlandet",
    "sub_unit_code":"203.12.0.0",
    "sub_unit_name_en":"Faculty of Engineering and Science",
    "sub_unit_name_nb":"Fakultet for ingeni\u00f8r- og naturvitskap",
    "sub_sub_unit_code":"203.12.12.0",
    "sub_sub_unit_name_en":"Department of Computer science, Electrical engineering and Mathematical sciences",
    "sub_sub_unit_name_nb":"Institutt for datateknologi, elektroteknologi og realfag"
  },
  "203_20_11":{
    "use_unit_code":"203.12.13.0",
    "leganto_dept_name":"Institutt for sikkerhet, kjemi- og bioingeni\u00f8rfag",
    "unit_code":"203.0.0.0",
    "unit_name_en":"Western Norway University of Applied Sciences",
    "unit_name_nb":"H\u00f8gskulen p\u00e5 Vestlandet",
    "sub_unit_code":"203.12.0.0",
    "sub_unit_name_en":"Faculty of Engineering and Science",
    "sub_unit_name_nb":"Fakultet for ingeni\u00f8r- og naturvitskap",
    "sub_sub_unit_code":"203.12.13.0",
    "sub_sub_unit_name_en":"Department of Safety, Chemistry and Biomedicalaboratory sciences",
    "sub_sub_unit_name_nb":"Institutt for sikkerhet, kjemi- og bioingeni\u00f8rfag"
  },
  "203_20_1":{
    "use_unit_code":"203.12.6.0",
    "leganto_dept_name":"Institutt for maskin- og marinfag",
    "unit_code":"203.0.0.0",
    "unit_name_en":"Western Norway University of Applied Sciences",
    "unit_name_nb":"H\u00f8gskulen p\u00e5 Vestlandet",
    "sub_unit_code":"203.12.0.0",
    "sub_unit_name_en":"Faculty of Engineering and Science",
    "sub_unit_name_nb":"Fakultet for ingeni\u00f8r- og naturvitskap",
    "sub_sub_unit_code":"203.12.6.0",
    "sub_sub_unit_name_en":"Department of Mechanical and Marine Engineering",
    "sub_sub_unit_name_nb":"Institutt for maskin- og marinfag"
  },
  "203_20_2":{
    "use_unit_code":"203.12.3.0",
    "leganto_dept_name":"Institutt for byggfag",
    "unit_code":"203.0.0.0",
    "unit_name_en":"Western Norway University of Applied Sciences",
    "unit_name_nb":"H\u00f8gskulen p\u00e5 Vestlandet",
    "sub_unit_code":"203.12.0.0",
    "sub_unit_name_en":"Faculty of Engineering and Science",
    "sub_unit_name_nb":"Fakultet for ingeni\u00f8r- og naturvitskap",
    "sub_sub_unit_code":"203.12.3.0",
    "sub_sub_unit_name_en":"Department of Civil Engineering",
    "sub_sub_unit_name_nb":"Institutt for byggfag"
  },
  "203_20_3":{
    "use_unit_code":"203.12.7.0",
    "leganto_dept_name":"Institutt for milj\u00f8- og naturvitskap",
    "unit_code":"203.0.0.0",
    "unit_name_en":"Western Norway University of Applied Sciences",
    "unit_name_nb":"H\u00f8gskulen p\u00e5 Vestlandet",
    "sub_unit_code":"203.12.0.0",
    "sub_unit_name_en":"Faculty of Engineering and Science",
    "sub_unit_name_nb":"Fakultet for ingeni\u00f8r- og naturvitskap",
    "sub_sub_unit_code":"203.12.7.0",
    "sub_sub_unit_name_en":"Department of Environmental Sciences",
    "sub_sub_unit_name_nb":"Institutt for milj\u00f8- og naturvitskap"
  },
  "203_20_4":{
    "use_unit_code":"203.12.12.0",
    "leganto_dept_name":"Institutt for data- og realfag (- 2019V)",
    "unit_code":"203.0.0.0",
    "unit_name_en":"Western Norway University of Applied Sciences",
    "unit_name_nb":"H\u00f8gskulen p\u00e5 Vestlandet",
    "sub_unit_code":"203.12.0.0",
    "sub_unit_name_en":"Faculty of Engineering and Science",
    "sub_unit_name_nb":"Fakultet for ingeni\u00f8r- og naturvitskap",
    "sub_sub_unit_code":"203.12.12.0",
    "sub_sub_unit_name_en":"Department of Computer science, Electrical engineering and Mathematical sciences",
    "sub_sub_unit_name_nb":"Institutt for datateknologi, elektroteknologi og realfag"
  },
  "203_20_5":{
    "use_unit_code":"203.12.13.0",
    "leganto_dept_name":"Institutt for bio- og kjemiingeni\u00f8rfag (- 2019V)",
    "unit_code":"203.0.0.0",
    "unit_name_en":"Western Norway University of Applied Sciences",
    "unit_name_nb":"H\u00f8gskulen p\u00e5 Vestlandet",
    "sub_unit_code":"203.12.0.0",
    "sub_unit_name_en":"Faculty of Engineering and Science",
    "sub_unit_name_nb":"Fakultet for ingeni\u00f8r- og naturvitskap",
    "sub_sub_unit_code":"203.12.13.0",
    "sub_sub_unit_name_en":"Department of Safety, Chemistry and Biomedicalaboratory sciences",
    "sub_sub_unit_name_nb":"Institutt for sikkerhet, kjemi- og bioingeni\u00f8rfag"
  },
  "203_20_6":{
    "use_unit_code":"203.12.6.0",
    "leganto_dept_name":"Institutt for elektrofag (- 2019V)",
    "unit_code":"203.0.0.0",
    "unit_name_en":"Western Norway University of Applied Sciences",
    "unit_name_nb":"H\u00f8gskulen p\u00e5 Vestlandet",
    "sub_unit_code":"203.12.0.0",
    "sub_unit_name_en":"Faculty of Engineering and Science",
    "sub_unit_name_nb":"Fakultet for ingeni\u00f8r- og naturvitskap",
    "sub_sub_unit_code":"203.12.6.0",
    "sub_sub_unit_name_en":"Department of Mechanical and Marine Engineering",
    "sub_sub_unit_name_nb":"Institutt for maskin- og marinfag"
  },
  "203_20_7":{
    "use_unit_code":"203.12.13.0",
    "leganto_dept_name":"Institutt for brannsikkerheit og HMS (- 2019V)",
    "unit_code":"203.0.0.0",
    "unit_name_en":"Western Norway University of Applied Sciences",
    "unit_name_nb":"H\u00f8gskulen p\u00e5 Vestlandet",
    "sub_unit_code":"203.12.0.0",
    "sub_unit_name_en":"Faculty of Engineering and Science",
    "sub_unit_name_nb":"Fakultet for ingeni\u00f8r- og naturvitskap",
    "sub_sub_unit_code":"203.12.13.0",
    "sub_sub_unit_name_en":"Department of Safety, Chemistry and Biomedicalaboratory sciences",
    "sub_sub_unit_name_nb":"Institutt for sikkerhet, kjemi- og bioingeni\u00f8rfag"
  },
  "203_20_8":{
    "use_unit_code":"203.12.8.0",
    "leganto_dept_name":"Dykkarutdanninga",
    "unit_code":"203.0.0.0",
    "unit_name_en":"Western Norway University of Applied Sciences",
    "unit_name_nb":"H\u00f8gskulen p\u00e5 Vestlandet",
    "sub_unit_code":"203.12.0.0",
    "sub_unit_name_en":"Faculty of Engineering and Science",
    "sub_unit_name_nb":"Fakultet for ingeni\u00f8r- og naturvitskap",
    "sub_sub_unit_code":"203.12.8.0",
    "sub_sub_unit_name_en":"Diver Education",
    "sub_sub_unit_name_nb":"Dykkerutdanninga"
  },
  "203_20_9":{
    "use_unit_code":"203.12.11.0",
    "leganto_dept_name":"Mohnsenteret for innovasjon og regional utvikling",
    "unit_code":"203.0.0.0",
    "unit_name_en":"Western Norway University of Applied Sciences",
    "unit_name_nb":"H\u00f8gskulen p\u00e5 Vestlandet",
    "sub_unit_code":"203.12.0.0",
    "sub_unit_name_en":"Faculty of Engineering and Science",
    "sub_unit_name_nb":"Fakultet for ingeni\u00f8r- og naturvitskap",
    "sub_sub_unit_code":"203.12.11.0",
    "sub_sub_unit_name_en":"Mohn Center for Innovation and Regional Development",
    "sub_sub_unit_name_nb":"Mohnsenteret for innovasjon og regional utvikling"
  },
  "203_30_0":{
    "use_unit_code":"203.10.0.0",
    "leganto_dept_name":"Fakultet for l\u00e6rarutdanning, kultur og idrett",
    "unit_code":"203.0.0.0",
    "unit_name_en":"Western Norway University of Applied Sciences",
    "unit_name_nb":"H\u00f8gskulen p\u00e5 Vestlandet",
    "sub_unit_code":"203.10.0.0",
    "sub_unit_name_en":"Faculty of Education, Arts and Sports",
    "sub_unit_name_nb":"Fakultet for l\u00e6rarutdanning, kultur og idrett",
    "sub_sub_unit_code":null,
    "sub_sub_unit_name_en":null,
    "sub_sub_unit_name_nb":null
  },
  "203_30_1":{
    "use_unit_code":"203.10.1.0",
    "leganto_dept_name":"Institutt for idrett, kosthald og naturfag",
    "unit_code":"203.0.0.0",
    "unit_name_en":"Western Norway University of Applied Sciences",
    "unit_name_nb":"H\u00f8gskulen p\u00e5 Vestlandet",
    "sub_unit_code":"203.10.0.0",
    "sub_unit_name_en":"Faculty of Education, Arts and Sports",
    "sub_unit_name_nb":"Fakultet for l\u00e6rarutdanning, kultur og idrett",
    "sub_sub_unit_code":"203.10.1.0",
    "sub_sub_unit_name_en":"Department of Sport, Food and Natural Sciences",
    "sub_sub_unit_name_nb":"Institutt for idrett, kosthald og naturfag"
  },
  "203_30_2":{
    "use_unit_code":"203.10.2.0",
    "leganto_dept_name":"Institutt for pedagogikk, religion og samfunnsfag",
    "unit_code":"203.0.0.0",
    "unit_name_en":"Western Norway University of Applied Sciences",
    "unit_name_nb":"H\u00f8gskulen p\u00e5 Vestlandet",
    "sub_unit_code":"203.10.0.0",
    "sub_unit_name_en":"Faculty of Education, Arts and Sports",
    "sub_unit_name_nb":"Fakultet for l\u00e6rarutdanning, kultur og idrett",
    "sub_sub_unit_code":"203.10.2.0",
    "sub_sub_unit_name_en":"Department of Pedagogy, Religion and Social Studies",
    "sub_sub_unit_name_nb":"Institutt for pedagogikk, religion og samfunnsfag"
  },
  "203_30_3":{
    "use_unit_code":"203.10.3.0",
    "leganto_dept_name":"Institutt for spr\u00e5k, litteratur, matematikk og tolking",
    "unit_code":"203.0.0.0",
    "unit_name_en":"Western Norway University of Applied Sciences",
    "unit_name_nb":"H\u00f8gskulen p\u00e5 Vestlandet",
    "sub_unit_code":"203.10.0.0",
    "sub_unit_name_en":"Faculty of Education, Arts and Sports",
    "sub_unit_name_nb":"Fakultet for l\u00e6rarutdanning, kultur og idrett",
    "sub_sub_unit_code":"203.10.3.0",
    "sub_sub_unit_name_en":"Department of Language, Literature, Mathematics and Interpreting",
    "sub_sub_unit_name_nb":"Institutt for spr\u00e5k, litteratur, matematikk og tolking"
  },
  "203_30_4":{
    "use_unit_code":"203.10.4.0",
    "leganto_dept_name":"Institutt for kunstfag",
    "unit_code":"203.0.0.0",
    "unit_name_en":"Western Norway University of Applied Sciences",
    "unit_name_nb":"H\u00f8gskulen p\u00e5 Vestlandet",
    "sub_unit_code":"203.10.0.0",
    "sub_unit_name_en":"Faculty of Education, Arts and Sports",
    "sub_unit_name_nb":"Fakultet for l\u00e6rarutdanning, kultur og idrett",
    "sub_sub_unit_code":"203.10.4.0",
    "sub_sub_unit_name_en":"Department of Arts Education",
    "sub_sub_unit_name_nb":"Institutt for kunstfag"
  },
  "203_40_0":{
    "use_unit_code":"203.13.0.0",
    "leganto_dept_name":"Fakultet for \u00f8konomi og samfunnsvitskap",
    "unit_code":"203.0.0.0",
    "unit_name_en":"Western Norway University of Applied Sciences",
    "unit_name_nb":"H\u00f8gskulen p\u00e5 Vestlandet",
    "sub_unit_code":"203.13.0.0",
    "sub_unit_name_en":"Faculty of Business Administration and Social Sciences",
    "sub_unit_name_nb":"Fakultet for \u00f8konomi og samfunnsvitskap",
    "sub_sub_unit_code":null,
    "sub_sub_unit_name_en":null,
    "sub_sub_unit_name_nb":null
  },
  "203_40_1":{
    "use_unit_code":"203.13.1.0",
    "leganto_dept_name":"Institutt for maritime studier",
    "unit_code":"203.0.0.0",
    "unit_name_en":"Western Norway University of Applied Sciences",
    "unit_name_nb":"H\u00f8gskulen p\u00e5 Vestlandet",
    "sub_unit_code":"203.13.0.0",
    "sub_unit_name_en":"Faculty of Business Administration and Social Sciences",
    "sub_unit_name_nb":"Fakultet for \u00f8konomi og samfunnsvitskap",
    "sub_sub_unit_code":"203.13.1.0",
    "sub_sub_unit_name_en":"Department of Maritime Studies",
    "sub_sub_unit_name_nb":"Institutt for maritime studium"
  },
  "203_40_2":{
    "use_unit_code":"203.13.3.0",
    "leganto_dept_name":"Institutt for \u00f8konomi og administrasjon",
    "unit_code":"203.0.0.0",
    "unit_name_en":"Western Norway University of Applied Sciences",
    "unit_name_nb":"H\u00f8gskulen p\u00e5 Vestlandet",
    "sub_unit_code":"203.13.0.0",
    "sub_unit_name_en":"Faculty of Business Administration and Social Sciences",
    "sub_unit_name_nb":"Fakultet for \u00f8konomi og samfunnsvitskap",
    "sub_sub_unit_code":"203.13.3.0",
    "sub_sub_unit_name_en":"Department of Business Administration",
    "sub_sub_unit_name_nb":"Institutt for \u00f8konomi og administrasjon"
  },
  "203_40_3":{
    "use_unit_code":"203.13.2.0",
    "leganto_dept_name":"Institutt for samfunnsvitskap",
    "unit_code":"203.0.0.0",
    "unit_name_en":"Western Norway University of Applied Sciences",
    "unit_name_nb":"H\u00f8gskulen p\u00e5 Vestlandet",
    "sub_unit_code":"203.13.0.0",
    "sub_unit_name_en":"Faculty of Business Administration and Social Sciences",
    "sub_unit_name_nb":"Fakultet for \u00f8konomi og samfunnsvitskap",
    "sub_sub_unit_code":"203.13.2.0",
    "sub_sub_unit_name_en":"Department of Social Science",
    "sub_sub_unit_name_nb":"Institutt for samfunnsvitskap"
  }
}