{
  "nan":{
    "conspectus_use_unit_code":"1661.0.0.0",
    "leganto_dept_name":"null",
    "cristin_unit_code":"1661.0.0.0",
    "cristin_unit_name_en":"University College of Norwegian Correctional Service",
    "cristin_unit_name_nb":"Kriminalomsorgens h\u00f8gskole og utdanningssenter KRUS",
    "cristin_sub_unit_code":null,
    "cristin_sub_unit_name_en":null,
    "cristin_sub_unit_name_nb":null,
    "cristin_sub_sub_unit_code":null,
    "cristin_sub_sub_unit_name_en":null,
    "cristin_sub_sub_unit_name_nb":null
  },
  "1661_0_0":{
    "conspectus_use_unit_code":"1661.0.0.0",
    "leganto_dept_name":"KRUS",
    "cristin_unit_code":"1661.0.0.0",
    "cristin_unit_name_en":"University College of Norwegian Correctional Service",
    "cristin_unit_name_nb":"Kriminalomsorgens h\u00f8gskole og utdanningssenter KRUS",
    "cristin_sub_unit_code":null,
    "cristin_sub_unit_name_en":null,
    "cristin_sub_unit_name_nb":null,
    "cristin_sub_sub_unit_code":null,
    "cristin_sub_sub_unit_name_en":null,
    "cristin_sub_sub_unit_name_nb":null
  }
}