{
  "233_21_0":{
    "conspectus_use_unit_code":"233.0.0.0",
    "leganto_dept_name":"null",
    "cristin_unit_code":"233.0.0.0",
    "cristin_unit_name_en":"Norwegian Police University College",
    "cristin_unit_name_nb":"Politih\u00f8gskolen",
    "cristin_sub_unit_code":null,
    "cristin_sub_unit_name_en":null,
    "cristin_sub_unit_name_nb":null,
    "cristin_sub_sub_unit_code":null,
    "cristin_sub_sub_unit_name_en":null,
    "cristin_sub_sub_unit_name_nb":null
  },
  "233_21":{
    "conspectus_use_unit_code":"233.0.0.0",
    "leganto_dept_name":"Bachelor",
    "cristin_unit_code":"233.0.0.0",
    "cristin_unit_name_en":"Norwegian Police University College",
    "cristin_unit_name_nb":"Politih\u00f8gskolen",
    "cristin_sub_unit_code":null,
    "cristin_sub_unit_name_en":null,
    "cristin_sub_unit_name_nb":null,
    "cristin_sub_sub_unit_code":null,
    "cristin_sub_sub_unit_name_en":null,
    "cristin_sub_sub_unit_name_nb":null
  },
  "233_31":{
    "conspectus_use_unit_code":"233.0.0.0",
    "leganto_dept_name":"EVU",
    "cristin_unit_code":"233.0.0.0",
    "cristin_unit_name_en":"Norwegian Police University College",
    "cristin_unit_name_nb":"Politih\u00f8gskolen",
    "cristin_sub_unit_code":null,
    "cristin_sub_unit_name_en":null,
    "cristin_sub_unit_name_nb":null,
    "cristin_sub_sub_unit_code":null,
    "cristin_sub_sub_unit_name_en":null,
    "cristin_sub_sub_unit_name_nb":null
  },
  "233_32":{
    "conspectus_use_unit_code":"233.0.0.0",
    "leganto_dept_name":"Master",
    "cristin_unit_code":"233.0.0.0",
    "cristin_unit_name_en":"Norwegian Police University College",
    "cristin_unit_name_nb":"Politih\u00f8gskolen",
    "cristin_sub_unit_code":null,
    "cristin_sub_unit_name_en":null,
    "cristin_sub_unit_name_nb":null,
    "cristin_sub_sub_unit_code":null,
    "cristin_sub_sub_unit_name_en":null,
    "cristin_sub_sub_unit_name_nb":null
  },
  "nan":{
    "conspectus_use_unit_code":"233.0.0.0",
    "leganto_dept_name":"null",
    "cristin_unit_code":"233.0.0.0",
    "cristin_unit_name_en":"Norwegian Police University College",
    "cristin_unit_name_nb":"Politih\u00f8gskolen",
    "cristin_sub_unit_code":null,
    "cristin_sub_unit_name_en":null,
    "cristin_sub_unit_name_nb":null,
    "cristin_sub_sub_unit_code":null,
    "cristin_sub_sub_unit_name_en":null,
    "cristin_sub_sub_unit_name_nb":null
  }
}