{
  "186000000":{
    "conspectus_use_unit_code":"186.0.0.0",
    "leganto_dept_name":null,
    "cristin_unit_code":"186.0.0.0",
    "cristin_unit_name_en":"UiT The Arctic University of Norway",
    "cristin_unit_name_nb":"Universitetet i Troms\u00f8 - Norges arktiske universitet",
    "cristin_sub_unit_code":null,
    "cristin_sub_unit_name_en":null,
    "cristin_sub_unit_name_nb":null,
    "cristin_sub_sub_unit_code":null,
    "cristin_sub_sub_unit_name_en":null,
    "cristin_sub_sub_unit_name_nb":null
  },
  "186_0_0":{
    "conspectus_use_unit_code":"186.0.0.0",
    "leganto_dept_name":"Universitetet i Troms\u00f8 - Norges arktiske universitet",
    "cristin_unit_code":"186.0.0.0",
    "cristin_unit_name_en":"UiT The Arctic University of Norway",
    "cristin_unit_name_nb":"Universitetet i Troms\u00f8 - Norges arktiske universitet",
    "cristin_sub_unit_code":null,
    "cristin_sub_unit_name_en":null,
    "cristin_sub_unit_name_nb":null,
    "cristin_sub_sub_unit_code":null,
    "cristin_sub_sub_unit_name_en":null,
    "cristin_sub_sub_unit_name_nb":null
  },
  "186310000":{
    "conspectus_use_unit_code":"186.31.0.0",
    "leganto_dept_name":null,
    "cristin_unit_code":"186.0.0.0",
    "cristin_unit_name_en":"UiT The Arctic University of Norway",
    "cristin_unit_name_nb":"Universitetet i Troms\u00f8 - Norges arktiske universitet",
    "cristin_sub_unit_code":"186.31.0.0",
    "cristin_sub_unit_name_en":"Faculty of Health Sciences",
    "cristin_sub_unit_name_nb":"Det helsevitenskapelige fakultet",
    "cristin_sub_sub_unit_code":null,
    "cristin_sub_sub_unit_name_en":null,
    "cristin_sub_sub_unit_name_nb":null
  },
  "186_31_0":{
    "conspectus_use_unit_code":"186.31.0.0",
    "leganto_dept_name":"Det helsevitenskapelige fakultet",
    "cristin_unit_code":"186.0.0.0",
    "cristin_unit_name_en":"UiT The Arctic University of Norway",
    "cristin_unit_name_nb":"Universitetet i Troms\u00f8 - Norges arktiske universitet",
    "cristin_sub_unit_code":"186.31.0.0",
    "cristin_sub_unit_name_en":"Faculty of Health Sciences",
    "cristin_sub_unit_name_nb":"Det helsevitenskapelige fakultet",
    "cristin_sub_sub_unit_code":null,
    "cristin_sub_sub_unit_name_en":null,
    "cristin_sub_sub_unit_name_nb":null
  },
  "186311100":{
    "conspectus_use_unit_code":"186.31.11.0",
    "leganto_dept_name":null,
    "cristin_unit_code":"186.0.0.0",
    "cristin_unit_name_en":"UiT The Arctic University of Norway",
    "cristin_unit_name_nb":"Universitetet i Troms\u00f8 - Norges arktiske universitet",
    "cristin_sub_unit_code":"186.31.0.0",
    "cristin_sub_unit_name_en":"Faculty of Health Sciences",
    "cristin_sub_unit_name_nb":"Det helsevitenskapelige fakultet",
    "cristin_sub_sub_unit_code":"186.31.11.0",
    "cristin_sub_sub_unit_name_en":"Department of Medical Biology",
    "cristin_sub_sub_unit_name_nb":"Institutt for medisinsk biologi"
  },
  "186_31_11":{
    "conspectus_use_unit_code":"186.31.11.0",
    "leganto_dept_name":"Institutt for medisinsk biologi",
    "cristin_unit_code":"186.0.0.0",
    "cristin_unit_name_en":"UiT The Arctic University of Norway",
    "cristin_unit_name_nb":"Universitetet i Troms\u00f8 - Norges arktiske universitet",
    "cristin_sub_unit_code":"186.31.0.0",
    "cristin_sub_unit_name_en":"Faculty of Health Sciences",
    "cristin_sub_unit_name_nb":"Det helsevitenskapelige fakultet",
    "cristin_sub_sub_unit_code":"186.31.11.0",
    "cristin_sub_sub_unit_name_en":"Department of Medical Biology",
    "cristin_sub_sub_unit_name_nb":"Institutt for medisinsk biologi"
  },
  "186311200":{
    "conspectus_use_unit_code":"186.31.12.0",
    "leganto_dept_name":null,
    "cristin_unit_code":"186.0.0.0",
    "cristin_unit_name_en":"UiT The Arctic University of Norway",
    "cristin_unit_name_nb":"Universitetet i Troms\u00f8 - Norges arktiske universitet",
    "cristin_sub_unit_code":"186.31.0.0",
    "cristin_sub_unit_name_en":"Faculty of Health Sciences",
    "cristin_sub_unit_name_nb":"Det helsevitenskapelige fakultet",
    "cristin_sub_sub_unit_code":"186.31.12.0",
    "cristin_sub_sub_unit_name_en":"Department of Community Medicine",
    "cristin_sub_sub_unit_name_nb":"Institutt for samfunnsmedisin"
  },
  "186_31_12":{
    "conspectus_use_unit_code":"186.31.12.0",
    "leganto_dept_name":"Institutt for samfunnsmedisin",
    "cristin_unit_code":"186.0.0.0",
    "cristin_unit_name_en":"UiT The Arctic University of Norway",
    "cristin_unit_name_nb":"Universitetet i Troms\u00f8 - Norges arktiske universitet",
    "cristin_sub_unit_code":"186.31.0.0",
    "cristin_sub_unit_name_en":"Faculty of Health Sciences",
    "cristin_sub_unit_name_nb":"Det helsevitenskapelige fakultet",
    "cristin_sub_sub_unit_code":"186.31.12.0",
    "cristin_sub_sub_unit_name_en":"Department of Community Medicine",
    "cristin_sub_sub_unit_name_nb":"Institutt for samfunnsmedisin"
  },
  "186311300":{
    "conspectus_use_unit_code":"186.31.13.0",
    "leganto_dept_name":null,
    "cristin_unit_code":"186.0.0.0",
    "cristin_unit_name_en":"UiT The Arctic University of Norway",
    "cristin_unit_name_nb":"Universitetet i Troms\u00f8 - Norges arktiske universitet",
    "cristin_sub_unit_code":"186.31.0.0",
    "cristin_sub_unit_name_en":"Faculty of Health Sciences",
    "cristin_sub_unit_name_nb":"Det helsevitenskapelige fakultet",
    "cristin_sub_sub_unit_code":"186.31.13.0",
    "cristin_sub_sub_unit_name_en":"Department of Clinical Medicine",
    "cristin_sub_sub_unit_name_nb":"Institutt for klinisk medisin"
  },
  "186_31_13":{
    "conspectus_use_unit_code":"186.31.13.0",
    "leganto_dept_name":"Institutt for klinisk medisin",
    "cristin_unit_code":"186.0.0.0",
    "cristin_unit_name_en":"UiT The Arctic University of Norway",
    "cristin_unit_name_nb":"Universitetet i Troms\u00f8 - Norges arktiske universitet",
    "cristin_sub_unit_code":"186.31.0.0",
    "cristin_sub_unit_name_en":"Faculty of Health Sciences",
    "cristin_sub_unit_name_nb":"Det helsevitenskapelige fakultet",
    "cristin_sub_sub_unit_code":"186.31.13.0",
    "cristin_sub_sub_unit_name_en":"Department of Clinical Medicine",
    "cristin_sub_sub_unit_name_nb":"Institutt for klinisk medisin"
  },
  "186311400":{
    "conspectus_use_unit_code":"186.31.14.0",
    "leganto_dept_name":null,
    "cristin_unit_code":"186.0.0.0",
    "cristin_unit_name_en":"UiT The Arctic University of Norway",
    "cristin_unit_name_nb":"Universitetet i Troms\u00f8 - Norges arktiske universitet",
    "cristin_sub_unit_code":"186.31.0.0",
    "cristin_sub_unit_name_en":"Faculty of Health Sciences",
    "cristin_sub_unit_name_nb":"Det helsevitenskapelige fakultet",
    "cristin_sub_sub_unit_code":"186.31.14.0",
    "cristin_sub_sub_unit_name_en":"Department of Pharmacy",
    "cristin_sub_sub_unit_name_nb":"Institutt for farmasi"
  },
  "186_31_14":{
    "conspectus_use_unit_code":"186.31.14.0",
    "leganto_dept_name":"Institutt for farmasi",
    "cristin_unit_code":"186.0.0.0",
    "cristin_unit_name_en":"UiT The Arctic University of Norway",
    "cristin_unit_name_nb":"Universitetet i Troms\u00f8 - Norges arktiske universitet",
    "cristin_sub_unit_code":"186.31.0.0",
    "cristin_sub_unit_name_en":"Faculty of Health Sciences",
    "cristin_sub_unit_name_nb":"Det helsevitenskapelige fakultet",
    "cristin_sub_sub_unit_code":"186.31.14.0",
    "cristin_sub_sub_unit_name_en":"Department of Pharmacy",
    "cristin_sub_sub_unit_name_nb":"Institutt for farmasi"
  },
  "186311500":{
    "conspectus_use_unit_code":"186.31.15.0",
    "leganto_dept_name":null,
    "cristin_unit_code":"186.0.0.0",
    "cristin_unit_name_en":"UiT The Arctic University of Norway",
    "cristin_unit_name_nb":"Universitetet i Troms\u00f8 - Norges arktiske universitet",
    "cristin_sub_unit_code":"186.31.0.0",
    "cristin_sub_unit_name_en":"Faculty of Health Sciences",
    "cristin_sub_unit_name_nb":"Det helsevitenskapelige fakultet",
    "cristin_sub_sub_unit_code":"186.31.15.0",
    "cristin_sub_sub_unit_name_en":"Department of Clinical Dentistry",
    "cristin_sub_sub_unit_name_nb":"Institutt for klinisk odontologi"
  },
  "186_31_15":{
    "conspectus_use_unit_code":"186.31.15.0",
    "leganto_dept_name":"Institutt for klinisk odontologi",
    "cristin_unit_code":"186.0.0.0",
    "cristin_unit_name_en":"UiT The Arctic University of Norway",
    "cristin_unit_name_nb":"Universitetet i Troms\u00f8 - Norges arktiske universitet",
    "cristin_sub_unit_code":"186.31.0.0",
    "cristin_sub_unit_name_en":"Faculty of Health Sciences",
    "cristin_sub_unit_name_nb":"Det helsevitenskapelige fakultet",
    "cristin_sub_sub_unit_code":"186.31.15.0",
    "cristin_sub_sub_unit_name_en":"Department of Clinical Dentistry",
    "cristin_sub_sub_unit_name_nb":"Institutt for klinisk odontologi"
  },
  "186311600":{
    "conspectus_use_unit_code":"186.31.16.0",
    "leganto_dept_name":null,
    "cristin_unit_code":"186.0.0.0",
    "cristin_unit_name_en":"UiT The Arctic University of Norway",
    "cristin_unit_name_nb":"Universitetet i Troms\u00f8 - Norges arktiske universitet",
    "cristin_sub_unit_code":"186.31.0.0",
    "cristin_sub_unit_name_en":"Faculty of Health Sciences",
    "cristin_sub_unit_name_nb":"Det helsevitenskapelige fakultet",
    "cristin_sub_sub_unit_code":"186.31.16.0",
    "cristin_sub_sub_unit_name_en":"Department of Psychology",
    "cristin_sub_sub_unit_name_nb":"Institutt for psykologi"
  },
  "186_31_16":{
    "conspectus_use_unit_code":"186.31.16.0",
    "leganto_dept_name":"Institutt for psykologi",
    "cristin_unit_code":"186.0.0.0",
    "cristin_unit_name_en":"UiT The Arctic University of Norway",
    "cristin_unit_name_nb":"Universitetet i Troms\u00f8 - Norges arktiske universitet",
    "cristin_sub_unit_code":"186.31.0.0",
    "cristin_sub_unit_name_en":"Faculty of Health Sciences",
    "cristin_sub_unit_name_nb":"Det helsevitenskapelige fakultet",
    "cristin_sub_sub_unit_code":"186.31.16.0",
    "cristin_sub_sub_unit_name_en":"Department of Psychology",
    "cristin_sub_sub_unit_name_nb":"Institutt for psykologi"
  },
  "186311700":{
    "conspectus_use_unit_code":"186.31.17.0",
    "leganto_dept_name":null,
    "cristin_unit_code":"186.0.0.0",
    "cristin_unit_name_en":"UiT The Arctic University of Norway",
    "cristin_unit_name_nb":"Universitetet i Troms\u00f8 - Norges arktiske universitet",
    "cristin_sub_unit_code":"186.31.0.0",
    "cristin_sub_unit_name_en":"Faculty of Health Sciences",
    "cristin_sub_unit_name_nb":"Det helsevitenskapelige fakultet",
    "cristin_sub_sub_unit_code":"186.31.17.0",
    "cristin_sub_sub_unit_name_en":"Department of Health and Care Sciences",
    "cristin_sub_sub_unit_name_nb":"Institutt for helse- og omsorgsfag"
  },
  "186_31_17":{
    "conspectus_use_unit_code":"186.31.17.0",
    "leganto_dept_name":"Institutt for helse- og omsorgsfag",
    "cristin_unit_code":"186.0.0.0",
    "cristin_unit_name_en":"UiT The Arctic University of Norway",
    "cristin_unit_name_nb":"Universitetet i Troms\u00f8 - Norges arktiske universitet",
    "cristin_sub_unit_code":"186.31.0.0",
    "cristin_sub_unit_name_en":"Faculty of Health Sciences",
    "cristin_sub_unit_name_nb":"Det helsevitenskapelige fakultet",
    "cristin_sub_sub_unit_code":"186.31.17.0",
    "cristin_sub_sub_unit_name_en":"Department of Health and Care Sciences",
    "cristin_sub_sub_unit_name_nb":"Institutt for helse- og omsorgsfag"
  },
  "186311800":{
    "conspectus_use_unit_code":"186.31.18.0",
    "leganto_dept_name":null,
    "cristin_unit_code":"186.0.0.0",
    "cristin_unit_name_en":"UiT The Arctic University of Norway",
    "cristin_unit_name_nb":"Universitetet i Troms\u00f8 - Norges arktiske universitet",
    "cristin_sub_unit_code":"186.31.0.0",
    "cristin_sub_unit_name_en":"Faculty of Health Sciences",
    "cristin_sub_unit_name_nb":"Det helsevitenskapelige fakultet",
    "cristin_sub_sub_unit_code":"186.31.18.0",
    "cristin_sub_sub_unit_name_en":"School of Sport Sciences",
    "cristin_sub_sub_unit_name_nb":"Idrettsh\u00f8gskolen"
  },
  "186_31_18":{
    "conspectus_use_unit_code":"186.31.18.0",
    "leganto_dept_name":"Idrettsh\u00f8gskolen",
    "cristin_unit_code":"186.0.0.0",
    "cristin_unit_name_en":"UiT The Arctic University of Norway",
    "cristin_unit_name_nb":"Universitetet i Troms\u00f8 - Norges arktiske universitet",
    "cristin_sub_unit_code":"186.31.0.0",
    "cristin_sub_unit_name_en":"Faculty of Health Sciences",
    "cristin_sub_unit_name_nb":"Det helsevitenskapelige fakultet",
    "cristin_sub_sub_unit_code":"186.31.18.0",
    "cristin_sub_sub_unit_name_en":"School of Sport Sciences",
    "cristin_sub_sub_unit_name_nb":"Idrettsh\u00f8gskolen"
  },
  "186311900":{
    "conspectus_use_unit_code":"186.31.19.0",
    "leganto_dept_name":null,
    "cristin_unit_code":"186.0.0.0",
    "cristin_unit_name_en":"UiT The Arctic University of Norway",
    "cristin_unit_name_nb":"Universitetet i Troms\u00f8 - Norges arktiske universitet",
    "cristin_sub_unit_code":"186.31.0.0",
    "cristin_sub_unit_name_en":"Faculty of Health Sciences",
    "cristin_sub_unit_name_nb":"Det helsevitenskapelige fakultet",
    "cristin_sub_sub_unit_code":"186.31.19.0",
    "cristin_sub_sub_unit_name_en":"Department of Social Education",
    "cristin_sub_sub_unit_name_nb":"Institutt for vernepleie"
  },
  "186_31_19":{
    "conspectus_use_unit_code":"186.31.19.0",
    "leganto_dept_name":"Institutt for vernepleie",
    "cristin_unit_code":"186.0.0.0",
    "cristin_unit_name_en":"UiT The Arctic University of Norway",
    "cristin_unit_name_nb":"Universitetet i Troms\u00f8 - Norges arktiske universitet",
    "cristin_sub_unit_code":"186.31.0.0",
    "cristin_sub_unit_name_en":"Faculty of Health Sciences",
    "cristin_sub_unit_name_nb":"Det helsevitenskapelige fakultet",
    "cristin_sub_sub_unit_code":"186.31.19.0",
    "cristin_sub_sub_unit_name_en":"Department of Social Education",
    "cristin_sub_sub_unit_name_nb":"Institutt for vernepleie"
  },
  "186319100":{
    "conspectus_use_unit_code":"186.31.91.0",
    "leganto_dept_name":null,
    "cristin_unit_code":"186.0.0.0",
    "cristin_unit_name_en":"UiT The Arctic University of Norway",
    "cristin_unit_name_nb":"Universitetet i Troms\u00f8 - Norges arktiske universitet",
    "cristin_sub_unit_code":"186.31.0.0",
    "cristin_sub_unit_name_en":"Faculty of Health Sciences",
    "cristin_sub_unit_name_nb":"Det helsevitenskapelige fakultet",
    "cristin_sub_sub_unit_code":"186.31.91.0",
    "cristin_sub_sub_unit_name_en":null,
    "cristin_sub_sub_unit_name_nb":"Regionalt kunnskapssenter for barn og unge - Nord"
  },
  "186_31_91":{
    "conspectus_use_unit_code":"186.31.91.0",
    "leganto_dept_name":"RKBU Nord",
    "cristin_unit_code":"186.0.0.0",
    "cristin_unit_name_en":"UiT The Arctic University of Norway",
    "cristin_unit_name_nb":"Universitetet i Troms\u00f8 - Norges arktiske universitet",
    "cristin_sub_unit_code":"186.31.0.0",
    "cristin_sub_unit_name_en":"Faculty of Health Sciences",
    "cristin_sub_unit_name_nb":"Det helsevitenskapelige fakultet",
    "cristin_sub_sub_unit_code":"186.31.91.0",
    "cristin_sub_sub_unit_name_en":null,
    "cristin_sub_sub_unit_name_nb":"Regionalt kunnskapssenter for barn og unge - Nord"
  },
  "186320000":{
    "conspectus_use_unit_code":"186.32.0.0",
    "leganto_dept_name":null,
    "cristin_unit_code":"186.0.0.0",
    "cristin_unit_name_en":"UiT The Arctic University of Norway",
    "cristin_unit_name_nb":"Universitetet i Troms\u00f8 - Norges arktiske universitet",
    "cristin_sub_unit_code":"186.32.0.0",
    "cristin_sub_unit_name_en":"Faculty of  Science and Technology",
    "cristin_sub_unit_name_nb":"Fakultet for naturvitenskap og teknologi",
    "cristin_sub_sub_unit_code":null,
    "cristin_sub_sub_unit_name_en":null,
    "cristin_sub_sub_unit_name_nb":null
  },
  "186_32_0":{
    "conspectus_use_unit_code":"186.32.0.0",
    "leganto_dept_name":"Fakultet for naturvitenskap og teknologi",
    "cristin_unit_code":"186.0.0.0",
    "cristin_unit_name_en":"UiT The Arctic University of Norway",
    "cristin_unit_name_nb":"Universitetet i Troms\u00f8 - Norges arktiske universitet",
    "cristin_sub_unit_code":"186.32.0.0",
    "cristin_sub_unit_name_en":"Faculty of  Science and Technology",
    "cristin_sub_unit_name_nb":"Fakultet for naturvitenskap og teknologi",
    "cristin_sub_sub_unit_code":null,
    "cristin_sub_sub_unit_name_en":null,
    "cristin_sub_sub_unit_name_nb":null
  },
  "186321200":{
    "conspectus_use_unit_code":"186.32.12.0",
    "leganto_dept_name":null,
    "cristin_unit_code":"186.0.0.0",
    "cristin_unit_name_en":"UiT The Arctic University of Norway",
    "cristin_unit_name_nb":"Universitetet i Troms\u00f8 - Norges arktiske universitet",
    "cristin_sub_unit_code":"186.32.0.0",
    "cristin_sub_unit_name_en":"Faculty of  Science and Technology",
    "cristin_sub_unit_name_nb":"Fakultet for naturvitenskap og teknologi",
    "cristin_sub_sub_unit_code":"186.32.12.0",
    "cristin_sub_sub_unit_name_en":"Department of Physics and Technology",
    "cristin_sub_sub_unit_name_nb":"Institutt for fysikk og teknologi"
  },
  "186_32_12":{
    "conspectus_use_unit_code":"186.32.12.0",
    "leganto_dept_name":"Institutt for fysikk og teknologi",
    "cristin_unit_code":"186.0.0.0",
    "cristin_unit_name_en":"UiT The Arctic University of Norway",
    "cristin_unit_name_nb":"Universitetet i Troms\u00f8 - Norges arktiske universitet",
    "cristin_sub_unit_code":"186.32.0.0",
    "cristin_sub_unit_name_en":"Faculty of  Science and Technology",
    "cristin_sub_unit_name_nb":"Fakultet for naturvitenskap og teknologi",
    "cristin_sub_sub_unit_code":"186.32.12.0",
    "cristin_sub_sub_unit_name_en":"Department of Physics and Technology",
    "cristin_sub_sub_unit_name_nb":"Institutt for fysikk og teknologi"
  },
  "186321300":{
    "conspectus_use_unit_code":"186.32.13.0",
    "leganto_dept_name":null,
    "cristin_unit_code":"186.0.0.0",
    "cristin_unit_name_en":"UiT The Arctic University of Norway",
    "cristin_unit_name_nb":"Universitetet i Troms\u00f8 - Norges arktiske universitet",
    "cristin_sub_unit_code":"186.32.0.0",
    "cristin_sub_unit_name_en":"Faculty of  Science and Technology",
    "cristin_sub_unit_name_nb":"Fakultet for naturvitenskap og teknologi",
    "cristin_sub_sub_unit_code":"186.32.13.0",
    "cristin_sub_sub_unit_name_en":"Department of Geosciences",
    "cristin_sub_sub_unit_name_nb":"Institutt for geovitenskap"
  },
  "186_32_13":{
    "conspectus_use_unit_code":"186.32.13.0",
    "leganto_dept_name":"Institutt for geovitenskap",
    "cristin_unit_code":"186.0.0.0",
    "cristin_unit_name_en":"UiT The Arctic University of Norway",
    "cristin_unit_name_nb":"Universitetet i Troms\u00f8 - Norges arktiske universitet",
    "cristin_sub_unit_code":"186.32.0.0",
    "cristin_sub_unit_name_en":"Faculty of  Science and Technology",
    "cristin_sub_unit_name_nb":"Fakultet for naturvitenskap og teknologi",
    "cristin_sub_sub_unit_code":"186.32.13.0",
    "cristin_sub_sub_unit_name_en":"Department of Geosciences",
    "cristin_sub_sub_unit_name_nb":"Institutt for geovitenskap"
  },
  "186321400":{
    "conspectus_use_unit_code":"186.32.14.0",
    "leganto_dept_name":null,
    "cristin_unit_code":"186.0.0.0",
    "cristin_unit_name_en":"UiT The Arctic University of Norway",
    "cristin_unit_name_nb":"Universitetet i Troms\u00f8 - Norges arktiske universitet",
    "cristin_sub_unit_code":"186.32.0.0",
    "cristin_sub_unit_name_en":"Faculty of  Science and Technology",
    "cristin_sub_unit_name_nb":"Fakultet for naturvitenskap og teknologi",
    "cristin_sub_sub_unit_code":"186.32.14.0",
    "cristin_sub_sub_unit_name_en":"Department of Computer Science",
    "cristin_sub_sub_unit_name_nb":"Institutt for informatikk"
  },
  "186_32_14":{
    "conspectus_use_unit_code":"186.32.14.0",
    "leganto_dept_name":"Institutt for informatikk",
    "cristin_unit_code":"186.0.0.0",
    "cristin_unit_name_en":"UiT The Arctic University of Norway",
    "cristin_unit_name_nb":"Universitetet i Troms\u00f8 - Norges arktiske universitet",
    "cristin_sub_unit_code":"186.32.0.0",
    "cristin_sub_unit_name_en":"Faculty of  Science and Technology",
    "cristin_sub_unit_name_nb":"Fakultet for naturvitenskap og teknologi",
    "cristin_sub_sub_unit_code":"186.32.14.0",
    "cristin_sub_sub_unit_name_en":"Department of Computer Science",
    "cristin_sub_sub_unit_name_nb":"Institutt for informatikk"
  },
  "186321500":{
    "conspectus_use_unit_code":"186.32.15.0",
    "leganto_dept_name":null,
    "cristin_unit_code":"186.0.0.0",
    "cristin_unit_name_en":"UiT The Arctic University of Norway",
    "cristin_unit_name_nb":"Universitetet i Troms\u00f8 - Norges arktiske universitet",
    "cristin_sub_unit_code":"186.32.0.0",
    "cristin_sub_unit_name_en":"Faculty of  Science and Technology",
    "cristin_sub_unit_name_nb":"Fakultet for naturvitenskap og teknologi",
    "cristin_sub_sub_unit_code":"186.32.15.0",
    "cristin_sub_sub_unit_name_en":"Department of Chemistry",
    "cristin_sub_sub_unit_name_nb":"Institutt for kjemi"
  },
  "186_32_15":{
    "conspectus_use_unit_code":"186.32.15.0",
    "leganto_dept_name":"Institutt for kjemi",
    "cristin_unit_code":"186.0.0.0",
    "cristin_unit_name_en":"UiT The Arctic University of Norway",
    "cristin_unit_name_nb":"Universitetet i Troms\u00f8 - Norges arktiske universitet",
    "cristin_sub_unit_code":"186.32.0.0",
    "cristin_sub_unit_name_en":"Faculty of  Science and Technology",
    "cristin_sub_unit_name_nb":"Fakultet for naturvitenskap og teknologi",
    "cristin_sub_sub_unit_code":"186.32.15.0",
    "cristin_sub_sub_unit_name_en":"Department of Chemistry",
    "cristin_sub_sub_unit_name_nb":"Institutt for kjemi"
  },
  "186321600":{
    "conspectus_use_unit_code":"186.32.16.0",
    "leganto_dept_name":null,
    "cristin_unit_code":"186.0.0.0",
    "cristin_unit_name_en":"UiT The Arctic University of Norway",
    "cristin_unit_name_nb":"Universitetet i Troms\u00f8 - Norges arktiske universitet",
    "cristin_sub_unit_code":"186.32.0.0",
    "cristin_sub_unit_name_en":"Faculty of  Science and Technology",
    "cristin_sub_unit_name_nb":"Fakultet for naturvitenskap og teknologi",
    "cristin_sub_sub_unit_code":"186.32.16.0",
    "cristin_sub_sub_unit_name_en":"Department of Mathematics and Statistics",
    "cristin_sub_sub_unit_name_nb":"Institutt for matematikk og statistikk"
  },
  "186_32_16":{
    "conspectus_use_unit_code":"186.32.16.0",
    "leganto_dept_name":"Institutt for matematikk og statistikk",
    "cristin_unit_code":"186.0.0.0",
    "cristin_unit_name_en":"UiT The Arctic University of Norway",
    "cristin_unit_name_nb":"Universitetet i Troms\u00f8 - Norges arktiske universitet",
    "cristin_sub_unit_code":"186.32.0.0",
    "cristin_sub_unit_name_en":"Faculty of  Science and Technology",
    "cristin_sub_unit_name_nb":"Fakultet for naturvitenskap og teknologi",
    "cristin_sub_sub_unit_code":"186.32.16.0",
    "cristin_sub_sub_unit_name_en":"Department of Mathematics and Statistics",
    "cristin_sub_sub_unit_name_nb":"Institutt for matematikk og statistikk"
  },
  "186321700":{
    "conspectus_use_unit_code":"186.32.17.0",
    "leganto_dept_name":null,
    "cristin_unit_code":"186.0.0.0",
    "cristin_unit_name_en":"UiT The Arctic University of Norway",
    "cristin_unit_name_nb":"Universitetet i Troms\u00f8 - Norges arktiske universitet",
    "cristin_sub_unit_code":"186.32.0.0",
    "cristin_sub_unit_name_en":"Faculty of  Science and Technology",
    "cristin_sub_unit_name_nb":"Fakultet for naturvitenskap og teknologi",
    "cristin_sub_sub_unit_code":"186.32.17.0",
    "cristin_sub_sub_unit_name_en":"Department of Technology and Safety",
    "cristin_sub_sub_unit_name_nb":"Institutt for teknologi og sikkerhet"
  },
  "186_32_17":{
    "conspectus_use_unit_code":"186.32.17.0",
    "leganto_dept_name":"Institutt for ingeni\u00f8rvitenskap og sikkerhet",
    "cristin_unit_code":"186.0.0.0",
    "cristin_unit_name_en":"UiT The Arctic University of Norway",
    "cristin_unit_name_nb":"Universitetet i Troms\u00f8 - Norges arktiske universitet",
    "cristin_sub_unit_code":"186.32.0.0",
    "cristin_sub_unit_name_en":"Faculty of  Science and Technology",
    "cristin_sub_unit_name_nb":"Fakultet for naturvitenskap og teknologi",
    "cristin_sub_sub_unit_code":"186.32.17.0",
    "cristin_sub_sub_unit_name_en":"Department of Technology and Safety",
    "cristin_sub_sub_unit_name_nb":"Institutt for teknologi og sikkerhet"
  },
  "186_33_0":{
    "conspectus_use_unit_code":"186.33.0.0",
    "leganto_dept_name":"Fakultet for humaniora, samfunnsvitenskap og l\u00e6rerutdanning",
    "cristin_unit_code":"186.0.0.0",
    "cristin_unit_name_en":"UiT The Arctic University of Norway",
    "cristin_unit_name_nb":"Universitetet i Troms\u00f8 - Norges arktiske universitet",
    "cristin_sub_unit_code":"186.33.0.0",
    "cristin_sub_unit_name_en":"Faculty of Humanities, Social Sciences and Education",
    "cristin_sub_unit_name_nb":"Fakultet for humaniora, samfunnsvitenskap og l\u00e6rerutdanning",
    "cristin_sub_sub_unit_code":null,
    "cristin_sub_sub_unit_name_en":null,
    "cristin_sub_sub_unit_name_nb":null
  },
  "186331300":{
    "conspectus_use_unit_code":"186.33.13.0",
    "leganto_dept_name":null,
    "cristin_unit_code":"186.0.0.0",
    "cristin_unit_name_en":"UiT The Arctic University of Norway",
    "cristin_unit_name_nb":"Universitetet i Troms\u00f8 - Norges arktiske universitet",
    "cristin_sub_unit_code":"186.33.0.0",
    "cristin_sub_unit_name_en":"Faculty of Humanities, Social Sciences and Education",
    "cristin_sub_unit_name_nb":"Fakultet for humaniora, samfunnsvitenskap og l\u00e6rerutdanning",
    "cristin_sub_sub_unit_code":"186.33.13.0",
    "cristin_sub_sub_unit_name_en":"Department of Philosophy",
    "cristin_sub_sub_unit_name_nb":"Institutt for filosofi og f\u00f8rstesemesterstudier"
  },
  "186_33_13":{
    "conspectus_use_unit_code":"186.33.13.0",
    "leganto_dept_name":"Institutt for filosofi og f\u00f8rstesemesterstudier",
    "cristin_unit_code":"186.0.0.0",
    "cristin_unit_name_en":"UiT The Arctic University of Norway",
    "cristin_unit_name_nb":"Universitetet i Troms\u00f8 - Norges arktiske universitet",
    "cristin_sub_unit_code":"186.33.0.0",
    "cristin_sub_unit_name_en":"Faculty of Humanities, Social Sciences and Education",
    "cristin_sub_unit_name_nb":"Fakultet for humaniora, samfunnsvitenskap og l\u00e6rerutdanning",
    "cristin_sub_sub_unit_code":"186.33.13.0",
    "cristin_sub_sub_unit_name_en":"Department of Philosophy",
    "cristin_sub_sub_unit_name_nb":"Institutt for filosofi og f\u00f8rstesemesterstudier"
  },
  "186331400":{
    "conspectus_use_unit_code":"186.33.14.0",
    "leganto_dept_name":null,
    "cristin_unit_code":"186.0.0.0",
    "cristin_unit_name_en":"UiT The Arctic University of Norway",
    "cristin_unit_name_nb":"Universitetet i Troms\u00f8 - Norges arktiske universitet",
    "cristin_sub_unit_code":"186.33.0.0",
    "cristin_sub_unit_name_en":"Faculty of Humanities, Social Sciences and Education",
    "cristin_sub_unit_name_nb":"Fakultet for humaniora, samfunnsvitenskap og l\u00e6rerutdanning",
    "cristin_sub_sub_unit_code":"186.33.14.0",
    "cristin_sub_sub_unit_name_en":"Department of archaeology, history, religious studies and theology",
    "cristin_sub_sub_unit_name_nb":"Institutt for arkeologi, historie, religionsvitenskap og teologi"
  },
  "186_33_14":{
    "conspectus_use_unit_code":"186.33.14.0",
    "leganto_dept_name":"Institutt for arkeologi, historie, religionsvitenskap og teologi",
    "cristin_unit_code":"186.0.0.0",
    "cristin_unit_name_en":"UiT The Arctic University of Norway",
    "cristin_unit_name_nb":"Universitetet i Troms\u00f8 - Norges arktiske universitet",
    "cristin_sub_unit_code":"186.33.0.0",
    "cristin_sub_unit_name_en":"Faculty of Humanities, Social Sciences and Education",
    "cristin_sub_unit_name_nb":"Fakultet for humaniora, samfunnsvitenskap og l\u00e6rerutdanning",
    "cristin_sub_sub_unit_code":"186.33.14.0",
    "cristin_sub_sub_unit_name_en":"Department of archaeology, history, religious studies and theology",
    "cristin_sub_sub_unit_name_nb":"Institutt for arkeologi, historie, religionsvitenskap og teologi"
  },
  "186331500":{
    "conspectus_use_unit_code":"186.33.15.0",
    "leganto_dept_name":null,
    "cristin_unit_code":"186.0.0.0",
    "cristin_unit_name_en":"UiT The Arctic University of Norway",
    "cristin_unit_name_nb":"Universitetet i Troms\u00f8 - Norges arktiske universitet",
    "cristin_sub_unit_code":"186.33.0.0",
    "cristin_sub_unit_name_en":"Faculty of Humanities, Social Sciences and Education",
    "cristin_sub_unit_name_nb":"Fakultet for humaniora, samfunnsvitenskap og l\u00e6rerutdanning",
    "cristin_sub_sub_unit_code":"186.33.15.0",
    "cristin_sub_sub_unit_name_en":"Department of Social Sciences",
    "cristin_sub_sub_unit_name_nb":"Institutt for samfunnsvitenskap"
  },
  "18633150":{
    "conspectus_use_unit_code":"186.33.15.0",
    "leganto_dept_name":null,
    "cristin_unit_code":"186.0.0.0",
    "cristin_unit_name_en":"UiT The Arctic University of Norway",
    "cristin_unit_name_nb":"Universitetet i Troms\u00f8 - Norges arktiske universitet",
    "cristin_sub_unit_code":"186.33.0.0",
    "cristin_sub_unit_name_en":"Faculty of Humanities, Social Sciences and Education",
    "cristin_sub_unit_name_nb":"Fakultet for humaniora, samfunnsvitenskap og l\u00e6rerutdanning",
    "cristin_sub_sub_unit_code":"186.33.15.0",
    "cristin_sub_sub_unit_name_en":"Department of Social Sciences",
    "cristin_sub_sub_unit_name_nb":"Institutt for samfunnsvitenskap"
  },
  "186_33_15":{
    "conspectus_use_unit_code":"186.33.15.0",
    "leganto_dept_name":"Institutt for samfunnsvitenskap",
    "cristin_unit_code":"186.0.0.0",
    "cristin_unit_name_en":"UiT The Arctic University of Norway",
    "cristin_unit_name_nb":"Universitetet i Troms\u00f8 - Norges arktiske universitet",
    "cristin_sub_unit_code":"186.33.0.0",
    "cristin_sub_unit_name_en":"Faculty of Humanities, Social Sciences and Education",
    "cristin_sub_unit_name_nb":"Fakultet for humaniora, samfunnsvitenskap og l\u00e6rerutdanning",
    "cristin_sub_sub_unit_code":"186.33.15.0",
    "cristin_sub_sub_unit_name_en":"Department of Social Sciences",
    "cristin_sub_sub_unit_name_nb":"Institutt for samfunnsvitenskap"
  },
  "186331700":{
    "conspectus_use_unit_code":"186.33.17.0",
    "leganto_dept_name":null,
    "cristin_unit_code":"186.0.0.0",
    "cristin_unit_name_en":"UiT The Arctic University of Norway",
    "cristin_unit_name_nb":"Universitetet i Troms\u00f8 - Norges arktiske universitet",
    "cristin_sub_unit_code":"186.33.0.0",
    "cristin_sub_unit_name_en":"Faculty of Humanities, Social Sciences and Education",
    "cristin_sub_unit_name_nb":"Fakultet for humaniora, samfunnsvitenskap og l\u00e6rerutdanning",
    "cristin_sub_sub_unit_code":"186.33.17.0",
    "cristin_sub_sub_unit_name_en":"Department of Education",
    "cristin_sub_sub_unit_name_nb":"Institutt for l\u00e6rerutdanning og pedagogikk"
  },
  "186_33_17":{
    "conspectus_use_unit_code":"186.33.17.0",
    "leganto_dept_name":"Institutt for l\u00e6rerutdanning og pedagogikk",
    "cristin_unit_code":"186.0.0.0",
    "cristin_unit_name_en":"UiT The Arctic University of Norway",
    "cristin_unit_name_nb":"Universitetet i Troms\u00f8 - Norges arktiske universitet",
    "cristin_sub_unit_code":"186.33.0.0",
    "cristin_sub_unit_name_en":"Faculty of Humanities, Social Sciences and Education",
    "cristin_sub_unit_name_nb":"Fakultet for humaniora, samfunnsvitenskap og l\u00e6rerutdanning",
    "cristin_sub_sub_unit_code":"186.33.17.0",
    "cristin_sub_sub_unit_name_en":"Department of Education",
    "cristin_sub_sub_unit_name_nb":"Institutt for l\u00e6rerutdanning og pedagogikk"
  },
  "186331800":{
    "conspectus_use_unit_code":"186.33.18.0",
    "leganto_dept_name":null,
    "cristin_unit_code":"186.0.0.0",
    "cristin_unit_name_en":"UiT The Arctic University of Norway",
    "cristin_unit_name_nb":"Universitetet i Troms\u00f8 - Norges arktiske universitet",
    "cristin_sub_unit_code":"186.33.0.0",
    "cristin_sub_unit_name_en":"Faculty of Humanities, Social Sciences and Education",
    "cristin_sub_unit_name_nb":"Fakultet for humaniora, samfunnsvitenskap og l\u00e6rerutdanning",
    "cristin_sub_sub_unit_code":"186.33.18.0",
    "cristin_sub_sub_unit_name_en":"Department og Language and Culture",
    "cristin_sub_sub_unit_name_nb":"Institutt for spr\u00e5k og kultur"
  },
  "186_33_18":{
    "conspectus_use_unit_code":"186.33.18.0",
    "leganto_dept_name":"Institutt for spr\u00e5k og kultur",
    "cristin_unit_code":"186.0.0.0",
    "cristin_unit_name_en":"UiT The Arctic University of Norway",
    "cristin_unit_name_nb":"Universitetet i Troms\u00f8 - Norges arktiske universitet",
    "cristin_sub_unit_code":"186.33.0.0",
    "cristin_sub_unit_name_en":"Faculty of Humanities, Social Sciences and Education",
    "cristin_sub_unit_name_nb":"Fakultet for humaniora, samfunnsvitenskap og l\u00e6rerutdanning",
    "cristin_sub_sub_unit_code":"186.33.18.0",
    "cristin_sub_sub_unit_name_en":"Department og Language and Culture",
    "cristin_sub_sub_unit_name_nb":"Institutt for spr\u00e5k og kultur"
  },
  "186331900":{
    "conspectus_use_unit_code":"186.33.19.0",
    "leganto_dept_name":null,
    "cristin_unit_code":"186.0.0.0",
    "cristin_unit_name_en":"UiT The Arctic University of Norway",
    "cristin_unit_name_nb":"Universitetet i Troms\u00f8 - Norges arktiske universitet",
    "cristin_sub_unit_code":"186.33.0.0",
    "cristin_sub_unit_name_en":"Faculty of Humanities, Social Sciences and Education",
    "cristin_sub_unit_name_nb":"Fakultet for humaniora, samfunnsvitenskap og l\u00e6rerutdanning",
    "cristin_sub_sub_unit_code":"186.33.19.0",
    "cristin_sub_sub_unit_name_en":"Department of Child Welfare and Social Work",
    "cristin_sub_sub_unit_name_nb":"Institutt for barnevern og sosialt arbeid"
  },
  "186_33_19":{
    "conspectus_use_unit_code":"186.33.19.0",
    "leganto_dept_name":"Institutt for barnevern og sosialt arbeid",
    "cristin_unit_code":"186.0.0.0",
    "cristin_unit_name_en":"UiT The Arctic University of Norway",
    "cristin_unit_name_nb":"Universitetet i Troms\u00f8 - Norges arktiske universitet",
    "cristin_sub_unit_code":"186.33.0.0",
    "cristin_sub_unit_name_en":"Faculty of Humanities, Social Sciences and Education",
    "cristin_sub_unit_name_nb":"Fakultet for humaniora, samfunnsvitenskap og l\u00e6rerutdanning",
    "cristin_sub_sub_unit_code":"186.33.19.0",
    "cristin_sub_sub_unit_name_en":"Department of Child Welfare and Social Work",
    "cristin_sub_sub_unit_name_nb":"Institutt for barnevern og sosialt arbeid"
  },
  "186332000":{
    "conspectus_use_unit_code":"186.33.20.0",
    "leganto_dept_name":null,
    "cristin_unit_code":"186.0.0.0",
    "cristin_unit_name_en":"UiT The Arctic University of Norway",
    "cristin_unit_name_nb":"Universitetet i Troms\u00f8 - Norges arktiske universitet",
    "cristin_sub_unit_code":"186.33.0.0",
    "cristin_sub_unit_name_en":"Faculty of Humanities, Social Sciences and Education",
    "cristin_sub_unit_name_nb":"Fakultet for humaniora, samfunnsvitenskap og l\u00e6rerutdanning",
    "cristin_sub_sub_unit_code":"186.33.20.0",
    "cristin_sub_sub_unit_name_en":"Department of Tourism and Northern Studies",
    "cristin_sub_sub_unit_name_nb":"Institutt for reiseliv og nordlige studier"
  },
  "186_33_20":{
    "conspectus_use_unit_code":"186.33.20.0",
    "leganto_dept_name":"Institutt for reiseliv og nordlige studier",
    "cristin_unit_code":"186.0.0.0",
    "cristin_unit_name_en":"UiT The Arctic University of Norway",
    "cristin_unit_name_nb":"Universitetet i Troms\u00f8 - Norges arktiske universitet",
    "cristin_sub_unit_code":"186.33.0.0",
    "cristin_sub_unit_name_en":"Faculty of Humanities, Social Sciences and Education",
    "cristin_sub_unit_name_nb":"Fakultet for humaniora, samfunnsvitenskap og l\u00e6rerutdanning",
    "cristin_sub_sub_unit_code":"186.33.20.0",
    "cristin_sub_sub_unit_name_en":"Department of Tourism and Northern Studies",
    "cristin_sub_sub_unit_name_nb":"Institutt for reiseliv og nordlige studier"
  },
  "186338200":{
    "conspectus_use_unit_code":"186.33.82.0",
    "leganto_dept_name":null,
    "cristin_unit_code":"186.0.0.0",
    "cristin_unit_name_en":"UiT The Arctic University of Norway",
    "cristin_unit_name_nb":"Universitetet i Troms\u00f8 - Norges arktiske universitet",
    "cristin_sub_unit_code":"186.33.0.0",
    "cristin_sub_unit_name_en":"Faculty of Humanities, Social Sciences and Education",
    "cristin_sub_unit_name_nb":"Fakultet for humaniora, samfunnsvitenskap og l\u00e6rerutdanning",
    "cristin_sub_sub_unit_code":"186.33.82.0",
    "cristin_sub_sub_unit_name_en":"Centre for Peace Studies",
    "cristin_sub_sub_unit_name_nb":"Senter for fredsstudier (CPS)"
  },
  "186_33_82":{
    "conspectus_use_unit_code":"186.33.82.0",
    "leganto_dept_name":"Senter for fredsstudier",
    "cristin_unit_code":"186.0.0.0",
    "cristin_unit_name_en":"UiT The Arctic University of Norway",
    "cristin_unit_name_nb":"Universitetet i Troms\u00f8 - Norges arktiske universitet",
    "cristin_sub_unit_code":"186.33.0.0",
    "cristin_sub_unit_name_en":"Faculty of Humanities, Social Sciences and Education",
    "cristin_sub_unit_name_nb":"Fakultet for humaniora, samfunnsvitenskap og l\u00e6rerutdanning",
    "cristin_sub_sub_unit_code":"186.33.82.0",
    "cristin_sub_sub_unit_name_en":"Centre for Peace Studies",
    "cristin_sub_sub_unit_name_nb":"Senter for fredsstudier (CPS)"
  },
  "186338500":{
    "conspectus_use_unit_code":"186.33.85.0",
    "leganto_dept_name":null,
    "cristin_unit_code":"186.0.0.0",
    "cristin_unit_name_en":"UiT The Arctic University of Norway",
    "cristin_unit_name_nb":"Universitetet i Troms\u00f8 - Norges arktiske universitet",
    "cristin_sub_unit_code":"186.33.0.0",
    "cristin_sub_unit_name_en":"Faculty of Humanities, Social Sciences and Education",
    "cristin_sub_unit_name_nb":"Fakultet for humaniora, samfunnsvitenskap og l\u00e6rerutdanning",
    "cristin_sub_sub_unit_code":"186.33.85.0",
    "cristin_sub_sub_unit_name_en":"Centre for Sami Studies",
    "cristin_sub_sub_unit_name_nb":"Senter for samiske studier"
  },
  "186_33_85":{
    "conspectus_use_unit_code":"186.33.85.0",
    "leganto_dept_name":"Senter for samiske studier",
    "cristin_unit_code":"186.0.0.0",
    "cristin_unit_name_en":"UiT The Arctic University of Norway",
    "cristin_unit_name_nb":"Universitetet i Troms\u00f8 - Norges arktiske universitet",
    "cristin_sub_unit_code":"186.33.0.0",
    "cristin_sub_unit_name_en":"Faculty of Humanities, Social Sciences and Education",
    "cristin_sub_unit_name_nb":"Fakultet for humaniora, samfunnsvitenskap og l\u00e6rerutdanning",
    "cristin_sub_sub_unit_code":"186.33.85.0",
    "cristin_sub_sub_unit_name_en":"Centre for Sami Studies",
    "cristin_sub_sub_unit_name_nb":"Senter for samiske studier"
  },
  "186_33_86":{
    "conspectus_use_unit_code":"186.33.86.0",
    "leganto_dept_name":null,
    "cristin_unit_code":"186.0.0.0",
    "cristin_unit_name_en":"UiT The Arctic University of Norway",
    "cristin_unit_name_nb":"Universitetet i Troms\u00f8 - Norges arktiske universitet",
    "cristin_sub_unit_code":"186.33.0.0",
    "cristin_sub_unit_name_en":"Faculty of Humanities, Social Sciences and Education",
    "cristin_sub_unit_name_nb":"Fakultet for humaniora, samfunnsvitenskap og l\u00e6rerutdanning",
    "cristin_sub_sub_unit_code":"186.33.86.0",
    "cristin_sub_sub_unit_name_en":"Centre for Women's and Gender Research",
    "cristin_sub_sub_unit_name_nb":"Senter for kvinne- og kj\u00f8nnsforskning"
  },
  "186340000":{
    "conspectus_use_unit_code":"186.34.0.0",
    "leganto_dept_name":null,
    "cristin_unit_code":"186.0.0.0",
    "cristin_unit_name_en":"UiT The Arctic University of Norway",
    "cristin_unit_name_nb":"Universitetet i Troms\u00f8 - Norges arktiske universitet",
    "cristin_sub_unit_code":"186.34.0.0",
    "cristin_sub_unit_name_en":"Faculty of Biosciences, Fisheries and Economics",
    "cristin_sub_unit_name_nb":"Fakultet for biovitenskap, fiskeri og \u00f8konomi",
    "cristin_sub_sub_unit_code":null,
    "cristin_sub_sub_unit_name_en":null,
    "cristin_sub_sub_unit_name_nb":null
  },
  "186341100":{
    "conspectus_use_unit_code":"186.34.11.0",
    "leganto_dept_name":null,
    "cristin_unit_code":"186.0.0.0",
    "cristin_unit_name_en":"UiT The Arctic University of Norway",
    "cristin_unit_name_nb":"Universitetet i Troms\u00f8 - Norges arktiske universitet",
    "cristin_sub_unit_code":"186.34.0.0",
    "cristin_sub_unit_name_en":"Faculty of Biosciences, Fisheries and Economics",
    "cristin_sub_unit_name_nb":"Fakultet for biovitenskap, fiskeri og \u00f8konomi",
    "cristin_sub_sub_unit_code":"186.34.11.0",
    "cristin_sub_sub_unit_name_en":"Department of Arctic and Marine Biology",
    "cristin_sub_sub_unit_name_nb":"Institutt for arktisk og marin biologi"
  },
  "186_34_11":{
    "conspectus_use_unit_code":"186.34.11.0",
    "leganto_dept_name":"Institutt for arktisk og marin biologi",
    "cristin_unit_code":"186.0.0.0",
    "cristin_unit_name_en":"UiT The Arctic University of Norway",
    "cristin_unit_name_nb":"Universitetet i Troms\u00f8 - Norges arktiske universitet",
    "cristin_sub_unit_code":"186.34.0.0",
    "cristin_sub_unit_name_en":"Faculty of Biosciences, Fisheries and Economics",
    "cristin_sub_unit_name_nb":"Fakultet for biovitenskap, fiskeri og \u00f8konomi",
    "cristin_sub_sub_unit_code":"186.34.11.0",
    "cristin_sub_sub_unit_name_en":"Department of Arctic and Marine Biology",
    "cristin_sub_sub_unit_name_nb":"Institutt for arktisk og marin biologi"
  },
  "186341200":{
    "conspectus_use_unit_code":"186.34.12.0",
    "leganto_dept_name":null,
    "cristin_unit_code":"186.0.0.0",
    "cristin_unit_name_en":"UiT The Arctic University of Norway",
    "cristin_unit_name_nb":"Universitetet i Troms\u00f8 - Norges arktiske universitet",
    "cristin_sub_unit_code":"186.34.0.0",
    "cristin_sub_unit_name_en":"Faculty of Biosciences, Fisheries and Economics",
    "cristin_sub_unit_name_nb":"Fakultet for biovitenskap, fiskeri og \u00f8konomi",
    "cristin_sub_sub_unit_code":"186.34.12.0",
    "cristin_sub_sub_unit_name_en":"Norwegian College of Fishery Science",
    "cristin_sub_sub_unit_name_nb":"Norges fiskerih\u00f8gskole"
  },
  "186_34_12":{
    "conspectus_use_unit_code":"186.34.12.0",
    "leganto_dept_name":"Norges fiskerih\u00f8gskole",
    "cristin_unit_code":"186.0.0.0",
    "cristin_unit_name_en":"UiT The Arctic University of Norway",
    "cristin_unit_name_nb":"Universitetet i Troms\u00f8 - Norges arktiske universitet",
    "cristin_sub_unit_code":"186.34.0.0",
    "cristin_sub_unit_name_en":"Faculty of Biosciences, Fisheries and Economics",
    "cristin_sub_unit_name_nb":"Fakultet for biovitenskap, fiskeri og \u00f8konomi",
    "cristin_sub_sub_unit_code":"186.34.12.0",
    "cristin_sub_sub_unit_name_en":"Norwegian College of Fishery Science",
    "cristin_sub_sub_unit_name_nb":"Norges fiskerih\u00f8gskole"
  },
  "186341300":{
    "conspectus_use_unit_code":"186.34.13.0",
    "leganto_dept_name":null,
    "cristin_unit_code":"186.0.0.0",
    "cristin_unit_name_en":"UiT The Arctic University of Norway",
    "cristin_unit_name_nb":"Universitetet i Troms\u00f8 - Norges arktiske universitet",
    "cristin_sub_unit_code":"186.34.0.0",
    "cristin_sub_unit_name_en":"Faculty of Biosciences, Fisheries and Economics",
    "cristin_sub_unit_name_nb":"Fakultet for biovitenskap, fiskeri og \u00f8konomi",
    "cristin_sub_sub_unit_code":"186.34.13.0",
    "cristin_sub_sub_unit_name_en":"Troms\u00f8 University Business School",
    "cristin_sub_sub_unit_name_nb":"Handelsh\u00f8gskolen ved UiT"
  },
  "186_34_13":{
    "conspectus_use_unit_code":"186.34.13.0",
    "leganto_dept_name":"Handelsh\u00f8gskolen ved UiT",
    "cristin_unit_code":"186.0.0.0",
    "cristin_unit_name_en":"UiT The Arctic University of Norway",
    "cristin_unit_name_nb":"Universitetet i Troms\u00f8 - Norges arktiske universitet",
    "cristin_sub_unit_code":"186.34.0.0",
    "cristin_sub_unit_name_en":"Faculty of Biosciences, Fisheries and Economics",
    "cristin_sub_unit_name_nb":"Fakultet for biovitenskap, fiskeri og \u00f8konomi",
    "cristin_sub_sub_unit_code":"186.34.13.0",
    "cristin_sub_sub_unit_name_en":"Troms\u00f8 University Business School",
    "cristin_sub_sub_unit_name_nb":"Handelsh\u00f8gskolen ved UiT"
  },
  "186351100":{
    "conspectus_use_unit_code":"186.35.11.0",
    "leganto_dept_name":null,
    "cristin_unit_code":"186.0.0.0",
    "cristin_unit_name_en":"UiT The Arctic University of Norway",
    "cristin_unit_name_nb":"Universitetet i Troms\u00f8 - Norges arktiske universitet",
    "cristin_sub_unit_code":"186.35.0.0",
    "cristin_sub_unit_name_en":null,
    "cristin_sub_unit_name_nb":"Det kunstfaglige fakultet",
    "cristin_sub_sub_unit_code":"186.35.11.0",
    "cristin_sub_sub_unit_name_en":null,
    "cristin_sub_sub_unit_name_nb":"Musikkonservatoriet"
  },
  "186351200":{
    "conspectus_use_unit_code":"186.35.12.0",
    "leganto_dept_name":null,
    "cristin_unit_code":"186.0.0.0",
    "cristin_unit_name_en":"UiT The Arctic University of Norway",
    "cristin_unit_name_nb":"Universitetet i Troms\u00f8 - Norges arktiske universitet",
    "cristin_sub_unit_code":"186.35.0.0",
    "cristin_sub_unit_name_en":null,
    "cristin_sub_unit_name_nb":"Det kunstfaglige fakultet",
    "cristin_sub_sub_unit_code":"186.35.12.0",
    "cristin_sub_sub_unit_name_en":null,
    "cristin_sub_sub_unit_name_nb":"Kunstakademiet"
  },
  "186360000":{
    "conspectus_use_unit_code":"186.36.0.0",
    "leganto_dept_name":null,
    "cristin_unit_code":"186.0.0.0",
    "cristin_unit_name_en":"UiT The Arctic University of Norway",
    "cristin_unit_name_nb":"Universitetet i Troms\u00f8 - Norges arktiske universitet",
    "cristin_sub_unit_code":"186.36.0.0",
    "cristin_sub_unit_name_en":"Faculty of Law",
    "cristin_sub_unit_name_nb":"Det juridiske fakultet",
    "cristin_sub_sub_unit_code":null,
    "cristin_sub_sub_unit_name_en":null,
    "cristin_sub_sub_unit_name_nb":null
  },
  "186_36_0":{
    "conspectus_use_unit_code":"186.36.0.0",
    "leganto_dept_name":"Det juridiske fakultet",
    "cristin_unit_code":"186.0.0.0",
    "cristin_unit_name_en":"UiT The Arctic University of Norway",
    "cristin_unit_name_nb":"Universitetet i Troms\u00f8 - Norges arktiske universitet",
    "cristin_sub_unit_code":"186.36.0.0",
    "cristin_sub_unit_name_en":"Faculty of Law",
    "cristin_sub_unit_name_nb":"Det juridiske fakultet",
    "cristin_sub_sub_unit_code":null,
    "cristin_sub_sub_unit_name_en":null,
    "cristin_sub_sub_unit_name_nb":null
  },
  "186380000":{
    "conspectus_use_unit_code":"186.38.0.0",
    "leganto_dept_name":null,
    "cristin_unit_code":"186.0.0.0",
    "cristin_unit_name_en":"UiT The Arctic University of Norway",
    "cristin_unit_name_nb":"Universitetet i Troms\u00f8 - Norges arktiske universitet",
    "cristin_sub_unit_code":"186.38.0.0",
    "cristin_sub_unit_name_en":"Faculty of Engineering Science and Technology",
    "cristin_sub_unit_name_nb":"Fakultet for ingeni\u00f8rvitenskap og teknologi",
    "cristin_sub_sub_unit_code":null,
    "cristin_sub_sub_unit_name_en":null,
    "cristin_sub_sub_unit_name_nb":null
  },
  "186_38_0":{
    "conspectus_use_unit_code":"186.38.0.0",
    "leganto_dept_name":"Fakultet for ingeni\u00f8rvitenskap og teknologi",
    "cristin_unit_code":"186.0.0.0",
    "cristin_unit_name_en":"UiT The Arctic University of Norway",
    "cristin_unit_name_nb":"Universitetet i Troms\u00f8 - Norges arktiske universitet",
    "cristin_sub_unit_code":"186.38.0.0",
    "cristin_sub_unit_name_en":"Faculty of Engineering Science and Technology",
    "cristin_sub_unit_name_nb":"Fakultet for ingeni\u00f8rvitenskap og teknologi",
    "cristin_sub_sub_unit_code":null,
    "cristin_sub_sub_unit_name_en":null,
    "cristin_sub_sub_unit_name_nb":null
  },
  "186381100":{
    "conspectus_use_unit_code":"186.38.11.0",
    "leganto_dept_name":null,
    "cristin_unit_code":"186.0.0.0",
    "cristin_unit_name_en":"UiT The Arctic University of Norway",
    "cristin_unit_name_nb":"Universitetet i Troms\u00f8 - Norges arktiske universitet",
    "cristin_sub_unit_code":"186.38.0.0",
    "cristin_sub_unit_name_en":"Faculty of Engineering Science and Technology",
    "cristin_sub_unit_name_nb":"Fakultet for ingeni\u00f8rvitenskap og teknologi",
    "cristin_sub_sub_unit_code":"186.38.11.0",
    "cristin_sub_sub_unit_name_en":"Department of Industrial Engineering",
    "cristin_sub_sub_unit_name_nb":"Institutt for industriell teknologi"
  },
  "186_38_11":{
    "conspectus_use_unit_code":"186.38.11.0",
    "leganto_dept_name":"Institutt for industriell teknologi",
    "cristin_unit_code":"186.0.0.0",
    "cristin_unit_name_en":"UiT The Arctic University of Norway",
    "cristin_unit_name_nb":"Universitetet i Troms\u00f8 - Norges arktiske universitet",
    "cristin_sub_unit_code":"186.38.0.0",
    "cristin_sub_unit_name_en":"Faculty of Engineering Science and Technology",
    "cristin_sub_unit_name_nb":"Fakultet for ingeni\u00f8rvitenskap og teknologi",
    "cristin_sub_sub_unit_code":"186.38.11.0",
    "cristin_sub_sub_unit_name_en":"Department of Industrial Engineering",
    "cristin_sub_sub_unit_name_nb":"Institutt for industriell teknologi"
  },
  "186381200":{
    "conspectus_use_unit_code":"186.38.12.0",
    "leganto_dept_name":null,
    "cristin_unit_code":"186.0.0.0",
    "cristin_unit_name_en":"UiT The Arctic University of Norway",
    "cristin_unit_name_nb":"Universitetet i Troms\u00f8 - Norges arktiske universitet",
    "cristin_sub_unit_code":"186.38.0.0",
    "cristin_sub_unit_name_en":"Faculty of Engineering Science and Technology",
    "cristin_sub_unit_name_nb":"Fakultet for ingeni\u00f8rvitenskap og teknologi",
    "cristin_sub_sub_unit_code":"186.38.12.0",
    "cristin_sub_sub_unit_name_en":"Department of Building, Energy and Material Technology",
    "cristin_sub_sub_unit_name_nb":"Institutt for bygg, energi og materialteknologi"
  },
  "186_38_12":{
    "conspectus_use_unit_code":"186.38.12.0",
    "leganto_dept_name":"Institutt for bygg, energi og materialteknologi",
    "cristin_unit_code":"186.0.0.0",
    "cristin_unit_name_en":"UiT The Arctic University of Norway",
    "cristin_unit_name_nb":"Universitetet i Troms\u00f8 - Norges arktiske universitet",
    "cristin_sub_unit_code":"186.38.0.0",
    "cristin_sub_unit_name_en":"Faculty of Engineering Science and Technology",
    "cristin_sub_unit_name_nb":"Fakultet for ingeni\u00f8rvitenskap og teknologi",
    "cristin_sub_sub_unit_code":"186.38.12.0",
    "cristin_sub_sub_unit_name_en":"Department of Building, Energy and Material Technology",
    "cristin_sub_sub_unit_name_nb":"Institutt for bygg, energi og materialteknologi"
  },
  "186381300":{
    "conspectus_use_unit_code":"186.38.13.0",
    "leganto_dept_name":null,
    "cristin_unit_code":"186.0.0.0",
    "cristin_unit_name_en":"UiT The Arctic University of Norway",
    "cristin_unit_name_nb":"Universitetet i Troms\u00f8 - Norges arktiske universitet",
    "cristin_sub_unit_code":"186.38.0.0",
    "cristin_sub_unit_name_en":"Faculty of Engineering Science and Technology",
    "cristin_sub_unit_name_nb":"Fakultet for ingeni\u00f8rvitenskap og teknologi",
    "cristin_sub_sub_unit_code":"186.38.13.0",
    "cristin_sub_sub_unit_name_en":"Department of Electrical Engineering",
    "cristin_sub_sub_unit_name_nb":"Institutt for elektroteknologi"
  },
  "186_38_13":{
    "conspectus_use_unit_code":"186.38.13.0",
    "leganto_dept_name":"Institutt for elektroteknologi",
    "cristin_unit_code":"186.0.0.0",
    "cristin_unit_name_en":"UiT The Arctic University of Norway",
    "cristin_unit_name_nb":"Universitetet i Troms\u00f8 - Norges arktiske universitet",
    "cristin_sub_unit_code":"186.38.0.0",
    "cristin_sub_unit_name_en":"Faculty of Engineering Science and Technology",
    "cristin_sub_unit_name_nb":"Fakultet for ingeni\u00f8rvitenskap og teknologi",
    "cristin_sub_sub_unit_code":"186.38.13.0",
    "cristin_sub_sub_unit_name_en":"Department of Electrical Engineering",
    "cristin_sub_sub_unit_name_nb":"Institutt for elektroteknologi"
  },
  "186381400":{
    "conspectus_use_unit_code":"186.38.14.0",
    "leganto_dept_name":null,
    "cristin_unit_code":"186.0.0.0",
    "cristin_unit_name_en":"UiT The Arctic University of Norway",
    "cristin_unit_name_nb":"Universitetet i Troms\u00f8 - Norges arktiske universitet",
    "cristin_sub_unit_code":"186.38.0.0",
    "cristin_sub_unit_name_en":"Faculty of Engineering Science and Technology",
    "cristin_sub_unit_name_nb":"Fakultet for ingeni\u00f8rvitenskap og teknologi",
    "cristin_sub_sub_unit_code":"186.38.14.0",
    "cristin_sub_sub_unit_name_en":"Department of Computer Science and Computational Engineering",
    "cristin_sub_sub_unit_name_nb":"Institutt for datateknologi og beregningsorienterte ingeni\u00f8rfag"
  },
  "186_38_14":{
    "conspectus_use_unit_code":"186.38.14.0",
    "leganto_dept_name":"Institutt for datateknologi og beregningsorienterte ingeni\u00f8rfag",
    "cristin_unit_code":"186.0.0.0",
    "cristin_unit_name_en":"UiT The Arctic University of Norway",
    "cristin_unit_name_nb":"Universitetet i Troms\u00f8 - Norges arktiske universitet",
    "cristin_sub_unit_code":"186.38.0.0",
    "cristin_sub_unit_name_en":"Faculty of Engineering Science and Technology",
    "cristin_sub_unit_name_nb":"Fakultet for ingeni\u00f8rvitenskap og teknologi",
    "cristin_sub_sub_unit_code":"186.38.14.0",
    "cristin_sub_sub_unit_name_en":"Department of Computer Science and Computational Engineering",
    "cristin_sub_sub_unit_name_nb":"Institutt for datateknologi og beregningsorienterte ingeni\u00f8rfag"
  },
  "186381500":{
    "conspectus_use_unit_code":"186.38.15.0",
    "leganto_dept_name":null,
    "cristin_unit_code":"186.0.0.0",
    "cristin_unit_name_en":"UiT The Arctic University of Norway",
    "cristin_unit_name_nb":"Universitetet i Troms\u00f8 - Norges arktiske universitet",
    "cristin_sub_unit_code":"186.38.0.0",
    "cristin_sub_unit_name_en":"Faculty of Engineering Science and Technology",
    "cristin_sub_unit_name_nb":"Fakultet for ingeni\u00f8rvitenskap og teknologi",
    "cristin_sub_sub_unit_code":"186.38.15.0",
    "cristin_sub_sub_unit_name_en":"Department of Automation and Process Engineering",
    "cristin_sub_sub_unit_name_nb":"Institutt for automasjon og prosessteknologi"
  },
  "186_38_15":{
    "conspectus_use_unit_code":"186.38.15.0",
    "leganto_dept_name":"Institutt for automasjon og prosessteknologi",
    "cristin_unit_code":"186.0.0.0",
    "cristin_unit_name_en":"UiT The Arctic University of Norway",
    "cristin_unit_name_nb":"Universitetet i Troms\u00f8 - Norges arktiske universitet",
    "cristin_sub_unit_code":"186.38.0.0",
    "cristin_sub_unit_name_en":"Faculty of Engineering Science and Technology",
    "cristin_sub_unit_name_nb":"Fakultet for ingeni\u00f8rvitenskap og teknologi",
    "cristin_sub_sub_unit_code":"186.38.15.0",
    "cristin_sub_sub_unit_name_en":"Department of Automation and Process Engineering",
    "cristin_sub_sub_unit_name_nb":"Institutt for automasjon og prosessteknologi"
  },
  "186_41_0":{
    "conspectus_use_unit_code":"186.41.0.0",
    "leganto_dept_name":null,
    "cristin_unit_code":"186.0.0.0",
    "cristin_unit_name_en":"UiT The Arctic University of Norway",
    "cristin_unit_name_nb":"Universitetet i Troms\u00f8 - Norges arktiske universitet",
    "cristin_sub_unit_code":"186.41.0.0",
    "cristin_sub_unit_name_en":"The Arctic University Museum of Norway and Academy of Fine Arts",
    "cristin_sub_unit_name_nb":"Norges arktiske universitetsmuseum og akademi for kunstfag",
    "cristin_sub_sub_unit_code":null,
    "cristin_sub_sub_unit_name_en":null,
    "cristin_sub_sub_unit_name_nb":null
  },
  "186411300":{
    "conspectus_use_unit_code":"186.41.13.0",
    "leganto_dept_name":null,
    "cristin_unit_code":"186.0.0.0",
    "cristin_unit_name_en":"UiT The Arctic University of Norway",
    "cristin_unit_name_nb":"Universitetet i Troms\u00f8 - Norges arktiske universitet",
    "cristin_sub_unit_code":"186.41.0.0",
    "cristin_sub_unit_name_en":"The Arctic University Museum of Norway and Academy of Fine Arts",
    "cristin_sub_unit_name_nb":"Norges arktiske universitetsmuseum og akademi for kunstfag",
    "cristin_sub_sub_unit_code":"186.41.13.0",
    "cristin_sub_sub_unit_name_en":"Academy of Arts",
    "cristin_sub_sub_unit_name_nb":"Kunstakademiet"
  },
  "186_41_13":{
    "conspectus_use_unit_code":"186.41.13.0",
    "leganto_dept_name":"Kunstakademiet",
    "cristin_unit_code":"186.0.0.0",
    "cristin_unit_name_en":"UiT The Arctic University of Norway",
    "cristin_unit_name_nb":"Universitetet i Troms\u00f8 - Norges arktiske universitet",
    "cristin_sub_unit_code":"186.41.0.0",
    "cristin_sub_unit_name_en":"The Arctic University Museum of Norway and Academy of Fine Arts",
    "cristin_sub_unit_name_nb":"Norges arktiske universitetsmuseum og akademi for kunstfag",
    "cristin_sub_sub_unit_code":"186.41.13.0",
    "cristin_sub_sub_unit_name_en":"Academy of Arts",
    "cristin_sub_sub_unit_name_nb":"Kunstakademiet"
  },
  "186411400":{
    "conspectus_use_unit_code":"186.41.14.0",
    "leganto_dept_name":null,
    "cristin_unit_code":"186.0.0.0",
    "cristin_unit_name_en":"UiT The Arctic University of Norway",
    "cristin_unit_name_nb":"Universitetet i Troms\u00f8 - Norges arktiske universitet",
    "cristin_sub_unit_code":"186.41.0.0",
    "cristin_sub_unit_name_en":"The Arctic University Museum of Norway and Academy of Fine Arts",
    "cristin_sub_unit_name_nb":"Norges arktiske universitetsmuseum og akademi for kunstfag",
    "cristin_sub_sub_unit_code":"186.41.14.0",
    "cristin_sub_sub_unit_name_en":"Academy of Music",
    "cristin_sub_sub_unit_name_nb":"Musikkonservatoriet"
  },
  "186_41_14":{
    "conspectus_use_unit_code":"186.41.14.0",
    "leganto_dept_name":"Musikkonservatoriet",
    "cristin_unit_code":"186.0.0.0",
    "cristin_unit_name_en":"UiT The Arctic University of Norway",
    "cristin_unit_name_nb":"Universitetet i Troms\u00f8 - Norges arktiske universitet",
    "cristin_sub_unit_code":"186.41.0.0",
    "cristin_sub_unit_name_en":"The Arctic University Museum of Norway and Academy of Fine Arts",
    "cristin_sub_unit_name_nb":"Norges arktiske universitetsmuseum og akademi for kunstfag",
    "cristin_sub_sub_unit_code":"186.41.14.0",
    "cristin_sub_sub_unit_name_en":"Academy of Music",
    "cristin_sub_sub_unit_name_nb":"Musikkonservatoriet"
  },
  "186_41_3":{
    "conspectus_use_unit_code":"186.41.3.0",
    "leganto_dept_name":null,
    "cristin_unit_code":"186.0.0.0",
    "cristin_unit_name_en":"UiT The Arctic University of Norway",
    "cristin_unit_name_nb":"Universitetet i Troms\u00f8 - Norges arktiske universitet",
    "cristin_sub_unit_code":"186.41.0.0",
    "cristin_sub_unit_name_en":"The Arctic University Museum of Norway and Academy of Fine Arts",
    "cristin_sub_unit_name_nb":"Norges arktiske universitetsmuseum og akademi for kunstfag",
    "cristin_sub_sub_unit_code":"186.41.3.0",
    "cristin_sub_sub_unit_name_en":null,
    "cristin_sub_sub_unit_name_nb":"Nordland kunst- og filmh\u00f8gskole"
  },
  "186450000":{
    "conspectus_use_unit_code":"186.45.0.0",
    "leganto_dept_name":null,
    "cristin_unit_code":"186.0.0.0",
    "cristin_unit_name_en":"UiT The Arctic University of Norway",
    "cristin_unit_name_nb":"Universitetet i Troms\u00f8 - Norges arktiske universitet",
    "cristin_sub_unit_code":"186.45.0.0",
    "cristin_sub_unit_name_en":"The University Library of Troms\u00f8",
    "cristin_sub_unit_name_nb":"Universitetsbiblioteket",
    "cristin_sub_sub_unit_code":null,
    "cristin_sub_sub_unit_name_en":null,
    "cristin_sub_sub_unit_name_nb":null
  },
  "186_45_0":{
    "conspectus_use_unit_code":"186.45.0.0",
    "leganto_dept_name":null,
    "cristin_unit_code":"186.0.0.0",
    "cristin_unit_name_en":"UiT The Arctic University of Norway",
    "cristin_unit_name_nb":"Universitetet i Troms\u00f8 - Norges arktiske universitet",
    "cristin_sub_unit_code":"186.45.0.0",
    "cristin_sub_unit_name_en":"The University Library of Troms\u00f8",
    "cristin_sub_unit_name_nb":"Universitetsbiblioteket",
    "cristin_sub_sub_unit_code":null,
    "cristin_sub_sub_unit_name_en":null,
    "cristin_sub_sub_unit_name_nb":null
  }
}