"189_0"; "null"; "189.0.0.0"
"189_1"; "Institute of Architecture - Institutt for arkitektur"; "189.1.0.0"
"189_2"; "Institute of Design - Instutt for design"; "189.2.0.0"
"189_3"; "Institute of Urbanism and Landscape - Institutt for urbanisme og landskap"; "189.3.0.0"
"189_4"; "Institute of Form, Theory and History - Instutt for form, teori og historie"; "189.0.0.0"
"null"; "null"; "189.0.0.0"
