"000_15_1"; "null"; "224.0.0.0"
"201_17_2"; "null"; "224.0.0.0"
"224_00"; "null"; "224.0.0.0"
"224_20_0"; "HiØ - Seksjon for pedagogisk utvikling og læring"; "224.0.0.0"
"224_30_0"; "null"; "224.35.20.0"
"224_30"; "null"; "224.35.20.0"
"224_35_0"; "LUSP - Emner ikke tilknyttet spesifikt institutt"; "224.35.0.0"
"224_35_10"; "LUSP -Institutt for språk, litteratur og kultur"; "224.35.10.0"
"224_35_20"; "LUSP -Institutt for pedagogikk, IKT og læring"; "224.35.20.0"
"224_35_30"; "LUSP -Institutt for real-, praktisk-estetiske, samfunns- og religionsfag"; "224.35.30.0"
"224_40_0"; "null"; "224.0.0.0"
"224_40"; "null"; "224.45.20.0"
"224_45_10"; "HVO - Institutt for sykepleie, helse og bioingeniørfag"; "224.45.10.0"
"224_45_20"; "HVO - Institutt for velferd, ledelse og organisasjon"; "224.45.20.0"
"224_50"; "null"; "224.65.20.0"
"224_55"; "null"; "224.65.10.0"
"224_60_0"; "null"; "224.35.10.0"
"224_65_0"; "null"; "224.65.10.0"
"224_65_10"; "IIØ - Institutt for informasjonsteknologi og kommunikasjon"; "224.65.10.0"
"224_65_20"; "IIØ - Institutt for ingeniørfag"; "224.65.20.0"
"224_65_30"; "IIØ - Institutt for økonomi, innovasjon og samfunn"; "224.65.30.0"
"224_70_0"; "Akademi for scenekunst"; "224.70.0.0"
"224_80_35"; "HiØ VIDERE emner - Fakultet for lærerutdanninger og språk"; "224.35.0.0"
"224_80_45"; "HiØ VIDERE emner - Fakultet for helse, velferd og organisasjon"; "224.45.0.0"
"224_80_65"; "HiØ VIDERE emner - Fakultet for informasjonsteknologi, ingeniørfag og økonomi"; "224.65.0.0"
"224_80"; "null"; "224.0.0.0"
null"; "null"; "224.0.0.0"
