"203_0_0"; "Høgskulen på Vestlandet"; "203.0.0.0"
"203_0_7"; "Avdeling for utdanningskvalitet"; "203.19.0.0"
"203_10_0"; "Fakultet for helse- og sosialvitskap"; "203.11.0.0"
"203_10_1"; "Institutt for helse- og omsorgsvitskap"; "203.11.1.0"
"203_10_2"; "Institutt for helse og funksjon"; "203.11.2.0"
"203_10_3"; "Institutt for velferd og deltaking"; "203.11.3.0"
"203_10_6"; "Senter for kunnskapsbasert praksis"; "203.11.2.0"
"203_20_0"; "Fakultet for ingeniør- og naturvitskap"; "203.12.0.0"
"203_20_10"; "Institutt for datateknologi, elektroteknologi og realfag"; "203.12.12.0"
"203_20_11"; "Institutt for sikkerhet, kjemi- og bioingeniørfag"; "203.12.13.0"
"203_20_1"; "Institutt for maskin- og marinfag"; "203.12.6.0"
"203_20_2"; "Institutt for byggfag"; "203.12.3.0"
"203_20_3"; "Institutt for miljø- og naturvitskap"; "203.12.7.0"
"203_20_4"; "Institutt for data- og realfag (- 2019V)"; "203.12.12.0"
"203_20_5"; "Institutt for bio- og kjemiingeniørfag (- 2019V)"; "203.12.13.0"
"203_20_6"; "Institutt for elektrofag (- 2019V)"; "203.12.6.0"
"203_20_7"; "Institutt for brannsikkerheit og HMS (- 2019V)"; "203.12.13.0"
"203_20_8"; "Dykkarutdanninga"; "203.12.8.0"
"203_20_9"; "Mohnsenteret for innovasjon og regional utvikling"; "203.12.11.0"
"203_30_0"; "Fakultet for lærarutdanning, kultur og idrett"; "203.10.0.0"
"203_30_1"; "Institutt for idrett, kosthald og naturfag"; "203.10.1.0"
"203_30_2"; "Institutt for pedagogikk, religion og samfunnsfag"; "203.10.2.0"
"203_30_3"; "Institutt for språk, litteratur, matematikk og tolking"; "203.10.3.0"
"203_30_4"; "Institutt for kunstfag"; "203.10.4.0"
"203_40_0"; "Fakultet for økonomi og samfunnsvitskap"; "203.13.0.0"
"203_40_1"; "Institutt for maritime studier"; "203.13.1.0"
"203_40_2"; "Institutt for økonomi og administrasjon"; "203.13.3.0"
"203_40_3"; "Institutt for samfunnsvitskap"; "203.13.2.0"