"1615_10_0"; "School of Economics, Innovation, and Technology"; "1615.10.0.0"
"1615_10_10"; "Departement of Technology"; "1615.10.0.0"
"1615_10_20"; "Departement of Economics and Innovation"; "1615.10.0.0"
"1615_10"; "School of Economics, Innovation and Technology"; "1615.10.0.0"
"1615_30_10"; "Westerdals Department of Creativity, Storytelling and Design"; "1615.20.10.0"
"1615_30_20"; "Westerdals Department of Film and Media"; "1615.20.20.0"
"1615_30_30"; "Department of Music"; "1615.20.30.0"
"1615_30_40"; "null"; "1615.20.0.0"
"1615_30_50"; "Department of Performing Arts"; "1615.20.98.0"
"1615_30"; "School of Arts, Design, and Media"; "1615.20.0.0"
"1615_40_0"; "School of Doctoral Studies"; "1615.0.0.0"
"1615_60_10"; "null"; "1615.0.0.0"
"1615_60_20"; "null"; "1615.0.0.0"
"1615_60_30"; "null"; "1615.0.0.0"
"1615_60_40"; "null"; "1615.0.0.0"
"1615_60_50"; "null"; "1615.0.0.0"
"1615_60_60"; "null"; "1615.0.0.0"
"1615_70_10"; "Departement of Marketing"; "1615.30.10.0"
"1615_70_20"; "Departement of Leadership and Organization"; "1615.30.20.0"
"1615_70_30"; "Departement of Communication"; "1615.30.30.0"
"1615_70"; "School of Communication, Leadership, and Marketing"; "1615.30.0.0"
"1615_80_40"; "SHS: Folkehelse og manuell behandling"; "1615.X.X.0"
"1615_80_50"; "Departement of Health and Exercise"; "1615.40.10.0"
"1615_80_60"; "Departement of Psychology, Pedagogy and Law"; "1615.40.30.0"
"1615_80"; "School of Health Sciences"; "1615.40.0.0"
null"; "null"; "1615.0.0.0"
