"215_13_9"; "null"; "230.0.0.0"
"222_59_1"; "null"; "230.0.0.0"
"230_10"; "Bachelor"; "230.0.0.0"
"230_20"; "Etter- og videreutdanning"; "230.0.0.0"
"230_30"; "Master"; "230.0.0.0"
"null"; "null"; "230.0.0.0"
