"190_1_4"; "null"; "190.0.0.0"
"190_1"; "null"; "190.0.0.0"
"190_3_0"; "null"; "190.0.0.0"
"190_3"; "null"; "190.0.0.0"
"190_4_0"; "null"; "190.0.0.0"
"190_4"; "null"; "190.0.0.0"
"null"; "null"; "190.0.0.0"
