"204_15"; "Handelshøgskolen"; "204.50.0.0"
"204_25"; "Fakultet for samfunnsvitenskap"; "204.40.0.0"
"204_35"; "Fakultet for biovitenskap og akvakultur"; "204.30.0.0"
"204_45"; "Fakultet for sykepleie og helsevitenskap"; "204.70.0.0"
"204_55"; "Fakultet for lærerutdanning og kunst- og kulturfag"; "204.80.0.0"
"204_81"; "null"; "204.0.0.0"
"null"; "null"; "204.0.0.0"
"UNDEFINED"; "null"; "204.0.0.0"