"201_14_0";"Fakultet for humaniora og pedagogikk";"201.14.0.0"
"201_14_1";"Institutt for pedagogikk";"201.14.1.0"
"201_14_2";"Institutt for nordisk og mediefag";"201.14.2.0"
"201_14_3";"Institutt for fremmedspråk og oversetting";"201.14.3.0"
"201_14_4";"Institutt for religion, filosofi og historie";"201.14.4.0"
"201_15_0";"Fakultet for teknologi og realfag";"201.15.0.0"
"201_15_1";"Institutt for matematiske fag";"201.15.1.0"
"201_15_2";"Institutt for naturvitenskapelige fag";"201.15.2.0"
"201_15_3";"Institutt for ingeniørvitenskap";"201.15.3.0"
"201_15_4";"Institutt for informasjons- og kommunikasjonsteknologi";"201.15.4.0"
"201_17_0";"Fakultet for kunstfag";"201.17.0.0"
"201_17_1";"Institutt for klassisk musikk og musikkpedagogikk";"201.17.1.0"
"201_17_2";"Institutt for visuelle og sceniske fag";"201.17.2.0"
"201_17_3";"Institutt for rytmisk musikk";"201.17.3.0"
"201_18_0";"Fakultet for helse- og idrettsvitenskap";"201.18.0.0"
"201_18_1";"Institutt for helse- og sykepleievitenskap";"201.18.1.0"
"201_18_2";"Institutt for folkehelse, idrett og ernæring";"201.18.2.0"
"201_18_4";"Institutt for psykososial helse";"201.18.4.0"
"201_18_6";"Institutt for idrettsvitenskap og kroppsøving";"201.18.6.0"
"201_18_7";"Institutt for ernæring og folkehelse";"201.18.7.0"
"201_6_0";"Handelshøyskolen ved UiA";"201.20.0.0"
"201_6_1";"Institutt for arbeidsliv og innovasjon";"201.20.1.0"
"201_6_2";"Institutt for rettsvitenskap";"201.20.2.0"
"201_6_3";"Institutt for strategi og ledelse ";"201.20.3.0"
"201_6_4";"Institutt for økonomi ";"201.20.4.0"
"201_7_0";"Fakultet for samfunnsvitenskap";"201.19.0.0"
"201_7_1";"Institutt for informasjonssystemer";"201.19.1.0"
"201_7_2";"Institutt for sosiologi og sosialt arbeid";"201.19.2.0"
"201_7_3";"Institutt for statsvitenskap og ledelsesfag";"201.19.3.0"
"201_7_4";"Institutt for global utvikling og samfunnsplanlegging";"201.19.4.0"
"201_8_0";"Avdeling for lærerutdanning";"201.8.0.0"
"201_8_1";"Avdeling for lærerutdanning";"201.8.0.0"
"null";"null";"201.0.0.0"
"UNDEFINED";"null";"201.0.0.0"
