"184100000"; "Examen philosophicum"; "184.10.0.0"; ""; "184.0.0.0"; ""; ""; "0.0.0.0"; ""
"184110000"; "Det humanistiske fakultet"; "184.11.0.0"; ""; "184.0.0.0"; ""; ""; "0.0.0.0"; ""
"184112000"; "Institutt for fremmedspråk"; "184.11.20.0"; ""; "184.0.0.0"; ""; ""; "0.0.0.0"; ""
"184112100"; "Institutt for lingvistiske, litterære og estetiske studier"; "184.11.21.0"; ""; "184.0.0.0"; ""; ""; "0.0.0.0"; ""
"184112200"; "Institutt for arkeologi, historie, kultur- og religionsvitenskap"; "184.11.22.0"; ""; "184.0.0.0"; ""; ""; "0.0.0.0"; ""
"184116200"; "Institutt for filosofi og førstesemesterstudier"; "184.11.62.0"; ""; "184.0.0.0"; ""; ""; "0.0.0.0"; ""
"184117400"; "Senter for kvinne- og kjønnsforskning"; "184.11.74.0"; ""; "184.0.0.0"; ""; ""; "0.0.0.0"; ""
"184117500"; "Senter for vitenskapsteori"; "184.11.75.0"; ""; "184.0.0.0"; ""; ""; "0.0.0.0"; ""
"184120000"; "Det matematisk-naturvitenskapelige fakultet"; "184.12.0.0"; ""; "184.0.0.0"; ""; ""; "0.0.0.0"; ""
"184121100"; "Matematisk institutt"; "184.12.11.0"; ""; "184.0.0.0"; ""; ""; "0.0.0.0"; ""
"184121200"; "Institutt for informatikk"; "184.12.12.0"; ""; "184.0.0.0"; ""; ""; "0.0.0.0"; ""
"184122400"; "Institutt for fysikk og teknologi"; "184.12.24.0"; ""; "184.0.0.0"; ""; ""; "0.0.0.0"; ""
"184123100"; "Kjemisk institutt"; "184.12.31.0"; ""; "184.0.0.0"; ""; ""; "0.0.0.0"; ""
"184124400"; "Geofysisk institutt"; "184.12.44.0"; ""; "184.0.0.0"; ""; ""; "0.0.0.0"; ""
"184125000"; "Institutt for geovitenskap"; "184.12.50.0"; ""; "184.0.0.0"; ""; ""; "0.0.0.0"; ""
"184126000"; "Institutt for biovitenskap"; "184.12.60.0"; ""; "184.0.0.0"; ""; ""; "0.0.0.0"; ""
"184130000"; "Det medisinske fakultet"; "184.13.0.0"; ""; "184.0.0.0"; ""; ""; "0.0.0.0"; ""
"184131400"; "Institutt for biomedisin"; "184.13.14.0"; ""; "184.0.0.0"; ""; ""; "0.0.0.0"; ""
"184131900"; "Institutt for klinisk odontologi"; "184.13.19.0"; ""; "184.0.0.0"; ""; ""; "0.0.0.0"; ""
"184132400"; "Klinisk institutt 1"; "184.13.24.0"; ""; "184.0.0.0"; ""; ""; "0.0.0.0"; ""
"184132500"; "Klinisk institutt 2"; "184.13.25.0"; ""; "184.0.0.0"; ""; ""; "0.0.0.0"; ""
"184132600"; "Institutt for global helse og samfunnsmedisin"; "184.13.26.0"; ""; "184.0.0.0"; ""; ""; "0.0.0.0"; ""
"184134400"; "Senter for internasjonal helse"; "184.13.44.0"; ""; "184.0.0.0"; ""; ""; "0.0.0.0"; ""
"184150000"; "Det samfunnsvitenskapelige fakultet"; "184.15.0.0"; ""; "184.0.0.0"; ""; ""; "0.0.0.0"; ""
"184151100"; "Sosiologisk institutt"; "184.15.11.0"; ""; "184.0.0.0"; ""; ""; "0.0.0.0"; ""
"184151200"; "Institutt for administrasjon og organisasjonsvitenskap"; "184.15.12.0"; ""; "184.0.0.0"; ""; ""; "0.0.0.0"; ""
"184151300"; "Institutt for sammenliknende politikk"; "184.15.13.0"; ""; "184.0.0.0"; ""; ""; "0.0.0.0"; ""
"184151500"; "Institutt for økonomi"; "184.15.15.0"; ""; "184.0.0.0"; ""; ""; "0.0.0.0"; ""
"184151700"; "Institutt for informasjons- og medievitenskap"; "184.15.17.0"; ""; "184.0.0.0"; ""; ""; "0.0.0.0"; ""
"184153400"; "Institutt for sosialantropologi"; "184.15.34.0"; ""; "184.0.0.0"; ""; ""; "0.0.0.0"; ""
"184154100"; "Institutt for geografi"; "184.15.41.0"; ""; "184.0.0.0"; ""; ""; "0.0.0.0"; ""
"184160000"; "Det juridiske fakultet"; "184.16.0.0"; ""; "184.0.0.0"; ""; ""; "0.0.0.0"; ""
"184170000"; "Det psykologiske fakultet"; "184.17.0.0"; ""; "184.0.0.0"; ""; ""; "0.0.0.0"; ""
"184173200"; "Institutt for biologisk og medisinsk psykologi"; "184.17.32.0"; ""; "184.0.0.0"; ""; ""; "0.0.0.0"; ""
"184173300"; "HEMIL-senteret"; "184.17.33.0"; ""; "184.0.0.0"; ""; ""; "0.0.0.0"; ""
"184173400"; "Institutt for klinisk psykologi"; "184.17.34.0"; ""; "184.0.0.0"; ""; ""; "0.0.0.0"; ""
"184173500"; "Institutt for samfunnspsykologi"; "184.17.35.0"; ""; "184.0.0.0"; ""; ""; "0.0.0.0"; ""
"184174200"; "Institutt for pedagogikk"; "184.17.42.0"; ""; "184.0.0.0"; ""; ""; "0.0.0.0"; ""
"184175000"; "The Centre for the Science of Learning & Technology (SLATE)"; "184.17.50.0"; ""; "184.0.0.0"; ""; ""; "0.0.0.0"; ""
"184176000"; "Senter for krisepsykologi"; "184.17.60.0"; ""; "184.0.0.0"; ""; ""; "0.0.0.0"; ""
"184180000"; "Fakultet for kunst, musikk og design"; "184.18.0.0"; ""; "184.0.0.0"; ""; ""; "0.0.0.0"; ""
"184181000"; "Institutt for kunst"; "184.18.10.0"; ""; "184.0.0.0"; ""; ""; "0.0.0.0"; ""
"184182000"; "Institutt for design"; "184.18.20.0"; ""; "184.0.0.0"; ""; ""; "0.0.0.0"; ""
"184183000"; "Griegakademiet - Institutt for musikk"; "184.18.30.0"; ""; "184.0.0.0"; ""; ""; "0.0.0.0"; ""
"184189000"; "Program for kunstnerisk utviklingsarbeid"; "184.18.90.0"; ""; "184.0.0.0"; ""; ""; "0.0.0.0"; ""
"184216000"; "Forsknings- og innovasjonsavdelingen"; "184.21.60.0"; ""; "184.0.0.0"; ""; ""; "0.0.0.0"; ""
"184218000"; "Studieadministrativ avdeling"; "184.21.80.0"; ""; "184.0.0.0"; ""; ""; "0.0.0.0"; ""
"215_14_0"; "null"; "..."; ""; "184.0.0.0"; ""; ""; "0.0.0.0"; ""
"217_14_0"; "null"; "..."; ""; "184.0.0.0"; ""; ""; "0.0.0.0"; ""
"217_8_3"; "null"; "..."; ""; "184.0.0.0"; ""; ""; "0.0.0.0"; ""
"AHKR"; "null"; "..."; ""; "184.0.0.0"; ""; ""; "0.0.0.0"; ""
"ECON"; "null"; "..."; ""; "184.0.0.0"; ""; ""; "0.0.0.0"; ""
"GEOGRAFI"; "null"; "..."; ""; "184.0.0.0"; ""; ""; "0.0.0.0"; ""
"INFOMEDIA"; "null"; "..."; ""; "184.0.0.0"; ""; ""; "0.0.0.0"; ""
"null"; "null"; "..."; ""; "184.0.0.0"; ""; ""; "0.0.0.0"; ""
"SAMPOL"; "null"; "..."; ""; "184.0.0.0"; ""; ""; "0.0.0.0"; ""
