"185.11.0"; "TF - Faculty of Theology"; "185.11.0.0"; "Det teologiske fakultet"; "185.0.0.0"; "185.11.0.0"; "0.0.0.0"; "0.0.0.0"; ""
"185.12.0"; "JF - Faculty of Law"; "185.12.0.0"; "Det juridiske f 	 	akultet"; "185.0.0.0"; "185.12.0.0"; "0.0.0.0"; "0.0.0.0"; ""
"185.12.1"; "JF - Department of Criminology and Sociology of Law"; "185.12.1.0"; "Institutt for kriminologi og rettssosiologi"; "185.0.0.0"; "185.12.0.0"; "185.12.1.0"; "0.0.0.0"; ""
"185.12.2"; "JF - Department of Private Law"; "185.12.2.0"; "Institutt for privatrett"; "185.0.0.0"; "185.12.0.0";"185.12.2.0"; "0.0.0.0"; ""
"185.12.4"; "JF - Scandinavian Institute of Maritime Law"; "185.12.4.0"; "Nordisk institutt for sjørett"; "185.0.0.0"; "185.12.0.0"; "185.12.4.0"; "0.0.0.0"; ""
"185.12.5"; "JF - Department of Public and International Law at The University of Oslo"; "185.12.5.0"; "Institutt for offentlig rett"; "185.0.0.0"; "185.12.0.0"; "185.12.5.0"; "0.0.0.0"; ""
"185.12.7"; "JF - Norwegian Centre for Human Rights"; "185.12.7.0"; "Norsk senter for menneskerettigheter"; "185.0.0.0"; "185.12.0.0"; "185.12.7.0"; "0.0.0.0"; ""
"185.14.0"; "No entry in leganto"; "185.14.0.0"; "Det humanistiske fakultet"; "185.0.0.0"; "185.14.0.0"; "0.0.0.0"; "0.0.0.0"; ""
"185.14.31"; "HF - Department of Archaeology, Conservation and History"; "185.14.31.0"; "Institutt for arkeologi, konservering og historie"; "185.0.0.0"; "185.14.0.0"; "185.14.31.0"; "0.0.0.0"; ""
"185.14.32"; "HF - Department of Culture Studies and Oriental Languages"; "185.14.32.0"; "Institutt for kulturstudier og orientalske språk"; "185.0.0.0"; "185.14.0.0"; "185.14.32.0"; "0.0.0.0"; ""
"185.14.33"; "HF - Department of Philosophy Classics History of Art and Ideas"; "185.14.33.0"; "Institutt for filosofi, idé- og kunsthistorie og klassiske språk"; "185.0.0.0"; "185.14.0.0"; "185.14.33.0"; "0.0.0.0"; ""
"185.14.34"; "HF - Department of Literature Area Studies and European Languages"; "185.14.34.0"; "Institutt for litteratur, områdestudier og europeiske språk"; "185.0.0.0"; "185.14.0.0"; "185.14.34.0"; "0.0.0.0"; ""
"185.14.35"; "HF - Department of Linguistics and Scandinavian Studies"; "185.14.35.0"; "Institutt for lingvistiske og nordiske studier"; "185.0.0.0"; "185.14.0.0"; "185.14.35.0"; "0.0.0.0"; ""
"185.14.36"; "HF - Department of Musicology"; "185.14.36.0"; "Institutt for musikkvitenskap"; "185.0.0.0"; "185.14.0.0"; "185.14.36.0"; "0.0.0.0"; ""
"185.14.9"; "HF - Department of Media and Communication"; "185.14.9.0"; "Institutt for medier og kommunikasjon"; "185.0.0.0"; "185.14.0.0"; "185.14.9.0"; "0.0.0.0"; ""
"185.15.0"; "MN - Faculty of Mathematics and Natural Sciences"; "185.15.0.0"; "Det matematisk-naturvitenskapelige fakultet"; "185.0.0.0"; "185.15.0.0"; "0.0.0.0"; "0.0.0.0"; ""
"185.15.12"; "MN - Department of Chemistry"; "185.15.12.0"; "Kjemisk institutt"; "185.0.0.0"; "185.15.0.0"; "185.15.12.0"; "0.0.0.0"; ""
"185.15.12.0"; "null"; "185.15.12.0"; "Kjemisk institutt"; "185.0.0.0"; "185.15.0.0"; "185.15.12.0"; "0.0.0.0"; ""
"185.15.13"; "MN - Department of Mathematics"; "185.15.13.0"; "Matematisk institutt"; "185.0.0.0"; "185.15.0.0"; "185.15.13.0"; "0.0.0.0"; ""
"185.15.22"; "MN - Department of Geosciences"; "185.15.22.0"; "Institutt for geofag"; "185.0.0.0"; "185.15.0.0"; "185.15.22.0"; "0.0.0.0"; ""
"185.15.23"; "MN - Department of Pharmacy"; "185.15.23.0"; "Farmasøytisk institutt"; "185.0.0.0"; "185.15.0.0"; "185.15.23.0"; "0.0.0.0"; ""
"185.15.27"; "MN - The Norwegian Centre for Science Education"; "185.15.27.0"; "Naturfagsenteret"; "185.0.0.0"; "185.15.0.0"; "185.15.27.0"; "0.0.0.0"; ""
"185.15.29"; "MN - Department of Biosciences"; "185.15.29.0"; "Institutt for biovitenskap"; "185.0.0.0"; "185.15.0.0"; "185.15.29.0"; "0.0.0.0"; ""
"185.15.30"; "MN - Department of Technology Systems"; "185.15.30.0"; "Institutt for teknologisystemer"; "185.0.0.0"; "185.15.0.0"; "185.15.30.0"; "0.0.0.0"; ""
"185.15.3"; "MN - Institute of Theoretical Astrophysics"; "185.15.3.0"; "Institutt for teoretisk astrofysikk"; "185.0.0.0"; "185.15.0.0"; "185.15.3.0"; "0.0.0.0"; ""
"185.15.4"; "MN - Department of Physics"; "185.15.4.0"; "Fysisk institutt"; "185.0.0.0"; "185.15.0.0"; "185.15.4.0"; "0.0.0.0"; ""
"185.15.5"; "MN - Department of Informatics"; "185.15.5.0"; "Institutt for informatikk"; "185.0.0.0"; "185.15.5.0"; "185.15.5.0"; "0.0.0.0"; ""
"185.16.0"; "OD - Faculty of Dentistry"; "185.16.0.0"; "Det odontologiske fakultet"; "185.0.0.0"; "185.16.0.0"; "0.0.0.0"; "0.0.0.0"; ""
"185.17.0"; "SV - Faculty of Social Sciences"; "185.17.0.0"; "Det samfunnsvitenskapelige fakultet"; "185.0.0.0"; "185.17.0.0"; "0.0.0.0"; "0.0.0.0"; ""
"185.17.1"; "SV - Centre for Technology Innovation and Culture"; "185.17.1.0"; "Senter for teknologi, innovasjon og kultur"; "185.0.0.0"; "185.17.0.0"; "185.17.1.0"; "0.0.0.0"; ""
"185.17.5"; "SV - Department of Psychology"; "185.17.5.0"; "Psykologisk institutt"; "185.0.0.0"; "185.17.0.0"; "185.17.5.0"; "0.0.0.0"; ""
"185.17.6"; "SV - Department of Economics"; "185.17.6.0"; "Økonomisk institutt"; "185.0.0.0"; "185.17.0.0"; "185.17.6.0"; "0.0.0.0"; ""
"185.17.7"; "SV - Department of Sociology and Human Geography"; "185.17.7.0"; "Institutt for sosiologi og samfunnsgeografi"; "185.0.0.0"; "185.17.0.0"; "185.17.7.0"; "0.0.0.0"; ""
"185.17.8"; "SV - Department of Political Science"; "185.17.8.0"; "Institutt for Statsvitenskap"; "185.0.0.0"; "185.17.0.0"; "185.17.8.0"; "0.0.0.0"; ""
"185.17.9"; "SV - Department of Social Anthropology"; "185.17.9.0"; "Sosialantropologisk institutt"; "185.0.0.0"; "185.17.0.0"; "185.17.9.0"; "0.0.0.0"; ""
"185.18.0"; "UV - Faculty of Educational Sciences"; "185.18.0.0"; "Det utdanningsvitenskapelige fakultet"; "185.0.0.0"; "185.18.0.0"; "0.0.0.0"; "0.0.0.0"; ""
"185.18.1"; "UV - Department of Education"; "185.18.1.0"; "Institutt for pedagogikk"; "185.0.0.0"; "185.18.0.0"; "185.18.1.0"; "0.0.0.0"; ""
"185.18.2"; "UV - Department of Teacher Education and School Research"; "185.18.2.0"; "Institutt for lærerutdanning og skoleforskning"; "185.0.0.0"; "185.18.0.0"; "185.18.2.0"; "0.0.0.0"; ""
"185.18.3"; "UV - Department of Special Needs Education"; "185.18.3.0"; "Institutt for spesialpedagogikk"; "185.0.0.0"; "185.18.0.0"; "185.18.3.0"; "0.0.0.0"; ""
"185.18.7"; "UV - Centre for Educational Measurement (CEMO)"; "185.18.7.0"; "Centre for Educational Measurement"; "185.0.0.0"; "185.18.0.0"; "185.18.7.0"; "0.0.0.0"; ""
"185.29.12"; "UiO - Centre for Gender Research"; "185.29.12.0"; "Senter for tverrfaglig kjønnsforskning"; "185.0.0.0"; "0.0.0.0"; "185.29.12.0"; "0.0.0.0"; ""
"185.29.1"; "UiO - Centre for Development and the Environment"; "185.29.1.0"; "Senter for utvikling og miljø"; "185.0.0.0"; "0.0.0.0"; "185.29.1.0"; "0.0.0.0"; ""
"185.29.7"; "UiO - International Summer School"; "185.29.7.0"; "Den internasjonale sommerskole"; "185.0.0.0"; "0.0.0.0"; "185.29.7.0"; "0.0.0.0"; ""
"185.50.0"; "MF - Faculty of Medicine"; "185.50.0.0"; "Det medisinske fakultet"; "185.0.0.0"; "185.50.0.0"; "0.0.0.0"; "0.0.0.0"; ""
"185.51.0"; "MF - Institute of Basic Medical Sciences (IMB)"; "185.51.0.0"; "Institutt for medisinske basalfag"; "185.0.0.0"; "185.50.0.0"; "185.51.0.0"; "0.0.0.0"; ""
"185.50.51"; "null"; "185.51.0.0"; "Institutt for medisinske basalfag"; "185.0.0.0"; "185.50.0.0"; "185.51.0.0"; "0.0.0.0"; ""
"185.51.13"; "MF - IMB Department of Nutrition"; "185.51.13.0"; "Avdeling for ernæringsvitenskap"; "185.0.0.0"; "185.50.0.0"; "185.51.13.0"; "0.0.0.0"; ""
"185.52.0"; "MF - Institute of Health and Society (IHS)"; "185.52.0.0"; "Institutt for helse og samfunn"; "185.0.0.0"; "185.50.0.0"; "185.52.0.0"; "0.0.0.0"; ""
"185.52.10"; "MF - IHS Department of Interdisciplinary Health Sciences"; "185.52.10.0"; "Avdeling for tverrfaglig helsevitenskap"; "185.0.0.0"; "185.50.0.0"; "185.52.10.0"; "0.0.0.0"; ""
"185.52.11"; "MF - IHS Department of Health Management and Health Economics"; "185.52.11.0"; "Avdeling for helseledelse og helseøkonomi"; "185.0.0.0"; "185.50.0.0"; "185.52.11.0"; "0.0.0.0"; ""
"185.52.12"; "MF - IHS Department of Nursing Science"; "185.52.12.0"; "Avdeling for folkehelsevitenskap"; "185.0.0.0"; "185.50.0.0"; "185.52.12.0"; "0.0.0.0"; ""
"185.52.13"; "MF - IHS Centre for Medical Ethics"; "185.52.13.0"; "Senter for medisinsk etikk"; "185.0.0.0"; "185.50.0.0"; "185.52.13.0"; "0.0.0.0"; ""
"185.52.14"; "MF - IHS Department of Community Medicine"; "185.52.14.0"; "Avdeling for samfunnsmedisin og global helse"; "185.0.0.0"; "185.50.0.0"; "185.52.14.0"; "0.0.0.0"; ""
"185.53.0"; "MF - Institute of Clinical Medicine (IKM)"; "185.53.0.0"; "Institutt for klinisk medisin"; "185.0.0.0"; "185.50.0.0"; "185.53.0.0"; "0.0.0.0"; ""
"185.53.15"; "MF - IKM Division of Cardiovascular and Pulmonary Diseases"; "185.53.15.0"; "Hjerte-, lunge- og karklinikken"; "185.0.0.0"; "185.50.0.0"; "185.53.15.0"; "0.0.0.0"; ""
"185.53.18"; "MF - IKM Division of Laboratory Medicine"; "185.53.18.0"; "Klinikk for laboratoriemedisin"; "185.0.0.0"; "185.50.0.0"; "185.53.18.0"; "0.0.0.0"; ""
"185.36.60"; "null"; "185.36.60.0"; "Avdeling for studieadministrasjon"; "185.0.0.0"; "185.36.0.0"; "185.36.60.0"; "0.0.0.0"; ""
