"leganto_dept_code","conspectus_use_unit_code","leganto_dept_name","cristin_unit_code","cristin_unit_name_en","cristin_unit_name_nb","cristin_sub_unit_code","cristin_sub_unit_name_en","cristin_sub_unit_name_nb","cristin_sub_sub_unit_code","cristin_sub_sub_unit_name_en","cristin_sub_sub_unit_name_nb"
"1627_10_0","1627.8.0.0","null","1627.0.0.0","Norwegian Defence University College","Forsvarets høgskole","1627.8.0.0","Norwegian Defence Command and Staff College","Stabsskolen","","",""
"1627_10","1627.8.0.0","Akershus festning","1627.0.0.0","Norwegian Defence University College","Forsvarets høgskole","1627.8.0.0","Norwegian Defence Command and Staff College","Stabsskolen","","",""
"1627_20_0","1627.5.0.0","null","1627.0.0.0","Norwegian Defence University College","Forsvarets høgskole","1627.5.0.0","Norwegian Defence Cyber Academy","Cyberingeniørskolen","","",""
"1627_20","1627.5.0.0","Krigsskolen","1627.0.0.0","Norwegian Defence University College","Forsvarets høgskole","1627.5.0.0","Norwegian Defence Cyber Academy","Cyberingeniørskolen","","",""
"1627_30_0","1627.3.0.0","null","1627.0.0.0","Norwegian Defence University College","Forsvarets høgskole","1627.3.0.0","Royal Norwegian Naval Academy (RNoNA)","Sjøkrigsskolen (SKSK)","","",""
"1627_30","1627.3.0.0","Sjøkrigsskolen","1627.0.0.0","Norwegian Defence University College","Forsvarets høgskole","1627.3.0.0","Royal Norwegian Naval Academy (RNoNA)","Sjøkrigsskolen (SKSK)","","",""
"1627_40_0","1627.2.0.0","null","1627.0.0.0","Norwegian Defence University College","Forsvarets høgskole","1627.2.0.0","Royal Norwegian Air Force Academy (RNoAFA)","Luftkrigsskolen (LKSK)","","",""
"1627_40","1627.2.0.0","Luftkrigsskolen","1627.0.0.0","Norwegian Defence University College","Forsvarets høgskole","1627.2.0.0","Royal Norwegian Air Force Academy (RNoAFA)","Luftkrigsskolen (LKSK)","","",""
"1627_50_0","1627.5.0.0","null","1627.0.0.0","Norwegian Defence University College","Forsvarets høgskole","1627.5.0.0","Norwegian Defence Cyber Academy","Cyberingeniørskolen","","",""
"1627_50","1627.5.0.0","Cyberingeniørskolen","1627.0.0.0","Norwegian Defence University College","Forsvarets høgskole","1627.5.0.0","Norwegian Defence Cyber Academy","Cyberingeniørskolen","","",""
"","1627.0.0.0","null","1627.0.0.0","Norwegian Defence University College","Forsvarets høgskole","","","","","",""
