"leganto_dept_code","conspectus_use_unit_code","leganto_dept_name","cristin_unit_code","cristin_unit_name_en","cristin_unit_name_nb","cristin_sub_unit_code","cristin_sub_unit_name_en","cristin_sub_unit_name_nb","cristin_sub_sub_unit_code","cristin_sub_sub_unit_name_en","cristin_sub_sub_unit_name_nb"
"000_15_1","224.0.0.0","null","224.0.0.0","Østfold University College","Høgskolen i Østfold","","","","","",""
"201_17_2","224.0.0.0","null","224.0.0.0","Østfold University College","Høgskolen i Østfold","","","","","",""
"224_00","224.0.0.0","null","224.0.0.0","Østfold University College","Høgskolen i Østfold","","","","","",""
"224_20_0","224.0.0.0","HiØ - Seksjon for pedagogisk utvikling og læring","224.0.0.0","Østfold University College","Høgskolen i Østfold","","","","","",""
"224_30_0","224.35.20.0","null","224.0.0.0","Østfold University College","Høgskolen i Østfold","224.35.0.0","Faculty of Teacher Education and Languages","Fakultet for lærerutdanninger og språk","224.35.20.0","Department of Education, ICT and Learning","Institutt for pedagogikk, IKT og læring"
"224_30","224.35.20.0","null","224.0.0.0","Østfold University College","Høgskolen i Østfold","224.35.0.0","Faculty of Teacher Education and Languages","Fakultet for lærerutdanninger og språk","224.35.20.0","Department of Education, ICT and Learning","Institutt for pedagogikk, IKT og læring"
"224_35_0","224.35.0.0","LUSP - Emner ikke tilknyttet spesifikt institutt","224.0.0.0","Østfold University College","Høgskolen i Østfold","224.35.0.0","Faculty of Teacher Education and Languages","Fakultet for lærerutdanninger og språk","","",""
"224_35_10","224.35.10.0","LUSP -Institutt for språk, litteratur og kultur","224.0.0.0","Østfold University College","Høgskolen i Østfold","224.35.0.0","Faculty of Teacher Education and Languages","Fakultet for lærerutdanninger og språk","224.35.10.0","Department of Languages, Literature and Culture","Institutt for språk, litteratur og kultur"
"224_35_20","224.35.20.0","LUSP -Institutt for pedagogikk, IKT og læring","224.0.0.0","Østfold University College","Høgskolen i Østfold","224.35.0.0","Faculty of Teacher Education and Languages","Fakultet for lærerutdanninger og språk","224.35.20.0","Department of Education, ICT and Learning","Institutt for pedagogikk, IKT og læring"
"224_35_30","224.35.30.0","LUSP -Institutt for real-, praktisk-estetiske, samfunns- og religionsfag","224.0.0.0","Østfold University College","Høgskolen i Østfold","224.35.0.0","Faculty of Teacher Education and Languages","Fakultet for lærerutdanninger og språk","224.35.30.0","Department of Natural Sciences, Practical-Aesthetic, Social and Religious Studies","Institutt for real-, praktisk-estetiske, samfunns- og religionsfag"
"224_40_0","224.0.0.0","null","224.0.0.0","Østfold University College","Høgskolen i Østfold","","","","","",""
"224_40","224.45.20.0","null","224.0.0.0","Østfold University College","Høgskolen i Østfold","224.45.0.0","Faculty of Health, Welfare and Organisation","Fakultet for helse, velferd og organisasjon","224.45.20.0","Department of Welfare, Management and Organisation","Institutt for velferd, ledelse og organisasjon"
"224_45_10","224.45.10.0","HVO - Institutt for sykepleie, helse og bioingeniørfag","224.0.0.0","Østfold University College","Høgskolen i Østfold","224.45.0.0","Faculty of Health, Welfare and Organisation","Fakultet for helse, velferd og organisasjon","224.45.10.0","Department of Nursing, Health and laboratory science","Institutt for sykepleie, helse og bioingeniørfag"
"224_45_20","224.45.20.0","HVO - Institutt for velferd, ledelse og organisasjon","224.0.0.0","Østfold University College","Høgskolen i Østfold","224.45.0.0","Faculty of Health, Welfare and Organisation","Fakultet for helse, velferd og organisasjon","224.45.20.0","Department of Welfare, Management and Organisation","Institutt for velferd, ledelse og organisasjon"
"224_50","224.65.20.0","null","224.0.0.0","Østfold University College","Høgskolen i Østfold","224.65.0.0","Faculty of Computer Science, Engineering and Economics","Fakultet for informasjonsteknologi, ingeniørfag og økonomi","224.65.20.0","Department of Engineering","Institutt for ingeniørfag"
"224_55","224.65.10.0","null","224.0.0.0","Østfold University College","Høgskolen i Østfold","224.65.0.0","Faculty of Computer Science, Engineering and Economics","Fakultet for informasjonsteknologi, ingeniørfag og økonomi","224.65.10.0","Department of Computer Science and Communication","Institutt for informasjonsteknologi og kommunikasjon"
"224_60_0","224.35.10.0","null","224.0.0.0","Østfold University College","Høgskolen i Østfold","224.35.0.0","Faculty of Teacher Education and Languages","Fakultet for lærerutdanninger og språk","224.35.10.0","Department of Languages, Literature and Culture","Institutt for språk, litteratur og kultur"
"224_65_0","224.65.10.0","null","224.0.0.0","Østfold University College","Høgskolen i Østfold","224.65.0.0","Faculty of Computer Science, Engineering and Economics","Fakultet for informasjonsteknologi, ingeniørfag og økonomi","224.65.10.0","Department of Computer Science and Communication","Institutt for informasjonsteknologi og kommunikasjon"
"224_65_10","224.65.10.0","IIØ - Institutt for informasjonsteknologi og kommunikasjon","224.0.0.0","Østfold University College","Høgskolen i Østfold","224.65.0.0","Faculty of Computer Science, Engineering and Economics","Fakultet for informasjonsteknologi, ingeniørfag og økonomi","224.65.10.0","Department of Computer Science and Communication","Institutt for informasjonsteknologi og kommunikasjon"
"224_65_20","224.65.20.0","IIØ - Institutt for ingeniørfag","224.0.0.0","Østfold University College","Høgskolen i Østfold","224.65.0.0","Faculty of Computer Science, Engineering and Economics","Fakultet for informasjonsteknologi, ingeniørfag og økonomi","224.65.20.0","Department of Engineering","Institutt for ingeniørfag"
"224_65_30","224.65.30.0","IIØ - Institutt for økonomi, innovasjon og samfunn","224.0.0.0","Østfold University College","Høgskolen i Østfold","224.65.0.0","Faculty of Computer Science, Engineering and Economics","Fakultet for informasjonsteknologi, ingeniørfag og økonomi","224.65.30.0","Department of Economics, Innovation and Society","Institutt for økonomi, innovasjon og samfunn"
"224_70_0","224.70.0.0","Akademi for scenekunst","224.0.0.0","Østfold University College","Høgskolen i Østfold","224.70.0.0","Norwegian Theatre Academy","Akademi for scenekunst","","",""
"224_80_35","224.35.0.0","HiØ VIDERE emner - Fakultet for lærerutdanninger og språk","224.0.0.0","Østfold University College","Høgskolen i Østfold","224.35.0.0","Faculty of Teacher Education and Languages","Fakultet for lærerutdanninger og språk","","",""
"224_80_45","224.45.0.0","HiØ VIDERE emner - Fakultet for helse, velferd og organisasjon","224.0.0.0","Østfold University College","Høgskolen i Østfold","224.45.0.0","Faculty of Health, Welfare and Organisation","Fakultet for helse, velferd og organisasjon","","",""
"224_80_65","224.65.0.0","HiØ VIDERE emner - Fakultet for informasjonsteknologi, ingeniørfag og økonomi","224.0.0.0","Østfold University College","Høgskolen i Østfold","224.65.0.0","Faculty of Computer Science, Engineering and Economics","Fakultet for informasjonsteknologi, ingeniørfag og økonomi","","",""
"224_80","224.0.0.0","null","224.0.0.0","Østfold University College","Høgskolen i Østfold","","","","","",""
"null","224.0.0.0","null","224.0.0.0","Østfold University College","Høgskolen i Østfold","","","","","",""
