"leganto_dept_code","conspectus_use_unit_code","leganto_dept_name","cristin_unit_code","cristin_unit_name_en","cristin_unit_name_nb","cristin_sub_unit_code","cristin_sub_unit_name_en","cristin_sub_unit_name_nb","cristin_sub_sub_unit_code","cristin_sub_sub_unit_name_en","cristin_sub_sub_unit_name_nb"
"1615_10_0","1615.10.0.0","School of Economics, Innovation, and Technology","1615.0.0.0","Kristiania University College","Høyskolen Kristiania","1615.10.0.0","School of Economics, Innovation, and Technology","School of Economics, Innovation, and Technology","","",""
"1615_10_10","1615.10.0.0","Departement of Technology","1615.0.0.0","Kristiania University College","Høyskolen Kristiania","1615.10.0.0","School of Economics, Innovation, and Technology","School of Economics, Innovation, and Technology","","",""
"1615_10_20","1615.10.0.0","Departement of Economics and Innovation","1615.0.0.0","Kristiania University College","Høyskolen Kristiania","1615.10.0.0","School of Economics, Innovation, and Technology","School of Economics, Innovation, and Technology","","",""
"1615_10","1615.10.0.0","School of Economics, Innovation and Technology","1615.0.0.0","Kristiania University College","Høyskolen Kristiania","1615.10.0.0","School of Economics, Innovation, and Technology","School of Economics, Innovation, and Technology","","",""
"1615_30_10","1615.20.10.0","Westerdals Department of Creativity, Storytelling and Design","1615.0.0.0","Kristiania University College","Høyskolen Kristiania","1615.20.0.0","School of Arts, Design, and Media","School of Arts, Design, and Media","1615.20.10.0","Westerdals Department of Creativity, Storytelling and Design","Westerdals institutt for kreativitet, fortelling og design"
"1615_30_20","1615.20.20.0","Westerdals Department of Film and Media","1615.0.0.0","Kristiania University College","Høyskolen Kristiania","1615.20.0.0","School of Arts, Design, and Media","School of Arts, Design, and Media","1615.20.20.0","Westerdals Department of Film and Media","Westerdals institutt for film og medier"
"1615_30_30","1615.20.30.0","Department of Music","1615.0.0.0","Kristiania University College","Høyskolen Kristiania","1615.20.0.0","School of Arts, Design, and Media","School of Arts, Design, and Media","1615.20.30.0","Department of Music","Institutt for musikk"
"1615_30_40","1615.20.0.0","null","1615.0.0.0","Kristiania University College","Høyskolen Kristiania","1615.20.0.0","School of Arts, Design, and Media","School of Arts, Design, and Media","","",""
"1615_30_50","1615.20.98.0","Department of Performing Arts","1615.0.0.0","Kristiania University College","Høyskolen Kristiania","1615.20.0.0","School of Arts, Design, and Media","School of Arts, Design, and Media","1615.20.98.0","Department of Performing Arts","Institutt for scenekunst"
"1615_30","1615.20.0.0","School of Arts, Design, and Media","1615.0.0.0","Kristiania University College","Høyskolen Kristiania","1615.20.0.0","School of Arts, Design, and Media","School of Arts, Design, and Media","","",""
"1615_40_0","1615.0.0.0","School of Doctoral Studies","1615.0.0.0","Kristiania University College","Høyskolen Kristiania","","","","","",""
"1615_60_10","1615.0.0.0","null","1615.0.0.0","Kristiania University College","Høyskolen Kristiania","","","","","",""
"1615_60_20","1615.0.0.0","null","1615.0.0.0","Kristiania University College","Høyskolen Kristiania","","","","","",""
"1615_60_30","1615.0.0.0","null","1615.0.0.0","Kristiania University College","Høyskolen Kristiania","","","","","",""
"1615_60_40","1615.0.0.0","null","1615.0.0.0","Kristiania University College","Høyskolen Kristiania","","","","","",""
"1615_60_50","1615.0.0.0","null","1615.0.0.0","Kristiania University College","Høyskolen Kristiania","","","","","",""
"1615_60_60","1615.0.0.0","null","1615.0.0.0","Kristiania University College","Høyskolen Kristiania","","","","","",""
"1615_70_10","1615.30.10.0","Departement of Marketing","1615.0.0.0","Kristiania University College","Høyskolen Kristiania","1615.30.0.0","School of Communication, Leadership, and Marketing","School of Communication, Leadership, and Marketing","1615.30.10.0","Department of Marketing","Institutt for markedsføring"
"1615_70_20","1615.30.20.0","Departement of Leadership and Organization","1615.0.0.0","Kristiania University College","Høyskolen Kristiania","1615.30.0.0","School of Communication, Leadership, and Marketing","School of Communication, Leadership, and Marketing","1615.30.20.0","Department of Leadership and Organization","Institutt for ledelse og organisasjon"
"1615_70_30","1615.30.30.0","Departement of Communication","1615.0.0.0","Kristiania University College","Høyskolen Kristiania","1615.30.0.0","School of Communication, Leadership, and Marketing","School of Communication, Leadership, and Marketing","1615.30.30.0","Department of Communication","Institutt for kommunikasjon"
"1615_70","1615.30.0.0","School of Communication, Leadership, and Marketing","1615.0.0.0","Kristiania University College","Høyskolen Kristiania","1615.30.0.0","School of Communication, Leadership, and Marketing","School of Communication, Leadership, and Marketing","","",""
"1615_80_40","","SHS: Folkehelse og manuell behandling","","","","","","","","",""
"1615_80_50","1615.40.10.0","Departement of Health and Exercise","1615.0.0.0","Kristiania University College","Høyskolen Kristiania","1615.40.0.0","School of Health Sciences","School of Health Sciences","1615.40.10.0","Departement of Health and Exercise","Institutt for helse og trening"
"1615_80_60","1615.40.30.0","Departement of Psychology, Pedagogy and Law","1615.0.0.0","Kristiania University College","Høyskolen Kristiania","1615.40.0.0","School of Health Sciences","School of Health Sciences","1615.40.30.0","Departement of Psychology, Pedagogy and Law","Institutt for pedagogikk, psykologi og juss"
"1615_80","1615.40.0.0","School of Health Sciences","1615.0.0.0","Kristiania University College","Høyskolen Kristiania","1615.40.0.0","School of Health Sciences","School of Health Sciences","","",""
"null","1615.0.0.0","null","1615.0.0.0","Kristiania University College","Høyskolen Kristiania","","","","","",""
