"leganto_dept_code","conspectus_use_unit_code","leganto_dept_name","cristin_unit_code","cristin_unit_name_en","cristin_unit_name_nb","cristin_sub_unit_code","cristin_sub_unit_name_en","cristin_sub_unit_name_nb","cristin_sub_sub_unit_code","cristin_sub_sub_unit_name_en","cristin_sub_sub_unit_name_nb"
"215_13_9","230.0.0.0","null","230.0.0.0","Lovisenberg Diaconal University College","Lovisenberg diakonale høgskole","","","","","",""
"222_59_1","230.0.0.0","null","230.0.0.0","Lovisenberg Diaconal University College","Lovisenberg diakonale høgskole","","","","","",""
"230_10","230.0.0.0","Bachelor","230.0.0.0","Lovisenberg Diaconal University College","Lovisenberg diakonale høgskole","","","","","",""
"230_20","230.0.0.0","Etter- og videreutdanning","230.0.0.0","Lovisenberg Diaconal University College","Lovisenberg diakonale høgskole","","","","","",""
"230_30","230.0.0.0","Master","230.0.0.0","Lovisenberg Diaconal University College","Lovisenberg diakonale høgskole","","","","","",""
"","230.0.0.0","null","230.0.0.0","Lovisenberg Diaconal University College","Lovisenberg diakonale høgskole","","","","","",""
