"leganto_dept_code","conspectus_use_unit_code","leganto_dept_name","cristin_unit_code","cristin_unit_name_en","cristin_unit_name_nb","cristin_sub_unit_code","cristin_sub_unit_name_en","cristin_sub_unit_name_nb","cristin_sub_sub_unit_code","cristin_sub_sub_unit_name_en","cristin_sub_sub_unit_name_nb"
"254_11_0","254.3.0.0","null","254.0.0.0","NLA University College","NLA Høgskolen","254.3.0.0","Department of Teacher Education","Avdeling for lærerutdanning","","",""
"254_11","254.3.0.0","Avdeling for lærerutdanning","254.0.0.0","NLA University College","NLA Høgskolen","254.3.0.0","Department of Teacher Education","Avdeling for lærerutdanning","","",""
"254_12_0","254.6.0.0","null","254.0.0.0","NLA University College","NLA Høgskolen","254.6.0.0","Department of Education","Avdeling for pedagogikk","","",""
"254_12","254.6.0.0","Avdeling for pedagogikk","254.0.0.0","NLA University College","NLA Høgskolen","254.6.0.0","Department of Education","Avdeling for pedagogikk","","",""
"254_13","254.2.0.0","Avdeling for journalistikk, kommunikasjon og medier","254.0.0.0","NLA University College","NLA Høgskolen","254.2.0.0","Department of Journalism, Media and Communication","Avdeling for journalistikk, medier og kommunikasjon","","",""
"254_14","254.7.0.0","Avdeling for økonomi og kommunikasjon","254.0.0.0","NLA University College","NLA Høgskolen","254.7.0.0","Department of Economy and Management","Avdeling for økonomi og administrasjon","","",""
"254_15","254.5.0.0","Avdeling for teologi, religion og filosofi","254.0.0.0","NLA University College","NLA Høgskolen","254.5.0.0","Department of Theology, Religion and Philosophy","Avdeling for teologi, religion og filosofi","","",""
"254_16","254.1.0.0","Avdeling for interkulturelle studier","254.0.0.0","NLA University College","NLA Høgskolen","254.1.0.0","Department of intercultural studies","Avdeling for interkulturelle studier","","",""
"254_17","254.4.0.0","Avdeling for musikk","254.0.0.0","NLA University College","NLA Høgskolen","254.4.0.0","Department of Music","Avdeling for musikk","","",""
"","254.0.0.0","null","254.0.0.0","NLA University College","NLA Høgskolen","","","","","",""
