"leganto_dept_code","conspectus_use_unit_code","leganto_dept_name","cristin_unit_code","cristin_unit_name_en","cristin_unit_name_nb","cristin_sub_unit_code","cristin_sub_unit_name_en","cristin_sub_unit_name_nb","cristin_sub_sub_unit_code","cristin_sub_sub_unit_name_en","cristin_sub_sub_unit_name_nb"
"194_0_0","194.0.0.0","","194.0.0.0","Norwegian University of Science and Technology","Norges teknisk-naturvitenskapelige universitet","","","","","",""
"194_14_0","194.14.0.0","","194.0.0.0","Norwegian University of Science and Technology","Norges teknisk-naturvitenskapelige universitet","194.14.0.0","Pro-Rector for Education","Prorektor for utdanning","","",""
"194_60_0","194.60.0.0","","194.0.0.0","Norwegian University of Science and Technology","Norges teknisk-naturvitenskapelige universitet","194.60.0.0","Faculty of Economics and Management","Fakultet for økonomi","","",""
"194_61_0","194.61.0.0","Faculty of Architecture and Design","194.0.0.0","Norwegian University of Science and Technology","Norges teknisk-naturvitenskapelige universitet","194.61.0.0","Faculty of Architecture and Design","Fakultet for arkitektur og design","","",""
"194_62_0","194.62.0.0","","194.0.0.0","Norwegian University of Science and Technology","Norges teknisk-naturvitenskapelige universitet","194.62.0.0","Faculty of Humanities","Det humanistiske fakultet","","",""
"194_63_0","194.63.0.0","","194.0.0.0","Norwegian University of Science and Technology","Norges teknisk-naturvitenskapelige universitet","194.63.0.0","Faculty of Information Technology and Electrical Engineering","Fakultet for informasjonsteknologi og elektroteknikk","","",""
"194_64_0","194.64.0.0","","194.0.0.0","Norwegian University of Science and Technology","Norges teknisk-naturvitenskapelige universitet","194.64.0.0","Faculty of Engineering","Fakultet for ingeniørvitenskap","","",""
"194_65_0","194.65.0.0","","194.0.0.0","Norwegian University of Science and Technology","Norges teknisk-naturvitenskapelige universitet","194.65.0.0","Faculty of Medicine and Health Sciences","Fakultet for medisin og helsevitenskap","","",""
"194_66_0","194.66.0.0","Fakultet for naturvitenskap","194.0.0.0","Norwegian University of Science and Technology","Norges teknisk-naturvitenskapelige universitet","194.66.0.0","Faculty of Natural Sciences","Fakultet for naturvitenskap","","",""
"194_67_0","194.67.0.0","Fakultet for samfunns- og utdanningsvitenskap","194.0.0.0","Norwegian University of Science and Technology","Norges teknisk-naturvitenskapelige universitet","194.67.0.0","Faculty of Social and Educational Sciences","Fakultet for samfunns- og utdanningsvitenskap","","",""
"194_10_2","194.63.10.0","","194.0.0.0","Norwegian University of Science and Technology","Norges teknisk-naturvitenskapelige universitet","194.63.0.0","Faculty of Information Technology and Electrical Engineering","Fakultet for informasjonsteknologi og elektroteknikk","194.63.10.0","Department of Computer Science","Institutt for datateknologi og informatikk"
"194_14_50","194.14.50.0","","194.0.0.0","Norwegian University of Science and Technology","Norges teknisk-naturvitenskapelige universitet","194.14.0.0","Pro-Rector for Education","Prorektor for utdanning","194.14.50.0","Academic Administrative Division","Avdeling for studieadministrasjon"
"194_14_51","","","","","","","","","","",""
"194_31_05","194.31.5.0","Department of Archaeology and Cultural History","194.0.0.0","Norwegian University of Science and Technology","Norges teknisk-naturvitenskapelige universitet","194.31.0.0","NTNU University Museum","NTNU Vitenskapsmuseet","194.31.5.0","Department of Archaeology and Cultural History","Institutt for arkeologi og kulturhistorie"
"194_60_10","194.60.10.0","NTNU Business School","194.0.0.0","Norwegian University of Science and Technology","Norges teknisk-naturvitenskapelige universitet","194.60.0.0","Faculty of Economics and Management","Fakultet for økonomi","194.60.10.0","NTNU Business School","NTNU Handelshøyskolen"
"194_60_15","194.60.15.0","Department of International Business","194.0.0.0","Norwegian University of Science and Technology","Norges teknisk-naturvitenskapelige universitet","194.60.0.0","Faculty of Economics and Management","Fakultet for økonomi","194.60.15.0","Department of International Business","Institutt for internasjonal forretningsdrift"
"194_60_20","194.60.20.0","Department of Economics","194.0.0.0","Norwegian University of Science and Technology","Norges teknisk-naturvitenskapelige universitet","194.60.0.0","Faculty of Economics and Management","Fakultet for økonomi","194.60.20.0","Department of Economics","Institutt for samfunnsøkonomi"
"194_60_25","194.60.25.0","Department of Industrial Economics and Technology Management","194.0.0.0","Norwegian University of Science and Technology","Norges teknisk-naturvitenskapelige universitet","194.60.0.0","Faculty of Economics and Management","Fakultet for økonomi","194.60.25.0","Department of Industrial Economics and Technology Management","Institutt for industriell økonomi og teknologiledelse"
"194_61_30","194.61.30.0","Trondheim Academy of Fine Art","194.0.0.0","Norwegian University of Science and Technology","Norges teknisk-naturvitenskapelige universitet","194.61.0.0","Faculty of Architecture and Design","Fakultet for arkitektur og design","194.61.30.0","Trondheim Academy of Fine Art","Kunstakademiet i Trondheim"
"194_61_45","194.61.45.0","Department of Design","194.0.0.0","Norwegian University of Science and Technology","Norges teknisk-naturvitenskapelige universitet","194.61.0.0","Faculty of Architecture and Design","Fakultet for arkitektur og design","194.61.45.0","Department of Design","Institutt for design"
"194_61_50","194.61.50.0","Department of Architecture and Planning","194.0.0.0","Norwegian University of Science and Technology","Norges teknisk-naturvitenskapelige universitet","194.61.0.0","Faculty of Architecture and Design","Fakultet for arkitektur og design","194.61.50.0","Department of Architecture and Planning","Institutt for arkitektur og planlegging"
"194_61_55","194.61.55.0","Department of Architecture and Technology","194.0.0.0","Norwegian University of Science and Technology","Norges teknisk-naturvitenskapelige universitet","194.61.0.0","Faculty of Architecture and Design","Fakultet for arkitektur og design","194.61.55.0","Department of Architecture and Technology","Institutt for arkitektur og teknologi"
"194_62_25","","","","","","","","","","",""
"194_62_35","194.62.35.0","Department of Art and Media Studies","194.0.0.0","Norwegian University of Science and Technology","Norges teknisk-naturvitenskapelige universitet","194.62.0.0","Faculty of Humanities","Det humanistiske fakultet","194.62.35.0","Department of Art and Media Studies","Institutt for kunst- og medievitenskap"
"194_62_40","194.62.40.0","Department of Interdisciplinary Studies of Culture","194.0.0.0","Norwegian University of Science and Technology","Norges teknisk-naturvitenskapelige universitet","194.62.0.0","Faculty of Humanities","Det humanistiske fakultet","194.62.40.0","Department of Interdisciplinary Studies of Culture","Institutt for tverrfaglige kulturstudier"
"194_62_45","194.62.45.0","Department of Music","194.0.0.0","Norwegian University of Science and Technology","Norges teknisk-naturvitenskapelige universitet","194.62.0.0","Faculty of Humanities","Det humanistiske fakultet","194.62.45.0","Department of Music","Institutt for musikk"
"194_62_60","194.62.60.0","Department of Language and Literature","194.0.0.0","Norwegian University of Science and Technology","Norges teknisk-naturvitenskapelige universitet","194.62.0.0","Faculty of Humanities","Det humanistiske fakultet","194.62.60.0","Department of Language and Literature","Institutt for språk og litteratur"
"194_62_65","194.62.65.0","Department of Historical Studies","194.0.0.0","Norwegian University of Science and Technology","Norges teknisk-naturvitenskapelige universitet","194.62.0.0","Faculty of Humanities","Det humanistiske fakultet","194.62.65.0","Department of Historical Studies","Institutt for historiske studier"
"194_62_70","194.62.70.0","Department of Philosophy and Religious Studies","194.0.0.0","Norwegian University of Science and Technology","Norges teknisk-naturvitenskapelige universitet","194.62.0.0","Faculty of Humanities","Det humanistiske fakultet","194.62.70.0","Department of Philosophy and Religious Studies","Institutt for filosofi og religionsvitenskap"
"194_62_75","194.62.75.0","Department of Historical and Classical Studies","194.0.0.0","Norwegian University of Science and Technology","Norges teknisk-naturvitenskapelige universitet","194.62.0.0","Faculty of Humanities","Det humanistiske fakultet","194.62.75.0","Department of Historical and Classical Studies","Institutt for historiske og klassiske studier"
"194_62_80","194.62.80.0","Department of Modern History and Society","194.0.0.0","Norwegian University of Science and Technology","Norges teknisk-naturvitenskapelige universitet","194.62.0.0","Faculty of Humanities","Det humanistiske fakultet","194.62.80.0","Department of Modern History and Society","Institutt for moderne samfunnshistorie"
"194_63_10","194.63.10.0","Department of Computer Science","194.0.0.0","Norwegian University of Science and Technology","Norges teknisk-naturvitenskapelige universitet","194.63.0.0","Faculty of Information Technology and Electrical Engineering","Fakultet for informasjonsteknologi og elektroteknikk","194.63.10.0","Department of Computer Science","Institutt for datateknologi og informatikk"
"194_63_15","194.63.15.0","Department of Mathematical Sciences","194.0.0.0","Norwegian University of Science and Technology","Norges teknisk-naturvitenskapelige universitet","194.63.0.0","Faculty of Information Technology and Electrical Engineering","Fakultet for informasjonsteknologi og elektroteknikk","194.63.15.0","Department of Mathematical Sciences","Institutt for matematiske fag"
"194_63_20","194.63.20.0","Department of Electric Power Engineering","194.0.0.0","Norwegian University of Science and Technology","Norges teknisk-naturvitenskapelige universitet","194.63.0.0","Faculty of Information Technology and Electrical Engineering","Fakultet for informasjonsteknologi og elektroteknikk","194.63.20.0","Department of electric energy","Institutt for elektrisk energi"
"194_63_25","194.63.25.0","Department of Engineering Cybernetics","194.0.0.0","Norwegian University of Science and Technology","Norges teknisk-naturvitenskapelige universitet","194.63.0.0","Faculty of Information Technology and Electrical Engineering","Fakultet for informasjonsteknologi og elektroteknikk","194.63.25.0","Department of Engineering Cybernetics","Institutt for teknisk kybernetikk"
"194_63_30","194.63.30.0","Department of Information Security and Communication Technology","194.0.0.0","Norwegian University of Science and Technology","Norges teknisk-naturvitenskapelige universitet","194.63.0.0","Faculty of Information Technology and Electrical Engineering","Fakultet for informasjonsteknologi og elektroteknikk","194.63.30.0","Department of Information Security and Communication Technology","Institutt for informasjonssikkerhet og kommunikasjonsteknologi"
"194_63_35","194.63.35.0","Department of Electronic Systems","194.0.0.0","Norwegian University of Science and Technology","Norges teknisk-naturvitenskapelige universitet","194.63.0.0","Faculty of Information Technology and Electrical Engineering","Fakultet for informasjonsteknologi og elektroteknikk","194.63.35.0","Department of Electronic Systems","Institutt for elektroniske systemer"
"194_63_55","194.63.55.0","Department of ICT and Natural Sciences","194.0.0.0","Norwegian University of Science and Technology","Norges teknisk-naturvitenskapelige universitet","194.63.0.0","Faculty of Information Technology and Electrical Engineering","Fakultet for informasjonsteknologi og elektroteknikk","194.63.55.0","Department of ICT and Natural Sciences","Institutt for IKT og realfag"
"194_64_20","194.64.20.0","Department of Marine Technology","194.0.0.0","Norwegian University of Science and Technology","Norges teknisk-naturvitenskapelige universitet","194.64.0.0","Faculty of Engineering","Fakultet for ingeniørvitenskap","194.64.20.0","Department of Marine Technology","Institutt for marin teknikk"
"194_64_25","194.64.25.0","Department of Energy and Process Engineering","194.0.0.0","Norwegian University of Science and Technology","Norges teknisk-naturvitenskapelige universitet","194.64.0.0","Faculty of Engineering","Fakultet for ingeniørvitenskap","194.64.25.0","Department of Energy and Process Engineering","Institutt for energi- og prosessteknikk"
"194_64_45","194.64.45.0","Department of Structural Engineering","194.0.0.0","Norwegian University of Science and Technology","Norges teknisk-naturvitenskapelige universitet","194.64.0.0","Faculty of Engineering","Fakultet for ingeniørvitenskap","194.64.45.0","Department of Structural Engineering","Institutt for konstruksjonsteknikk"
"194_64_90","194.64.90.0","Department of Geoscience and Petroleum","194.0.0.0","Norwegian University of Science and Technology","Norges teknisk-naturvitenskapelige universitet","194.64.0.0","Faculty of Engineering","Fakultet for ingeniørvitenskap","194.64.90.0","Department of Geoscience and Petroleum","Institutt for geovitenskap og petroleum"
"194_64_91","194.64.91.0","Department of Civil and Environmental Engineering","194.0.0.0","Norwegian University of Science and Technology","Norges teknisk-naturvitenskapelige universitet","194.64.0.0","Faculty of Engineering","Fakultet for ingeniørvitenskap","194.64.91.0","Department of Civil and Environmental Engineering","Institutt for bygg- og miljøteknikk"
"194_64_92","194.64.92.0","Department of Mechanical and Industrial Engineering","194.0.0.0","Norwegian University of Science and Technology","Norges teknisk-naturvitenskapelige universitet","194.64.0.0","Faculty of Engineering","Fakultet for ingeniørvitenskap","194.64.92.0","Department of Mechanical and Industrial Engineering","Institutt for maskinteknikk og produksjon"
"194_64_93","194.64.93.0","Department of Ocean Operations and Civil Engineering","194.0.0.0","Norwegian University of Science and Technology","Norges teknisk-naturvitenskapelige universitet","194.64.0.0","Faculty of Engineering","Fakultet for ingeniørvitenskap","194.64.93.0","Department of Ocean Operations and Civil Engineering","Institutt for havromsoperasjoner og byggteknikk"
"194_64_94","194.64.94.0","Department of Manufacturing and Civil Engineering","194.0.0.0","Norwegian University of Science and Technology","Norges teknisk-naturvitenskapelige universitet","194.64.0.0","Faculty of Engineering","Fakultet for ingeniørvitenskap","194.64.94.0","Department of Manufacturing and Civil Engineering","Institutt for vareproduksjon og byggteknikk"
"194_65_15","194.65.15.0","Department of Clinical and Molecular Medicine","194.0.0.0","Norwegian University of Science and Technology","Norges teknisk-naturvitenskapelige universitet","194.65.0.0","Faculty of Medicine and Health Sciences","Fakultet for medisin og helsevitenskap","194.65.15.0","Department of Clinical and Molecular Medicine","Institutt for klinisk og molekylær medisin"
"194_65_20","194.65.20.0","Department of Public Health and Nursing","194.0.0.0","Norwegian University of Science and Technology","Norges teknisk-naturvitenskapelige universitet","194.65.0.0","Faculty of Medicine and Health Sciences","Fakultet for medisin og helsevitenskap","194.65.20.0","Department of Public Health and Nursing","Institutt for samfunnsmedisin og sykepleie"
"194_65_25","194.65.25.0","Department of Circulation and Medical Imaging","194.0.0.0","Norwegian University of Science and Technology","Norges teknisk-naturvitenskapelige universitet","194.65.0.0","Faculty of Medicine and Health Sciences","Fakultet for medisin og helsevitenskap","194.65.25.0","Department of Circulation and Medical Imaging","Institutt for sirkulasjon og bildediagnostikk"
"194_65_30","194.65.30.0","Department of Neuromedicine and Movement Science","194.0.0.0","Norwegian University of Science and Technology","Norges teknisk-naturvitenskapelige universitet","194.65.0.0","Faculty of Medicine and Health Sciences","Fakultet for medisin og helsevitenskap","194.65.30.0","Department of Neuromedicine and Movement Science","Institutt for nevromedisin og bevegelsesvitenskap"
"194_65_35","194.65.35.0","Department of Mental Health","194.0.0.0","Norwegian University of Science and Technology","Norges teknisk-naturvitenskapelige universitet","194.65.0.0","Faculty of Medicine and Health Sciences","Fakultet for medisin og helsevitenskap","194.65.35.0","Department of Mental Health","Institutt for psykisk helse"
"194_65_60","194.65.60.0","Kavli Institute for Systems Neuroscience","194.0.0.0","Norwegian University of Science and Technology","Norges teknisk-naturvitenskapelige universitet","194.65.0.0","Faculty of Medicine and Health Sciences","Fakultet for medisin og helsevitenskap","194.65.60.0","Kavli Institute for Systems Neuroscience","Kavliinstitutt for nevrovitenskap"
"194_65_70","194.65.70.0","Department of Health Sciences in Gjøvik","194.0.0.0","Norwegian University of Science and Technology","Norges teknisk-naturvitenskapelige universitet","194.65.0.0","Faculty of Medicine and Health Sciences","Fakultet for medisin og helsevitenskap","194.65.70.0","Department of Health Sciences Gjøvik","Institutt for helsevitenskap Gjøvik"
"194_65_80","194.65.80.0","Department of Health Sciences in Ålesund","194.0.0.0","Norwegian University of Science and Technology","Norges teknisk-naturvitenskapelige universitet","194.65.0.0","Faculty of Medicine and Health Sciences","Fakultet for medisin og helsevitenskap","194.65.80.0","Department of Health Sciences Ålesund","Institutt for helsevitenskap Ålesund"
"194_66_10","194.66.10.0","Department of Biology","194.0.0.0","Norwegian University of Science and Technology","Norges teknisk-naturvitenskapelige universitet","194.66.0.0","Faculty of Natural Sciences","Fakultet for naturvitenskap","194.66.10.0","Department of Biology","Institutt for biologi"
"194_66_15","194.66.15.0","Department of Biotechnology and Food Science","194.0.0.0","Norwegian University of Science and Technology","Norges teknisk-naturvitenskapelige universitet","194.66.0.0","Faculty of Natural Sciences","Fakultet for naturvitenskap","194.66.15.0","Department of Biotechnology and Food Science","Institutt for bioteknologi og matvitenskap"
"194_66_20","194.66.20.0","Department of Physics","194.0.0.0","Norwegian University of Science and Technology","Norges teknisk-naturvitenskapelige universitet","194.66.0.0","Faculty of Natural Sciences","Fakultet for naturvitenskap","194.66.20.0","Department of Physics","Institutt for fysikk"
"194_66_25","194.66.25.0","Department of Chemistry","194.0.0.0","Norwegian University of Science and Technology","Norges teknisk-naturvitenskapelige universitet","194.66.0.0","Faculty of Natural Sciences","Fakultet for naturvitenskap","194.66.25.0","Department of Chemistry","Institutt for kjemi"
"194_66_30","194.66.30.0","Department of Chemical Engineering","194.0.0.0","Norwegian University of Science and Technology","Norges teknisk-naturvitenskapelige universitet","194.66.0.0","Faculty of Natural Sciences","Fakultet for naturvitenskap","194.66.30.0","Department of Chemical Engineering","Institutt for kjemisk prosessteknologi"
"194_66_35","194.66.35.0","Department of Materials Science and Engineering","194.0.0.0","Norwegian University of Science and Technology","Norges teknisk-naturvitenskapelige universitet","194.66.0.0","Faculty of Natural Sciences","Fakultet for naturvitenskap","194.66.35.0","Department of Materials Science and Engineering","Institutt for materialteknologi"
"194_66_40","194.66.40.0","Department of Biomedical Laboratory Science","194.0.0.0","Norwegian University of Science and Technology","Norges teknisk-naturvitenskapelige universitet","194.66.0.0","Faculty of Natural Sciences","Fakultet for naturvitenskap","194.66.40.0","Department of Biomedical Laboratory Science","Institutt for bioingeniørfag"
"194_66_45","194.66.45.0","Department of Biological Sciences Ålesund","194.0.0.0","Norwegian University of Science and Technology","Norges teknisk-naturvitenskapelige universitet","194.66.0.0","Faculty of Natural Sciences","Fakultet for naturvitenskap","194.66.45.0","Department of Biological Sciences Ålesund","Institutt for biologiske fag Ålesund"
"194_67_10","194.67.10.0","Department of Geography","194.0.0.0","Norwegian University of Science and Technology","Norges teknisk-naturvitenskapelige universitet","194.67.0.0","Faculty of Social and Educational Sciences","Fakultet for samfunns- og utdanningsvitenskap","194.67.10.0","Department of Geography","Institutt for geografi"
"194_67_25","194.67.25.0","Department of Sociology and Political Science","194.0.0.0","Norwegian University of Science and Technology","Norges teknisk-naturvitenskapelige universitet","194.67.0.0","Faculty of Social and Educational Sciences","Fakultet for samfunns- og utdanningsvitenskap","194.67.25.0","Department of Sociology and Political Science","Institutt for sosiologi og statsvitenskap"
"194_67_40","194.67.40.0","Department of Psychology","194.0.0.0","Norwegian University of Science and Technology","Norges teknisk-naturvitenskapelige universitet","194.67.0.0","Faculty of Social and Educational Sciences","Fakultet for samfunns- og utdanningsvitenskap","194.67.40.0","Department of Psychology","Institutt for psykologi"
"194_67_45","194.67.45.0","Department of Social Anthropology","194.0.0.0","Norwegian University of Science and Technology","Norges teknisk-naturvitenskapelige universitet","194.67.0.0","Faculty of Social and Educational Sciences","Fakultet for samfunns- og utdanningsvitenskap","194.67.45.0","Department of Social Anthropology","Institutt for sosialantropologi"
"194_67_70","194.67.70.0","Department of Education and Lifelong Learning","194.0.0.0","Norwegian University of Science and Technology","Norges teknisk-naturvitenskapelige universitet","194.67.0.0","Faculty of Social and Educational Sciences","Fakultet for samfunns- og utdanningsvitenskap","194.67.70.0","Department of Education and Lifelong Learning","Institutt for pedagogikk og livslang læring"
"194_67_80","194.67.80.0","Department of Teacher Education","194.0.0.0","Norwegian University of Science and Technology","Norges teknisk-naturvitenskapelige universitet","194.67.0.0","Faculty of Social and Educational Sciences","Fakultet for samfunns- og utdanningsvitenskap","194.67.80.0","Department of Teacher Education","Institutt for lærerutdanning"
"194_67_90","194.67.90.0","Department of Social Work","194.0.0.0","Norwegian University of Science and Technology","Norges teknisk-naturvitenskapelige universitet","194.67.0.0","Faculty of Social and Educational Sciences","Fakultet for samfunns- og utdanningsvitenskap","194.67.90.0","Department of Social Work","Institutt for sosialt arbeid"
