"leganto_dept_code","conspectus_use_unit_code","leganto_dept_name","cristin_unit_code","cristin_unit_name_en","cristin_unit_name_nb","cristin_sub_unit_code","cristin_sub_unit_name_en","cristin_sub_unit_name_nb","cristin_sub_sub_unit_code","cristin_sub_sub_unit_name_en","cristin_sub_sub_unit_name_nb"
"231_4_0","231.0.0.0","null","231.0.0.0","Sámi University of Applied Sciences","Sámi allaskuvla/Sámi University of Applied Sciences","","","","","",""
"231_4","231.0.0.0","null","231.0.0.0","Sámi University of Applied Sciences","Sámi allaskuvla/Sámi University of Applied Sciences","","","","","",""
"231_5_0","231.0.0.0","null","231.0.0.0","Sámi University of Applied Sciences","Sámi allaskuvla/Sámi University of Applied Sciences","","","","","",""
"231_6_0","231.0.0.0","Departement of Sámi Teacher Educations","231.0.0.0","Sámi University of Applied Sciences","Sámi allaskuvla/Sámi University of Applied Sciences","","","","","",""
"231_6","231.0.0.0","null","231.0.0.0","Sámi University of Applied Sciences","Sámi allaskuvla/Sámi University of Applied Sciences","","","","","",""
"231_7_0","231.0.0.0","Departement of Sámi Teacher Educations","231.0.0.0","Sámi University of Applied Sciences","Sámi allaskuvla/Sámi University of Applied Sciences","","","","","",""
"231_7","231.0.0.0","null","231.0.0.0","Sámi University of Applied Sciences","Sámi allaskuvla/Sámi University of Applied Sciences","","","","","",""
"","231.0.0.0","null","231.0.0.0","Sámi University of Applied Sciences","Sámi allaskuvla/Sámi University of Applied Sciences","","","","","",""
