"leganto_dept_code","conspectus_use_unit_code","leganto_dept_name","cristin_unit_code","cristin_unit_name_en","cristin_unit_name_nb","cristin_sub_unit_code","cristin_sub_unit_name_en","cristin_sub_unit_name_nb","cristin_sub_sub_unit_code","cristin_sub_sub_unit_name_en","cristin_sub_sub_unit_name_nb"
"184100000",184.0.0.0,"Examen philosophicum",184.0.0.0,University of Bergen,Universitetet i Bergen,"","","","","",""
"184110000","184.11.0.0","Det humanistiske fakultet","184.0.0.0","University of Bergen","Universitetet i Bergen","184.11.0.0","Faculty of Humanities","Det humanistiske fakultet","","",""
"184112000","184.11.20.0","Institutt for fremmedspråk","184.0.0.0","University of Bergen","Universitetet i Bergen","184.11.0.0","Faculty of Humanities","Det humanistiske fakultet","184.11.20.0","Department of Foreign Languages","Institutt for fremmedspråk"
"184112100","184.11.21.0","Institutt for lingvistiske, litterære og estetiske studier","184.0.0.0","University of Bergen","Universitetet i Bergen","184.11.0.0","Faculty of Humanities","Det humanistiske fakultet","184.11.21.0","Department of Linguistic, Literary and Aesthetic studies","Institutt for lingvistiske, litterære og estetiske studier"
"184112200","184.11.22.0","Institutt for arkeologi, historie, kultur- og religionsvitenskap","184.0.0.0","University of Bergen","Universitetet i Bergen","184.11.0.0","Faculty of Humanities","Det humanistiske fakultet","184.11.22.0","Department of Archaeology, History, Cultural studies and Religion","Institutt for arkeologi, historie, kultur- og religionsvitenskap"
"184116200","184.11.62.0","Institutt for filosofi og førstesemesterstudier","184.0.0.0","University of Bergen","Universitetet i Bergen","184.11.0.0","Faculty of Humanities","Det humanistiske fakultet","184.11.62.0","Department of Philosophy","Institutt for filosofi og førstesemesterstudier"
"184117400","184.11.74.0","Senter for kvinne- og kjønnsforskning","184.0.0.0","University of Bergen","Universitetet i Bergen","184.11.0.0","Faculty of Humanities","Det humanistiske fakultet","184.11.74.0","Centre for Women's and Gender Research","Senter for kvinne- og kjønnsforskning"
"184117500","184.11.75.0","Senter for vitenskapsteori","184.0.0.0","University of Bergen","Universitetet i Bergen","184.11.0.0","Faculty of Humanities","Det humanistiske fakultet","184.11.75.0","Centre for the Study of the Sciences and the Humanities","Senter for vitenskapsteori"
"184120000","184.12.0.0","Det matematisk-naturvitenskapelige fakultet","184.0.0.0","University of Bergen","Universitetet i Bergen","184.12.0.0","Faculty of Mathematics and Natural Sciences","Det matematisk-naturvitenskapelige fakultet","","",""
"184121100","184.12.11.0","Matematisk institutt","184.0.0.0","University of Bergen","Universitetet i Bergen","184.12.0.0","Faculty of Mathematics and Natural Sciences","Det matematisk-naturvitenskapelige fakultet","184.12.11.0","Department of Mathematics","Matematisk institutt"
"184121200","184.12.12.0","Institutt for informatikk","184.0.0.0","University of Bergen","Universitetet i Bergen","184.12.0.0","Faculty of Mathematics and Natural Sciences","Det matematisk-naturvitenskapelige fakultet","184.12.12.0","Department of Informatics","Institutt for informatikk"
"184122400","184.12.24.0","Institutt for fysikk og teknologi","184.0.0.0","University of Bergen","Universitetet i Bergen","184.12.0.0","Faculty of Mathematics and Natural Sciences","Det matematisk-naturvitenskapelige fakultet","184.12.24.0","Department of Physics and Technology","Institutt for fysikk og teknologi"
"184123100","184.12.31.0","Kjemisk institutt","184.0.0.0","University of Bergen","Universitetet i Bergen","184.12.0.0","Faculty of Mathematics and Natural Sciences","Det matematisk-naturvitenskapelige fakultet","184.12.31.0","Department of Chemistry","Kjemisk institutt"
"184124400","184.12.44.0","Geofysisk institutt","184.0.0.0","University of Bergen","Universitetet i Bergen","184.12.0.0","Faculty of Mathematics and Natural Sciences","Det matematisk-naturvitenskapelige fakultet","184.12.44.0","Geophysical Institute","Geofysisk institutt"
"184125000","184.12.50.0","Institutt for geovitenskap","184.0.0.0","University of Bergen","Universitetet i Bergen","184.12.0.0","Faculty of Mathematics and Natural Sciences","Det matematisk-naturvitenskapelige fakultet","184.12.50.0","Department of Earth Science","Institutt for geovitenskap"
"184126000","184.12.60.0","Institutt for biovitenskap","184.0.0.0","University of Bergen","Universitetet i Bergen","184.12.0.0","Faculty of Mathematics and Natural Sciences","Det matematisk-naturvitenskapelige fakultet","184.12.60.0","Department of Biological Sciences (BIO)","Institutt for biovitenskap (BIO)"
"184130000","184.13.0.0","Det medisinske fakultet","184.0.0.0","University of Bergen","Universitetet i Bergen","184.13.0.0","Faculty of Medicine","Det medisinske fakultet","","",""
"184131400","184.13.14.0","Institutt for biomedisin","184.0.0.0","University of Bergen","Universitetet i Bergen","184.13.0.0","Faculty of Medicine","Det medisinske fakultet","184.13.14.0","Department of Biomedicine","Institutt for biomedisin"
"184131900","184.13.19.0","Institutt for klinisk odontologi","184.0.0.0","University of Bergen","Universitetet i Bergen","184.13.0.0","Faculty of Medicine","Det medisinske fakultet","184.13.19.0","Department of Clinical Dentistry","Institutt for klinisk odontologi"
"184132400","184.13.24.0","Klinisk institutt 1","184.0.0.0","University of Bergen","Universitetet i Bergen","184.13.0.0","Faculty of Medicine","Det medisinske fakultet","184.13.24.0","Department of Clinical Medicine","Klinisk institutt 1"
"184132500","184.13.25.0","Klinisk institutt 2","184.0.0.0","University of Bergen","Universitetet i Bergen","184.13.0.0","Faculty of Medicine","Det medisinske fakultet","184.13.25.0","Department of Clinical Science","Klinisk institutt 2"
"184132600","184.13.26.0","Institutt for global helse og samfunnsmedisin","184.0.0.0","University of Bergen","Universitetet i Bergen","184.13.0.0","Faculty of Medicine","Det medisinske fakultet","184.13.26.0","Department of Global Public Health and Primary Care","Institutt for global helse og samfunnsmedisin"
"184134400","184.13.44.0","Senter for internasjonal helse","184.0.0.0","University of Bergen","Universitetet i Bergen","184.13.0.0","Faculty of Medicine","Det medisinske fakultet","184.13.44.0","","Senter for internasjonal helse"
"184150000","184.15.0.0","Det samfunnsvitenskapelige fakultet","184.0.0.0","University of Bergen","Universitetet i Bergen","184.15.0.0","Faculty of Social Sciences","Det samfunnsvitenskapelige fakultet","","",""
"184151100","184.15.11.0","Sosiologisk institutt","184.0.0.0","University of Bergen","Universitetet i Bergen","184.15.0.0","Faculty of Social Sciences","Det samfunnsvitenskapelige fakultet","184.15.11.0","Department of Sociology","Sosiologisk institutt"
"184151200","184.15.12.0","Institutt for administrasjon og organisasjonsvitenskap","184.0.0.0","University of Bergen","Universitetet i Bergen","184.15.0.0","Faculty of Social Sciences","Det samfunnsvitenskapelige fakultet","184.15.12.0","Department of Government","Institutt for politikk og forvaltning"
"184151300","184.15.13.0","Institutt for sammenliknende politikk","184.0.0.0","University of Bergen","Universitetet i Bergen","184.15.0.0","Faculty of Social Sciences","Det samfunnsvitenskapelige fakultet","184.15.13.0","Department of Comparative Politics","Institutt for sammenliknende politikk"
"184151500","184.15.15.0","Institutt for økonomi","184.0.0.0","University of Bergen","Universitetet i Bergen","184.15.0.0","Faculty of Social Sciences","Det samfunnsvitenskapelige fakultet","184.15.15.0","Department of Economics","Institutt for økonomi"
"184151700","184.15.17.0","Institutt for informasjons- og medievitenskap","184.0.0.0","University of Bergen","Universitetet i Bergen","184.15.0.0","Faculty of Social Sciences","Det samfunnsvitenskapelige fakultet","184.15.17.0","Department of Information Science and Media Studies","Institutt for informasjons- og medievitenskap"
"184153400","184.15.34.0","Institutt for sosialantropologi","184.0.0.0","University of Bergen","Universitetet i Bergen","184.15.0.0","Faculty of Social Sciences","Det samfunnsvitenskapelige fakultet","184.15.34.0","Department of Social Anthropology","Institutt for sosialantropologi"
"184154100","184.15.41.0","Institutt for geografi","184.0.0.0","University of Bergen","Universitetet i Bergen","184.15.0.0","Faculty of Social Sciences","Det samfunnsvitenskapelige fakultet","184.15.41.0","Department of Geography","Institutt for geografi"
"184160000","184.16.0.0","Det juridiske fakultet","184.0.0.0","University of Bergen","Universitetet i Bergen","184.16.0.0","Faculty of Law","Det juridiske fakultet","","",""
"184170000","184.17.0.0","Det psykologiske fakultet","184.0.0.0","University of Bergen","Universitetet i Bergen","184.17.0.0","Faculty of Psychology","Det psykologiske fakultet","","",""
"184173200","184.17.32.0","Institutt for biologisk og medisinsk psykologi","184.0.0.0","University of Bergen","Universitetet i Bergen","184.17.0.0","Faculty of Psychology","Det psykologiske fakultet","184.17.32.0","Department of Biological and Medical Psychology","Institutt for biologisk og medisinsk psykologi"
"184173300","184.17.33.0","HEMIL-senteret","184.0.0.0","University of Bergen","Universitetet i Bergen","184.17.0.0","Faculty of Psychology","Det psykologiske fakultet","184.17.33.0","Department of Health Promotion and Development","Institutt for helse, miljø og likeverd (HEMIL)"
"184173400","184.17.34.0","Institutt for klinisk psykologi","184.0.0.0","University of Bergen","Universitetet i Bergen","184.17.0.0","Faculty of Psychology","Det psykologiske fakultet","184.17.34.0","Department of Clinical Psychology","Institutt for klinisk psykologi"
"184173500","184.17.35.0","Institutt for samfunnspsykologi","184.0.0.0","University of Bergen","Universitetet i Bergen","184.17.0.0","Faculty of Psychology","Det psykologiske fakultet","184.17.35.0","Department of Psychosocial Science","Institutt for samfunnspsykologi"
"184174200","184.17.42.0","Institutt for pedagogikk","184.0.0.0","University of Bergen","Universitetet i Bergen","184.17.0.0","Faculty of Psychology","Det psykologiske fakultet","184.17.42.0","Department of Education","Institutt for pedagogikk"
"184175000","184.17.50.0","The Centre for the Science of Learning & Technology (SLATE)","184.0.0.0","University of Bergen","Universitetet i Bergen","184.17.0.0","Faculty of Psychology","Det psykologiske fakultet","184.17.50.0","SLATE: Centre for the Science of Learning & Technology","SLATE"
"184176000","184.17.60.0","Senter for krisepsykologi","184.0.0.0","University of Bergen","Universitetet i Bergen","184.17.0.0","Faculty of Psychology","Det psykologiske fakultet","184.17.60.0","Centre for Crisis Psychology","Senter for krisepsykologi"
"184180000","184.18.0.0","Fakultet for kunst, musikk og design","184.0.0.0","University of Bergen","Universitetet i Bergen","184.18.0.0","Faculty of Fine Art, Music and Design","Fakultet for kunst, musikk og design","","",""
"184181000","184.18.10.0","Institutt for kunst","184.0.0.0","University of Bergen","Universitetet i Bergen","184.18.0.0","Faculty of Fine Art, Music and Design","Fakultet for kunst, musikk og design","184.18.10.0","The Art Academy &#8211; Department of Contemporary Art","Kunstakademiet &#8211; Institutt for samtidskunst"
"184182000","184.18.20.0","Institutt for design","184.0.0.0","University of Bergen","Universitetet i Bergen","184.18.0.0","Faculty of Fine Art, Music and Design","Fakultet for kunst, musikk og design","184.18.20.0","Department of Design","Institutt for design"
"184183000","184.18.30.0","Griegakademiet - Institutt for musikk","184.0.0.0","University of Bergen","Universitetet i Bergen","184.18.0.0","Faculty of Fine Art, Music and Design","Fakultet for kunst, musikk og design","184.18.30.0","The Grieg Academy &#8211; Department of Music","Griegakademiet &#8211; Institutt for musikk"
"184189000","184.18.90.0","Program for kunstnerisk utviklingsarbeid","184.0.0.0","University of Bergen","Universitetet i Bergen","184.18.0.0","Faculty of Fine Art, Music and Design","Fakultet for kunst, musikk og design","184.18.90.0","","Program for kunstnerisk utviklingsarbeid"
"184216000","184.21.60.0","Forsknings- og innovasjonsavdelingen","184.0.0.0","University of Bergen","Universitetet i Bergen","184.21.0.0","","Administrasjonen","184.21.60.0","The Division of Research Management","Forsknings- og innovasjonsavdelingen"
"184218000","184.21.80.0","Studieadministrativ avdeling","184.0.0.0","University of Bergen","Universitetet i Bergen","184.21.0.0","","Administrasjonen","184.21.80.0","Division of Student and Academic Affairs","Studieavdelingen"
"215_14_0",0.0.0.0,TEST DATA SHOULD NOT OCCUR,"","","","","","","","",""
"217_14_0",0.0.0.0,TEST DATA SHOULD NOT OCCUR,"","","","","","","","",""
"217_8_3",0.0.0.0,TEST DATA SHOULD NOT OCCUR,"","","","","","","","",""
"AHKR",184.11.22.0,"Institutt for arkeologi, historie, kultur- og religionsvitenskap",184.0.0.0,University of Bergen,Universitetet i Bergen,184.11.0.0,Faculty of Humanities,Det humanistiske fakultet,184.11.22.0,"Department of Archaeology, History, Cultural studies and Religion","Institutt for arkeologi, historie, kultur- og religionsvitenskap"
"ECON",184.15.15.0,Institutt for økonomi,184.0.0.0,University of Bergen,Universitetet i Bergen,184.15.0.0,Faculty of Social Sciences,Det samfunnsvitenskapelige fakultet,184.15.15.0,Department of Economics,Institutt for økonomi
"GEOGRAFI",184.15.41.0,Institutt for geografi,184.0.0.0,University of Bergen,Universitetet i Bergen,184.15.0.0,Faculty of Social Sciences,Det samfunnsvitenskapelige fakultet,184.15.41.0,Department of Geography,Institutt for geografi
"INFOMEDIA",184.15.17.0,Institutt for informasjons- og medievitenskap,184.0.0.0,University of Bergen,Universitetet i Bergen,184.15.0.0,Faculty of Social Sciences,Det samfunnsvitenskapelige fakultet,184.15.17.0,Department of Information Science and Media Studies,Institutt for informasjons- og medievitenskap
"SAMPOL",184.15.13.0,Institutt for sammenliknende politikk,184.0.0.0,University of Bergen,Universitetet i Bergen,184.15.0.0,Faculty of Social Sciences,Det samfunnsvitenskapelige fakultet,184.15.13.0,Department of Comparative Politics,Institutt for sammenliknende politikk
