"leganto_dept_code","conspectus_use_unit_code","leganto_dept_name","cristin_unit_code","cristin_unit_name_en","cristin_unit_name_nb","cristin_sub_unit_code","cristin_sub_unit_name_en","cristin_sub_unit_name_nb","cristin_sub_sub_unit_code","cristin_sub_sub_unit_name_en","cristin_sub_sub_unit_name_nb"
"222_0_0","222.0.0.0","Universitetet i Sørøst-Norge","222.0.0.0","University of South-Eastern Norway","Universitetet i Sørøst-Norge","","","","","",""
"222_56_0","222.56.0.0","Fakultet for helse- og sosialvitenskap","222.0.0.0","University of South-Eastern Norway","Universitetet i Sørøst-Norge","222.56.0.0","Faculty of Health and Social Sciences","Fakultet for helse- og sosialvitenskap","","",""
"222_56_1","222.56.1.0","Institutt for sykepleie- og helsevitenskap","222.0.0.0","University of South-Eastern Norway","Universitetet i Sørøst-Norge","222.56.0.0","Faculty of Health and Social Sciences","Fakultet for helse- og sosialvitenskap","222.56.1.0","Department of Nursing and Health Sciences","Institutt for sykepleie- og helsevitenskap"
"222_56_2","222.56.2.0","Institutt for optometri, radiografi og lysdesign","222.0.0.0","University of South-Eastern Norway","Universitetet i Sørøst-Norge","222.56.0.0","Faculty of Health and Social Sciences","Fakultet for helse- og sosialvitenskap","222.56.2.0","Department of Optometry, Radiography and Lighting Design","Institutt for optometri, radiografi og lysdesign"
"222_56_3","222.56.3.0","Institutt for helse-, sosial- og velferdsfag","222.0.0.0","University of South-Eastern Norway","Universitetet i Sørøst-Norge","222.56.0.0","Faculty of Health and Social Sciences","Fakultet for helse- og sosialvitenskap","222.56.3.0","Department of Health, Social and Welfare Studies","Institutt for helse-, sosial- og velferdsfag"
"222_57_0","222.57.0.0","Handelshøyskolen","222.0.0.0","University of South-Eastern Norway","Universitetet i Sørøst-Norge","222.57.0.0","School of Business","Handelshøyskolen","","",""
"222_57_1","222.57.1.0","Institutt for økonomi og IT","222.0.0.0","University of South-Eastern Norway","Universitetet i Sørøst-Norge","222.57.0.0","School of Business","Handelshøyskolen","222.57.1.0","Department of Business and IT","Institutt for økonomi og IT"
"222_57_2","222.57.2.0","Institutt for industriell økonomi, strategi og statsvitenskap","222.0.0.0","University of South-Eastern Norway","Universitetet i Sørøst-Norge","222.57.0.0","School of Business","Handelshøyskolen","222.57.2.0","Department of Business, Strategy and Political Sciences","Institutt for industriell økonomi, strategi og statsvitenskap"
"222_57_3","222.57.3.0","Institutt for økonomi, markedsføring og jus","222.0.0.0","University of South-Eastern Norway","Universitetet i Sørøst-Norge","222.57.0.0","School of Business","Handelshøyskolen","222.57.3.0","Department of Business, Marketing and Law","Institutt for økonomi, markedsføring og jus"
"222_57_4","222.57.4.0","Institutt for økonomi, historie og samfunnsvitenskap","222.0.0.0","University of South-Eastern Norway","Universitetet i Sørøst-Norge","222.57.0.0","School of Business","Handelshøyskolen","222.57.4.0","Department of Business, History and Social Sciences","Institutt for økonomi, historie og samfunnsvitenskap"
"222_58_0","222.58.0.0","Fakultet for teknologi, naturvitenskap og maritime fag","222.0.0.0","University of South-Eastern Norway","Universitetet i Sørøst-Norge","222.58.0.0","Faculty of Technology, Natural Sciences and Maritime Sciences","Fakultet for teknologi, naturvitenskap og maritime fag","","",""
"222_58_1","222.58.1.0","Institutt for natur-, helse - og miljø","222.0.0.0","University of South-Eastern Norway","Universitetet i Sørøst-Norge","222.58.0.0","Faculty of Technology, Natural Sciences and Maritime Sciences","Fakultet for teknologi, naturvitenskap og maritime fag","222.58.1.0","Department of Natural Sciences and Environmental Health","Institutt for natur, helse og miljø"
"222_58_2","222.58.2.0","Institutt for elektro, IT og kybernetikk","222.0.0.0","University of South-Eastern Norway","Universitetet i Sørøst-Norge","222.58.0.0","Faculty of Technology, Natural Sciences and Maritime Sciences","Fakultet for teknologi, naturvitenskap og maritime fag","222.58.2.0","Department of Electrical engineering, Information Technology and Cybernetics","Institutt for elektro, IT og kybernetikk"
"222_58_3","222.58.3.0","Institutt for prosess-, energi- og miljøteknologi","222.0.0.0","University of South-Eastern Norway","Universitetet i Sørøst-Norge","222.58.0.0","Faculty of Technology, Natural Sciences and Maritime Sciences","Fakultet for teknologi, naturvitenskap og maritime fag","222.58.3.0","Department of Process, Energy and Environmental Technology","Institutt for prosess-, energi- og miljøteknologi"
"222_58_4","222.58.4.0","Institutt for mikrosystemer","222.0.0.0","University of South-Eastern Norway","Universitetet i Sørøst-Norge","222.58.0.0","Faculty of Technology, Natural Sciences and Maritime Sciences","Fakultet for teknologi, naturvitenskap og maritime fag","222.58.4.0","Department of Microsystems","Institutt for mikrosystemer"
"222_58_5","222.58.5.0","Institutt for maritime operasjoner","222.0.0.0","University of South-Eastern Norway","Universitetet i Sørøst-Norge","222.58.0.0","Faculty of Technology, Natural Sciences and Maritime Sciences","Fakultet for teknologi, naturvitenskap og maritime fag","222.58.5.0","Department of Maritime operations","Institutt for maritime operasjoner"
"222_58_6","222.58.6.0","Institutt for realfag og industrisystemer","222.0.0.0","University of South-Eastern Norway","Universitetet i Sørøst-Norge","222.58.0.0","Faculty of Technology, Natural Sciences and Maritime Sciences","Fakultet for teknologi, naturvitenskap og maritime fag","222.58.6.0","Department of Science and Industry systems","Institutt for realfag og industrisystemer"
"222_59_0","222.59.0.0","Fakultet for humaniora, idretts- og utdanningsvitenskap","222.0.0.0","University of South-Eastern Norway","Universitetet i Sørøst-Norge","222.59.0.0","Faculty of Humanities, Sports and Educational Science","Fakultet for humaniora, idretts- og utdanningsvitenskap","","",""
"222_59_1","222.59.1.0","Institutt for matematikk og naturfag","222.0.0.0","University of South-Eastern Norway","Universitetet i Sørøst-Norge","222.59.0.0","Faculty of Humanities, Sports and Educational Science","Fakultet for humaniora, idretts- og utdanningsvitenskap","222.59.1.0","Department of Mathematics and Science Education","Institutt for matematikk og naturfag"
"222_59_2","222.59.2.0","Institutt for språk og litteratur","222.0.0.0","University of South-Eastern Norway","Universitetet i Sørøst-Norge","222.59.0.0","Faculty of Humanities, Sports and Educational Science","Fakultet for humaniora, idretts- og utdanningsvitenskap","222.59.2.0","Department of Languages and Literature Studies","Institutt for språk og litteratur"
"222_59_3","222.59.3.0","Institutt for kultur, religion og samfunnsfag","222.0.0.0","University of South-Eastern Norway","Universitetet i Sørøst-Norge","222.59.0.0","Faculty of Humanities, Sports and Educational Science","Fakultet for humaniora, idretts- og utdanningsvitenskap","222.59.3.0","Department of Culture, Religion and Social Studies","Institutt for kultur, religion og samfunnsfag "
"222_59_4","222.59.4.0","Institutt for friluftsliv, idrett og kroppsøving","222.0.0.0","University of South-Eastern Norway","Universitetet i Sørøst-Norge","222.59.0.0","Faculty of Humanities, Sports and Educational Science","Fakultet for humaniora, idretts- og utdanningsvitenskap","222.59.4.0","Department of Sports, Physical Education and Outdoor Studies","Institutt for friluftsliv, idrett og kroppsøving"
"222_59_5","222.59.5.0","Institutt for estetiske fag","222.0.0.0","University of South-Eastern Norway","Universitetet i Sørøst-Norge","222.59.0.0","Faculty of Humanities, Sports and Educational Science","Fakultet for humaniora, idretts- og utdanningsvitenskap","222.59.5.0","Department of Visual and Performing Arts Education","Institutt for estetiske fag"
"222_59_6","222.59.6.0","Institutt for tradisjonskunst og folkemusikk","222.0.0.0","University of South-Eastern Norway","Universitetet i Sørøst-Norge","222.59.0.0","Faculty of Humanities, Sports and Educational Science","Fakultet for humaniora, idretts- og utdanningsvitenskap","222.59.6.0","Department of Traditional Arts and Traditional Music","Institutt for tradisjonskunst og folkemusikk"
"222_59_7","222.59.7.0","Institutt for pedagogikk","222.0.0.0","University of South-Eastern Norway","Universitetet i Sørøst-Norge","222.59.0.0","Faculty of Humanities, Sports and Educational Science","Fakultet for humaniora, idretts- og utdanningsvitenskap","222.59.7.0","Department of Educational Science","Institutt for pedagogikk"
"222_66_0","222.56.0.0","EVU - Fakultet for helse- og sosialvitenskap","222.0.0.0","University of South-Eastern Norway","Universitetet i Sørøst-Norge","222.56.0.0","Faculty of Health and Social Sciences","Fakultet for helse- og sosialvitenskap","","",""
"222_66_1","222.56.1.0","EVU - Institutt for sykepleie- og helsevitenskap","222.0.0.0","University of South-Eastern Norway","Universitetet i Sørøst-Norge","222.56.0.0","Faculty of Health and Social Sciences","Fakultet for helse- og sosialvitenskap","222.56.1.0","Department of Nursing and Health Sciences","Institutt for sykepleie- og helsevitenskap"
"222_66_2","222.56.2.0","EVU - Institutt for optometri, radiografi og lysdesign","222.0.0.0","University of South-Eastern Norway","Universitetet i Sørøst-Norge","222.56.0.0","Faculty of Health and Social Sciences","Fakultet for helse- og sosialvitenskap","222.56.2.0","Department of Optometry, Radiography and Lighting Design","Institutt for optometri, radiografi og lysdesign"
"222_66_3","222.56.3.0","EVU-Institutt for helse-, sosial- og velferdsfag","222.0.0.0","University of South-Eastern Norway","Universitetet i Sørøst-Norge","222.56.0.0","Faculty of Health and Social Sciences","Fakultet for helse- og sosialvitenskap","222.56.3.0","Department of Health, Social and Welfare Studies","Institutt for helse-, sosial- og velferdsfag"
"222_67_0","222.57.0.0","EVU - Handelshøyskolen","222.0.0.0","University of South-Eastern Norway","Universitetet i Sørøst-Norge","222.57.0.0","School of Business","Handelshøyskolen","","",""
"222_67_1","222.57.1.0","EVU - Institutt for økonomi og it","222.0.0.0","University of South-Eastern Norway","Universitetet i Sørøst-Norge","222.57.0.0","School of Business","Handelshøyskolen","222.57.1.0","Department of Business and IT","Institutt for økonomi og IT"
"222_67_2","222.57.2.0","EVU - Institutt for industriell økonomi, strategi og statsvitenskap","222.0.0.0","University of South-Eastern Norway","Universitetet i Sørøst-Norge","222.57.0.0","School of Business","Handelshøyskolen","222.57.2.0","Department of Business, Strategy and Political Sciences","Institutt for industriell økonomi, strategi og statsvitenskap"
"222_67_3","222.57.3.0","EVU - Institutt for økonomi, markedsføring og jus","222.0.0.0","University of South-Eastern Norway","Universitetet i Sørøst-Norge","222.57.0.0","School of Business","Handelshøyskolen","222.57.3.0","Department of Business, Marketing and Law","Institutt for økonomi, markedsføring og jus"
"222_67_4","222.57.4.0","EVU - Institutt for økonomi, historie og samfunnsvitenskap","222.0.0.0","University of South-Eastern Norway","Universitetet i Sørøst-Norge","222.57.0.0","School of Business","Handelshøyskolen","222.57.4.0","Department of Business, History and Social Sciences","Institutt for økonomi, historie og samfunnsvitenskap"
"222_68_0","222.58.0.0","EVU - Fakultet for teknologi, naturvitenskap og maritime fag","222.0.0.0","University of South-Eastern Norway","Universitetet i Sørøst-Norge","222.58.0.0","Faculty of Technology, Natural Sciences and Maritime Sciences","Fakultet for teknologi, naturvitenskap og maritime fag","","",""
"222_69_0","222.59.0.0","EVU - Fakultet for humaniora, idretts- og utdanningsvitenskap","222.0.0.0","University of South-Eastern Norway","Universitetet i Sørøst-Norge","222.59.0.0","Faculty of Humanities, Sports and Educational Science","Fakultet for humaniora, idretts- og utdanningsvitenskap","","",""
"","","null","","","","","","","","",""
"UNDEFINED","","null","","","","","","","","",""
